{
  "_id": "igK1cFB7k8PWa6eB",
  "name": "Blowgun Darts (10)",
  "type": "loot",
  "img": "icons/weapons/ammunition/arrows-bodkin-yellow-red.webp",
  "data": {
    "description": {
      "value": "<p><strong>Source</strong> <em>Ultimate Equipment pg. 22</em>, <em>Pathfinder Campaign Setting pg. 211</em>, <em>PRPG Core Rulebook pg. 142</em></p><h3 class=\"framing\"><img src=\"https://www.aonprd.com/images/PathfinderSocietySymbol.gif\" title=\"PFS Legal\" style=\"margin:3px 3px 0px 3px;\">Statistics</h3><p><strong>Cost</strong> 5 sp <strong>Weight</strong> -</p><p><strong>Category</strong> Ammunition; <strong>Proficiency</strong> Ammunition</p><h3 class=\"framing\">Description</h3><p>The thin, light darts used in a blowgun are usually made of hardwood with a stabilizing fletching of down or fur. A dart is usually loaded from the back end just before firing.</p>"
    },
    "tags": [],
    "quantity": 10,
    "price": 0.5,
    "hp": {
      "max": 1,
      "value": 1
    },
    "hardness": 5,
    "identifiedName": "Blowgun Darts (10)",
    "changes": [],
    "contextNotes": [],
    "links": {
      "children": []
    },
    "tag": "blowgunDarts10",
    "flags": {
      "boolean": [],
      "dictionary": []
    },
    "scriptCalls": [],
    "subType": "ammo",
    "equipped": false
  },
  "effects": [],
  "folder": null,
  "sort": 0,
  "permission": {
    "default": 0
  },
  "flags": {}
}