{
  "_id": "hk9XXmx25qaSgOUV",
  "name": "Bo Staff",
  "type": "weapon",
  "img": "icons/weapons/staves/staff-simple-gold.webp",
  "data": {
    "description": {
      "value": "<p><strong>Source</strong> <em>Ultimate Equipment pg. 20</em>, <em>Ultimate Combat pg. 130</em></p><h3 class=\"framing\"><img src=\"https://www.aonprd.com/images/PathfinderSocietySymbol.gif\" title=\"PFS Legal\" style=\"margin:3px 3px 0px 3px;\">Statistics</h3><p><strong>Cost</strong> 1 gp <strong>Weight</strong> 3 lbs.</p><p><strong>Damage</strong> 1d4/1d4 (small), 1d6/1d6 (medium); <strong>Critical</strong> x2; <strong>Range</strong> -; <strong>Type</strong> B; <strong>Special</strong> blocking, double, monk</p><p><strong>Category</strong> Two-Handed; <strong>Proficiency</strong> Exotic</p><p><strong>Weapon Groups</strong> Double; Monk</p><h3 class=\"framing\">Description</h3><p>Similar to a quarterstaff, only more slender and tapered at one end, the bo staff is both a defensive device and a weapon.</p>"
    },
    "tags": [],
    "weight": 3,
    "price": 1,
    "hardness": 10,
    "identifiedName": "Bo Staff",
    "changes": [],
    "contextNotes": [],
    "links": {
      "children": []
    },
    "tag": "boStaff",
    "flags": {
      "boolean": [],
      "dictionary": []
    },
    "scriptCalls": [],
    "weaponType": "exotic",
    "weaponSubtype": "2h",
    "weaponData": {
      "damageRoll": "1d6",
      "damageType": "B",
      "critRange": "",
      "critMult": "2",
      "range": 0
    }
  },
  "effects": [],
  "folder": null,
  "sort": 0,
  "permission": {
    "default": 0
  },
  "flags": {}
}