{
  "_id": "v5oMOHGuej5FrYqe",
  "name": "Boarding Pike",
  "type": "weapon",
  "img": "systems/pf1/icons/items/weapons/boarding-pike.png",
  "data": {
    "description": {
      "value": "<p><strong>Source</strong> <em>Pirates of the Inner Sea pg. 19</em>, <em>Skull and Shackles Player's Guide pg. 6</em></p><h3 class=\"framing\">Statistics</h3><p><strong>Cost</strong> 8 gp <strong>Weight</strong> 9 lbs.</p><p><strong>Damage</strong> 1d6 (small), 1d8 (medium); <strong>Critical</strong> x3; <strong>Range</strong> -; <strong>Type</strong> P; <strong>Special</strong> brace, reach</p><p><strong>Category</strong> Two-Handed; <strong>Proficiency</strong> Simple</p><h3 class=\"framing\">Description</h3><p>A boarding pike is an 8-foot-long pole topped with a foot-long tapered metal tip. Boarding pikes look much like longspears, but the metal pike is designed to flow into the wooden haft, leaving no grooves, collars, or spikes that could trap salt water and cause rust. Boarding pikes are mainly used defensively, to repel boarding actions. The pikes are kept in brackets around the mast, so sailors can quickly grab pikes and brace them against the gunwale to repel boarders.</p>"
    },
    "tags": [],
    "weight": 9,
    "price": 8,
    "hardness": 10,
    "identifiedName": "Boarding Pike",
    "changes": [],
    "contextNotes": [],
    "links": {
      "children": []
    },
    "tag": "boardingPike",
    "flags": {
      "boolean": [],
      "dictionary": []
    },
    "scriptCalls": [],
    "weaponSubtype": "2h",
    "weaponData": {
      "damageRoll": "1d8",
      "damageType": "P",
      "critRange": "20",
      "critMult": "3",
      "range": 0
    }
  },
  "effects": [],
  "folder": null,
  "sort": 0,
  "permission": {
    "default": 0
  },
  "flags": {}
}