{
  "_id": "MK5NI8fCMwndhONO",
  "name": "Chakram",
  "type": "weapon",
  "img": "systems/pf1/icons/items/weapons/chakram.png",
  "data": {
    "description": {
      "value": "<p><strong>Source</strong> <em>Ranged Tactics Toolbox pg. 0</em>, <em>Adventurer's Armory pg. 3</em>, <em>Advanced Player's Guide pg. 178</em>, <em>Ultimate Equipment pg. 19</em></p><h3 class=\"framing\"><img src=\"https://www.aonprd.com/images/PathfinderSocietySymbol.gif\" title=\"PFS Legal\" style=\"margin:3px 3px 0px 3px;\">Statistics</h3><p><strong>Cost</strong> 1 gp <strong>Weight</strong> 1 lb.</p><p><strong>Damage</strong> 1d6 (small), 1d8 (medium); <strong>Critical</strong> x2; <strong>Range</strong> 30 ft.; <strong>Type</strong> S; <strong>Special</strong> -</p><p><strong>Category</strong> Ranged; <strong>Proficiency</strong> Martial</p><p><strong>Weapon Groups</strong> Blades, Heavy; Blades, Light; Thrown</p><h3 class=\"framing\">Description</h3><p>The chakram is a simple, elegant, and highly portable thrown weapon. It is a flat, open-centered metal discus with a sharpened edge. You can wield the chakram as a melee weapon, but it is not designed for such use; you take a -1 penalty on your attack roll with the weapon and must succeed at a DC 15 Reflex save or cut yourself on the blade (half damage, no Strength modifier). You do not need to make this save if wearing heavy armor.</p>"
    },
    "tags": [],
    "weight": 1,
    "price": 1,
    "hp": {
      "max": 5,
      "value": 5
    },
    "hardness": 5,
    "identifiedName": "Chakram",
    "changes": [],
    "contextNotes": [],
    "links": {
      "children": []
    },
    "tag": "chakram",
    "flags": {
      "boolean": [],
      "dictionary": []
    },
    "scriptCalls": [],
    "weaponType": "martial",
    "weaponSubtype": "ranged",
    "weaponData": {
      "damageRoll": "1d8",
      "damageType": "S",
      "range": 30
    }
  },
  "effects": [],
  "folder": null,
  "sort": 0,
  "permission": {
    "default": 0
  },
  "flags": {}
}