{
  "_id": "1TiILWBLdzYpnPky",
  "name": "Claw Blades",
  "type": "weapon",
  "img": "systems/pf1/icons/items/weapons/claw-blades.PNG",
  "data": {
    "description": {
      "value": "<p><strong>Source</strong> <em>Advanced Race Guide pg. 93</em></p><h3 class=\"framing\"><img src=\"https://www.aonprd.com/images/PathfinderSocietySymbol.gif\" title=\"PFS Legal\" style=\"margin:3px 3px 0px 3px;\">Statistics</h3><p><strong>Cost</strong> 305 gp <strong>Weight</strong> 2 lbs.</p><p><strong>Damage</strong> - (small), - (medium); <strong>Critical</strong> -; <strong>Range</strong> -; <strong>Type</strong> S; <strong>Special</strong> catfolk only, see description</p><p><strong>Category</strong> Light; <strong>Proficiency</strong> Special</p><h3 class=\"framing\">Description</h3><p>These subtle blades can only be used by catfolk with the cat's claws racial trait. Bought in a set of five, they fit over the wearer's claws on one hand. The blades grant the wearer a +1 enhancement bonus on claw attack rolls with that hand and change the weapon type from a natural weapon to a light slashing weapon. Catfolk with the cat's claws racial trait are proficient with this weapon. The claw blades can be enhanced like a masterwork weapon for the normal costs. The listed cost of the item is for one set of five claws for one hand. </p>"
    },
    "tags": [],
    "weight": 2,
    "price": 305,
    "hp": {
      "max": 2,
      "value": 2
    },
    "hardness": 10,
    "identifiedName": "Claw Blades",
    "changes": [],
    "contextNotes": [],
    "links": {
      "children": []
    },
    "tag": "clawBlades",
    "flags": {
      "boolean": [],
      "dictionary": []
    },
    "scriptCalls": [],
    "weaponType": "exotic",
    "weaponData": {
      "damageRoll": "NULL",
      "damageType": "S",
      "critMult": 0,
      "range": 0
    }
  },
  "effects": [],
  "folder": null,
  "sort": 0,
  "permission": {
    "default": 0
  },
  "flags": {}
}