{
  "_id": "igwRYyXsVoDgIPSi",
  "name": "Dogslicer",
  "type": "weapon",
  "img": "systems/pf1/icons/items/weapons/dogslicer.png",
  "data": {
    "description": {
      "value": "<p><strong>Source</strong> <em>Ultimate Equipment pg. 18</em>, <em>Rise of the Runelords Player's Guide pg. 11</em>, <em>Pathfinder Campaign Setting pg. 209</em>, <em>Inner Sea World Guide pg. 290</em>, <em>Adventurer's Armory pg. 0</em>, <em>Advanced Race Guide pg. 117</em></p><h3 class=\"framing\"><img src=\"https://www.aonprd.com/images/PathfinderSocietySymbol.gif\" title=\"PFS Legal\" style=\"margin:3px 3px 0px 3px;\">Statistics</h3><p><strong>Cost</strong> 8 gp <strong>Weight</strong> 1 lb.</p><p><strong>Damage</strong> 1d4 (small), 1d6 (medium); <strong>Critical</strong> 19-20/x2; <strong>Range</strong> -; <strong>Type</strong> S; <strong>Special</strong> fragile</p><p><strong>Category</strong> Light; <strong>Proficiency</strong> Martial</p><p><strong>Weapon Groups</strong> Blades, Light</p><h3 class=\"framing\">Description</h3><p>This short, curved blade was created by goblins, who often drill numerous holes into it in an attempt to reduce its weight. Most dogslicers are sized for Small creatures.</p>"
    },
    "tags": [],
    "weight": 1,
    "price": 8,
    "hp": {
      "max": 2,
      "value": 2
    },
    "hardness": 10,
    "identifiedName": "Dogslicer",
    "changes": [],
    "contextNotes": [],
    "links": {
      "children": []
    },
    "tag": "dogslicer",
    "flags": {
      "boolean": [],
      "dictionary": []
    },
    "scriptCalls": [],
    "weaponType": "martial",
    "weaponData": {
      "damageRoll": "1d6",
      "damageType": "S",
      "critRange": 19,
      "range": 0
    }
  },
  "effects": [],
  "folder": null,
  "sort": 0,
  "permission": {
    "default": 0
  },
  "flags": {}
}