{
  "_id": "JVObA6FqSBzZfikV",
  "name": "Dwarven Longhammer",
  "type": "weapon",
  "img": "systems/pf1/icons/items/weapons/dwarven-long-hammer.PNG",
  "data": {
    "description": {
      "value": "<p><strong>Source</strong> <em>Advanced Race Guide pg. 17</em></p><h3 class=\"framing\"><img src=\"https://www.aonprd.com/images/PathfinderSocietySymbol.gif\" title=\"PFS Legal\" style=\"margin:3px 3px 0px 3px;\">Statistics</h3><p><strong>Cost</strong> 70 gp <strong>Weight</strong> 20 lbs.</p><p><strong>Damage</strong> 1d10 (small), 2d6 (medium); <strong>Critical</strong> x3; <strong>Range</strong> -; <strong>Type</strong> B; <strong>Special</strong> reach</p><p><strong>Category</strong> Two-Handed; <strong>Proficiency</strong> Exotic</p><h3 class=\"framing\">Description</h3><p>These heavy-headed bludgeons are often carved or cast with monstrous faces or drilled with tiny holes to create a menacing whistling as they are swung through the air.</p>"
    },
    "tags": [],
    "weight": 20,
    "price": 70,
    "hardness": 10,
    "identifiedName": "Dwarven Longhammer",
    "changes": [],
    "contextNotes": [],
    "links": {
      "children": []
    },
    "tag": "dwarvenLonghammer",
    "flags": {
      "boolean": [],
      "dictionary": []
    },
    "scriptCalls": [],
    "weaponType": "exotic",
    "weaponSubtype": "2h",
    "weaponData": {
      "damageRoll": "2d6",
      "damageType": "B",
      "critMult": 3,
      "range": 0
    }
  },
  "effects": [],
  "folder": null,
  "sort": 0,
  "permission": {
    "default": 0
  },
  "flags": {}
}