{
  "_id": "aOdrdreTnUg36jrP",
  "name": "Flying Talon",
  "type": "weapon",
  "img": "systems/pf1/icons/items/weapons/flying-talon.png",
  "data": {
    "description": {
      "value": "<p><strong>Source</strong> <em>Adventurer's Armory 2 pg. 8</em></p><h3 class=\"framing\"><img src=\"https://www.aonprd.com/images/PathfinderSocietySymbol.gif\" title=\"PFS Legal\" style=\"margin:3px 3px 0px 3px;\">Statistics</h3><p><strong>Cost</strong> 15 gp <strong>Weight</strong> 5 lbs.</p><p><strong>Damage</strong> 1d3 (small), 1d4 (medium); <strong>Critical</strong> x2; <strong>Range</strong> -; <strong>Type</strong> P or S; <strong>Special</strong> disarm, reach, trip, see text</p><p><strong>Category</strong> Light; <strong>Proficiency</strong> Exotic</p><p><strong>Weapon Groups</strong> Flails</p><h3 class=\"framing\">Description</h3><p>This weapon consists of a three-pronged, barbed hook attached to a length of chain. Due to the weapon's unwieldiness, you cannot make attacks of opportunity with a flying talon and do not threaten any squares with it.</p>"
    },
    "tags": [],
    "weight": 5,
    "price": 15,
    "hp": {
      "max": 2,
      "value": 2
    },
    "hardness": 10,
    "identifiedName": "Flying Talon",
    "changes": [],
    "contextNotes": [],
    "links": {
      "children": []
    },
    "tag": "flyingTalon",
    "flags": {
      "boolean": [],
      "dictionary": []
    },
    "scriptCalls": [],
    "weaponType": "exotic",
    "weaponData": {
      "damageRoll": "1d4",
      "damageType": "P or S",
      "range": 0
    }
  },
  "effects": [],
  "folder": null,
  "sort": 0,
  "permission": {
    "default": 0
  },
  "flags": {}
}