{
  "_id": "A5vVmquTp0vGXWlA",
  "name": "Groaning Bullets (10)",
  "type": "loot",
  "img": "icons/weapons/ammunition/shot-round-blue.webp",
  "data": {
    "description": {
      "value": "<p><strong>Source</strong> <em>Adventurer's Armory pg. 3</em></p>\n<h3 class=\"framing\"><img style=\"margin: 3px 3px 0px 3px;\" title=\"PFS Legal\" src=\"https://www.aonprd.com/images/PathfinderSocietySymbol.gif\" />Statistics</h3>\n<p><strong>Cost</strong> 2 gp <strong>Weight</strong> 5 lbs.</p>\n<p><strong>Category</strong> Ammunition; <strong>Proficiency</strong> Ammunition</p>\n<h3 class=\"framing\">Description</h3>\n<p>These sling bullets are honeycombed with overlapping perforations that cause them to emit an eerie moan audible within 500 feet of their flight path.</p>"
    },
    "tags": [],
    "quantity": 10,
    "weight": 50,
    "price": 2,
    "hp": {
      "max": 1,
      "value": 1
    },
    "hardness": 5,
    "identifiedName": "Groaning Bullets (10)",
    "changes": [],
    "contextNotes": [],
    "links": {
      "children": []
    },
    "tag": "groaningBullets10",
    "flags": {
      "boolean": [],
      "dictionary": []
    },
    "scriptCalls": [],
    "subType": "ammo",
    "equipped": false
  },
  "effects": [],
  "folder": null,
  "sort": 0,
  "permission": {
    "default": 0
  },
  "flags": {}
}