{
  "_id": "Zx6upAcTI1Fac2Hk",
  "name": "Heavy Wooden Shield",
  "type": "weapon",
  "img": "systems/pf1/icons/items/armor/shield-heavy-wood.png",
  "data": {
    "description": {
      "value": "<p>You can bash an opponent with a shield, using it as an off-hand weapon. Used this way, a shield is a martial bludgeoning weapon. If you use your shield as a weapon, you lose its AC bonus until your next turn. An enhancement bonus on a shield does not improve the effectiveness of a shield bash made with it, but the shield can be made into a magic weapon in its own right.</p>"
    },
    "tags": [],
    "weight": 10,
    "price": 7,
    "hp": {
      "max": 15,
      "value": 15
    },
    "hardness": 5,
    "changes": [],
    "contextNotes": [],
    "links": {
      "children": []
    },
    "flags": {
      "boolean": [],
      "dictionary": []
    },
    "scriptCalls": [],
    "weaponType": "martial",
    "weaponSubtype": "1h",
    "weaponData": {
      "damageRoll": "1d4",
      "damageType": "B",
      "critRange": "20",
      "critMult": "2"
    }
  },
  "effects": [],
  "folder": null,
  "sort": 0,
  "permission": {
    "default": 0
  },
  "flags": {}
}