{
  "_id": "Ie2dCYsVxielCiZd",
  "name": "Kusarigama",
  "type": "weapon",
  "img": "systems/pf1/icons/items/weapons/scythe.PNG",
  "data": {
    "description": {
      "value": "<p><strong>Source</strong> <em>Ultimate Equipment pg. 20</em>, <em>Ultimate Combat pg. 132</em></p><h3 class=\"framing\"><img src=\"https://www.aonprd.com/images/PathfinderSocietySymbol.gif\" title=\"PFS Legal\" style=\"margin:3px 3px 0px 3px;\">Statistics</h3><p><strong>Cost</strong> 12 gp <strong>Weight</strong> 3 lbs.</p><p><strong>Damage</strong> 1d2/1d4 (small), 1d3/1d6 (medium); <strong>Critical</strong> x2; <strong>Range</strong> -; <strong>Type</strong> S or B; <strong>Special</strong> double, grapple, monk, reach, trip</p><p><strong>Category</strong> Two-Handed; <strong>Proficiency</strong> Exotic</p><p><strong>Weapon Groups</strong> Double; Flails; Monk</p><h3 class=\"framing\">Description</h3><p>This weapon has a single kama or sickle held in the off hand, attached by 10 feet of fine chain to a weighted metal ball. The sickle can be used to make trip attacks, jabs, and blocks, while the ball is whipped around at high speeds and then smashed into the opponent, or used to tangle an opponent's sword or spear, allowing the wielder to then attack with the sickle.</p>"
    },
    "tags": [],
    "weight": 3,
    "price": 12,
    "hardness": 10,
    "identifiedName": "Kusarigama",
    "changes": [],
    "contextNotes": [],
    "links": {
      "children": []
    },
    "tag": "kusarigama",
    "flags": {
      "boolean": [],
      "dictionary": []
    },
    "scriptCalls": [],
    "weaponType": "exotic",
    "weaponSubtype": "2h",
    "weaponData": {
      "damageRoll": "1d3",
      "damageType": "S or B",
      "range": 0
    }
  },
  "effects": [],
  "folder": null,
  "sort": 0,
  "permission": {
    "default": 0
  },
  "flags": {}
}