{
  "_id": "hk5OdTCMKyImK8Qm",
  "name": "Kyoketsu Shoge",
  "type": "weapon",
  "img": "systems/pf1/icons/items/weapons/ankus.png",
  "data": {
    "description": {
      "value": "<p><strong>Source</strong> <em>Ultimate Equipment pg. 21</em>, <em>Ultimate Combat pg. 132</em></p><h3 class=\"framing\"><img src=\"https://www.aonprd.com/images/PathfinderSocietySymbol.gif\" title=\"PFS Legal\" style=\"margin:3px 3px 0px 3px;\">Statistics</h3><p><strong>Cost</strong> 6 gp <strong>Weight</strong> 1 lb.</p><p><strong>Damage</strong> 1d3 (small), 1d4 (medium); <strong>Critical</strong> x2; <strong>Range</strong> 20 ft.; <strong>Type</strong> S or P; <strong>Special</strong> disarm, grapple, monk, reach</p><p><strong>Category</strong> Two-Handed; <strong>Proficiency</strong> Exotic</p><p><strong>Weapon Groups</strong> Flails; Monk</p><h3 class=\"framing\">Description</h3><p>This weapon consists of a foot-long double-edged blade, with another smaller, curved hook-blade sticking out the side like a rooster's spur. The blade is strung to a large iron hoop with a 10-foot length of rope. The blade can be used as an off-handed melee weapon or thrown like a dagger, while the rope and circlet can be whipped around and swung at opponents as a bludgeoning reach weapon.</p>"
    },
    "tags": [],
    "weight": 1,
    "price": 6,
    "hardness": 10,
    "identifiedName": "Kyoketsu Shoge",
    "changes": [],
    "contextNotes": [],
    "links": {
      "children": []
    },
    "tag": "kyoketsuShoge",
    "flags": {
      "boolean": [],
      "dictionary": []
    },
    "scriptCalls": [],
    "weaponType": "exotic",
    "weaponSubtype": "2h",
    "weaponData": {
      "damageRoll": "1d4",
      "damageType": "S or P",
      "range": 20
    }
  },
  "effects": [],
  "folder": null,
  "sort": 0,
  "permission": {
    "default": 0
  },
  "flags": {}
}