{
  "_id": "wuW25pHWYQGW81jL",
  "name": "Lance",
  "type": "weapon",
  "img": "systems/pf1/icons/items/weapons/lance.PNG",
  "data": {
    "description": {
      "value": "<p><strong>Source</strong> <em>Ultimate Equipment pg. 19</em>, <em>PRPG Core Rulebook pg. 143</em></p><h3 class=\"framing\"><img src=\"https://www.aonprd.com/images/PathfinderSocietySymbol.gif\" title=\"PFS Legal\" style=\"margin:3px 3px 0px 3px;\">Statistics</h3><p><strong>Cost</strong> 10 gp <strong>Weight</strong> 10 lbs.</p><p><strong>Damage</strong> 1d6 (small), 1d8 (medium); <strong>Critical</strong> x3; <strong>Range</strong> -; <strong>Type</strong> P; <strong>Special</strong> reach</p><p><strong>Category</strong> Two-Handed; <strong>Proficiency</strong> Martial</p><p><strong>Weapon Groups</strong> Spears</p><h3 class=\"framing\">Description</h3><p>A lance deals double damage when used from the back of a charging mount. While mounted, you can wield a lance with one hand.</p>"
    },
    "tags": [],
    "weight": 10,
    "price": 10,
    "hardness": 10,
    "identifiedName": "Lance",
    "changes": [],
    "contextNotes": [],
    "links": {
      "children": []
    },
    "tag": "lance",
    "flags": {
      "boolean": [],
      "dictionary": []
    },
    "scriptCalls": [],
    "weaponType": "martial",
    "weaponSubtype": "2h",
    "weaponData": {
      "damageRoll": "1d8",
      "damageType": "P",
      "critMult": 3,
      "range": 0
    }
  },
  "effects": [],
  "folder": null,
  "sort": 0,
  "permission": {
    "default": 0
  },
  "flags": {}
}