{
  "_id": "P1zlk4ivL3jjyvp2",
  "name": "Lasso",
  "type": "weapon",
  "img": "systems/pf1/icons/items/weapons/lasso.png",
  "data": {
    "description": {
      "value": "<p><strong>Source</strong> <em>Ranged Tactics Toolbox pg. 33</em>, <em>Adventurer's Armory pg. 3</em>, <em>Advanced Player's Guide pg. 178</em>, <em>Ultimate Equipment pg. 21</em></p><h3 class=\"framing\"><img src=\"https://www.aonprd.com/images/PathfinderSocietySymbol.gif\" title=\"PFS Legal\" style=\"margin:3px 3px 0px 3px;\">Statistics</h3><p><strong>Cost</strong> 1 sp <strong>Weight</strong> 5 lbs.</p><p><strong>Damage</strong> - (small), - (medium); <strong>Critical</strong> -; <strong>Range</strong> -; <strong>Type</strong> -; <strong>Special</strong> see text</p><p><strong>Category</strong> Ranged; <strong>Proficiency</strong> Exotic</p><p><strong>Weapon Groups</strong> Thrown</p><h3 class=\"framing\">Description</h3><p>This thrown weapon is a length of rope with a simple open knot on one end that allows you entangle a foe like you would using a net. The DC to cast a spell while entangled with a lasso is 10 + the spell level being cast. An entangled creature can slip free with a successful DC 15 Escape Artist check as a full-round action. The lasso has 2 hit points and AC 10, and requires a DC 23 Strength check to break it. On a successful hit, the lasso tightens; to use it again you must spend a standard action sliding the knot to enlarge the loop.</p>"
    },
    "tags": [],
    "weight": 5,
    "price": 0.1,
    "hp": {
      "max": 5,
      "value": 5
    },
    "hardness": 5,
    "identifiedName": "Lasso",
    "changes": [],
    "contextNotes": [],
    "links": {
      "children": []
    },
    "tag": "lasso",
    "flags": {
      "boolean": [],
      "dictionary": []
    },
    "scriptCalls": [],
    "weaponType": "exotic",
    "weaponSubtype": "ranged",
    "weaponData": {
      "damageRoll": "NULL",
      "damageType": "NULL",
      "critMult": 0,
      "range": 0
    }
  },
  "effects": [],
  "folder": null,
  "sort": 0,
  "permission": {
    "default": 0
  },
  "flags": {}
}