{
  "_id": "RvkCDJ4OfxNXcyph",
  "name": "Naginata",
  "type": "weapon",
  "img": "icons/weapons/polearms/glaive-simple.webp",
  "data": {
    "description": {
      "value": "<p><strong>Source</strong> <em>Ultimate Equipment pg. 19</em>, <em>Ultimate Combat pg. 133</em></p><h3 class=\"framing\"><img src=\"https://www.aonprd.com/images/PathfinderSocietySymbol.gif\" title=\"PFS Legal\" style=\"margin:3px 3px 0px 3px;\">Statistics</h3><p><strong>Cost</strong> 35 gp <strong>Weight</strong> 9 lbs.</p><p><strong>Damage</strong> 1d6 (small), 1d8 (medium); <strong>Critical</strong> x4; <strong>Range</strong> -; <strong>Type</strong> S; <strong>Special</strong> reach</p><p><strong>Category</strong> Two-Handed; <strong>Proficiency</strong> Martial</p><p><strong>Weapon Groups</strong> Polearms</p><h3 class=\"framing\">Description</h3><p>The naginata consists of a 6-foot staff affixed to a 2-foot-long, slightly curved, swordlike blade. The shaft is designed to keep the wielder out of reach from swords and shorter weapons.</p>"
    },
    "tags": [],
    "weight": 9,
    "price": 35,
    "hardness": 10,
    "identifiedName": "Naginata",
    "changes": [],
    "contextNotes": [],
    "links": {
      "children": []
    },
    "tag": "naginata",
    "flags": {
      "boolean": [],
      "dictionary": []
    },
    "scriptCalls": [],
    "weaponType": "martial",
    "weaponSubtype": "2h",
    "weaponData": {
      "damageRoll": "1d8",
      "damageType": "S",
      "critMult": 4,
      "range": 0
    }
  },
  "effects": [],
  "folder": null,
  "sort": 0,
  "permission": {
    "default": 0
  },
  "flags": {}
}