{
  "_id": "QhRGBeQuwG6OWZxM",
  "name": "Paddle-Foot Pistol",
  "type": "weapon",
  "img": "icons/weapons/guns/gun-pistol-wood.webp",
  "data": {
    "description": {
      "value": "<p><strong>Source</strong> <em>People of the Wastes pg. 15</em></p>\n<h3 class=\"framing\"><img style=\"margin: 3px 3px 0px 3px;\" title=\"PFS Legal\" src=\"https://www.aonprd.com/images/PathfinderSocietySymbol.gif\" />Statistics</h3>\n<p><strong>Cost</strong> 2,500 gp <strong>Weight</strong> 5 lbs.</p>\n<p><strong>Damage</strong> 1d4 (small), 1d6 (medium); <strong>Critical</strong> x3; <strong>Range</strong> 20 ft.; <strong>Type</strong> B and P; <strong>Special</strong> scatter</p>\n<p><strong>Misfire</strong> 1-2 (5 ft.); <strong>Capacity</strong> 4</p>\n<p><strong>Category</strong> One-Handed; <strong>Proficiency</strong> Exotic</p>\n<h3 class=\"framing\">Description</h3>\n<p>This <strong>early firear</strong>m has four barrels, each of which can be fired one at a time with a single adjustable flintlock. The paddle-foot pistol fires in a 20-foot cone when making a scattering shot, and it has a 20-foot range increment when firing a bullet.</p>\n<p>Additionally, the paddle-foot pistol has a maximum range of three range increments. Each barrel of a paddle-foot pistol can hold 1 dose of black powder, along with either pellets or a bullet, or it can hold a single alchemical cartridge.</p>"
    },
    "tags": [],
    "weight": 5,
    "price": 2500,
    "hardness": 10,
    "identifiedName": "Paddle-Foot Pistol",
    "changes": [],
    "contextNotes": [],
    "links": {
      "children": []
    },
    "tag": "paddlefootPistol",
    "flags": {
      "boolean": [],
      "dictionary": []
    },
    "scriptCalls": [],
    "weaponType": "exotic",
    "weaponSubtype": "1h",
    "weaponData": {
      "damageRoll": "1d6",
      "damageType": "B and P",
      "critRange": "",
      "critMult": "3",
      "range": 20
    }
  },
  "effects": [],
  "folder": null,
  "sort": 0,
  "permission": {
    "default": 0
  },
  "flags": {}
}