{
  "_id": "2aof2pUTrlWL3F5d",
  "name": "Sai",
  "type": "weapon",
  "img": "systems/pf1/icons/items/weapons/sai.png",
  "data": {
    "description": {
      "value": "<p><strong>Source</strong> <em>Ultimate Equipment pg. 20</em>, <em>PRPG Core Rulebook pg. 143</em></p><h3 class=\"framing\"><img src=\"https://www.aonprd.com/images/PathfinderSocietySymbol.gif\" title=\"PFS Legal\" style=\"margin:3px 3px 0px 3px;\">Statistics</h3><p><strong>Cost</strong> 1 gp <strong>Weight</strong> 1 lb.</p><p><strong>Damage</strong> 1d3 (small), 1d4 (medium); <strong>Critical</strong> x2; <strong>Range</strong> -; <strong>Type</strong> B; <strong>Special</strong> disarm, monk</p><p><strong>Category</strong> Light; <strong>Proficiency</strong> Exotic</p><p><strong>Weapon Groups</strong> Monk</p><h3 class=\"framing\">Description</h3><p>A sai is a metal spike flanked by a pair of prongs used to trap an enemy's weapon. When wielding a sai, you get a +2 bonus on combat maneuver checks to sunder an enemy's weapon. Though pointed, a sai is not usually used for stabbing. Instead, it is used primarily to bludgeon foes, punching with the hilt, or else to catch and disarm weapons between its tines. Sais are often wielded in pairs.</p>"
    },
    "tags": [],
    "weight": 1,
    "price": 1,
    "hp": {
      "max": 2,
      "value": 2
    },
    "hardness": 10,
    "identifiedName": "Sai",
    "changes": [],
    "contextNotes": [],
    "links": {
      "children": []
    },
    "tag": "sai",
    "flags": {
      "boolean": [],
      "dictionary": []
    },
    "scriptCalls": [],
    "weaponType": "exotic",
    "weaponData": {
      "damageRoll": "1d4",
      "damageType": "B",
      "range": 0
    }
  },
  "effects": [],
  "folder": null,
  "sort": 0,
  "permission": {
    "default": 0
  },
  "flags": {}
}