{
  "_id": "W04roMBNFAtgR2ZS",
  "name": "Sansetsukon",
  "type": "weapon",
  "img": "systems/pf1/icons/items/weapons/nunchaku.png",
  "data": {
    "description": {
      "value": "<p><strong>Source</strong> <em>Ultimate Equipment pg. 19</em>, <em>Ultimate Combat pg. 134</em></p><h3 class=\"framing\"><img src=\"https://www.aonprd.com/images/PathfinderSocietySymbol.gif\" title=\"PFS Legal\" style=\"margin:3px 3px 0px 3px;\">Statistics</h3><p><strong>Cost</strong> 8 gp <strong>Weight</strong> 3 lbs.</p><p><strong>Damage</strong> 1d8 (small), 1d10 (medium); <strong>Critical</strong> 19-20/x2; <strong>Range</strong> -; <strong>Type</strong> B; <strong>Special</strong> blocking, disarm, monk</p><p><strong>Category</strong> Two-Handed; <strong>Proficiency</strong> Martial</p><p><strong>Weapon Groups</strong> Flails; Monk</p><h3 class=\"framing\">Description</h3><p>Also called a three-section staff, this weapon is divided into three 2-footlong segments chained together, allowing the wielder greater flexibility than a normal staff and allowing the weapon to be swung rapidly to create a defensive block, wrap and catch weapons, or harness momentum via a whipping motion for powerful strikes.</p>"
    },
    "tags": [],
    "weight": 3,
    "price": 8,
    "hardness": 10,
    "identifiedName": "Sansetsukon",
    "changes": [],
    "contextNotes": [],
    "links": {
      "children": []
    },
    "tag": "sansetsukon",
    "flags": {
      "boolean": [],
      "dictionary": []
    },
    "scriptCalls": [],
    "weaponType": "martial",
    "weaponSubtype": "2h",
    "weaponData": {
      "damageRoll": "1d10",
      "damageType": "B",
      "critRange": 19,
      "range": 0
    }
  },
  "effects": [],
  "folder": null,
  "sort": 0,
  "permission": {
    "default": 0
  },
  "flags": {}
}