{
  "_id": "xiugmcsMdCy4Hdg7",
  "name": "Sharpstones Sling Bullets (10)",
  "type": "loot",
  "img": "icons/weapons/ammunition/shot-round-silver.webp",
  "data": {
    "description": {
      "value": "<p><strong>Source</strong> <em>Halflings of Golarion pg. 23</em></p><h3 class=\"framing\"><img src=\"https://www.aonprd.com/images/PathfinderSocietySymbol.gif\" title=\"PFS Legal\" style=\"margin:3px 3px 0px 3px;\">Statistics</h3><p><strong>Cost</strong> 1 gp <strong>Weight</strong> 5 lbs.</p><p><strong>Category</strong> Ammunition; <strong>Proficiency</strong> Ammunition</p><h3 class=\"framing\">Description</h3><p>A thin layer of baked clay covers the spikes and jagged ridges covering this specially designed bullet. A proficient user knows how to crack the clay (a free action) so that it peels off from either the spikes or ridges when fired, dealing either piercing or slashing damage.</p>"
    },
    "tags": [],
    "quantity": 10,
    "weight": 50,
    "price": 1,
    "hp": {
      "max": 1,
      "value": 1
    },
    "hardness": 5,
    "identifiedName": "Sharpstones Sling Bullets (10)",
    "changes": [],
    "contextNotes": [],
    "links": {
      "children": []
    },
    "tag": "halflingSharpstones10",
    "flags": {
      "boolean": [],
      "dictionary": []
    },
    "scriptCalls": [],
    "subType": "ammo",
    "equipped": false
  },
  "effects": [],
  "folder": null,
  "sort": 0,
  "permission": {
    "default": 0
  },
  "flags": {}
}