{
  "_id": "tjuTlbdI85ClQhf6",
  "name": "Starknife",
  "type": "weapon",
  "img": "systems/pf1/icons/items/weapons/starknife.png",
  "data": {
    "description": {
      "value": "<p><strong>Source</strong> <em>Ultimate Equipment pg. 18</em>, <em>Rise of the Runelords Player's Guide pg. 11</em>, <em>Curse of the Crimson Throne Player's Guide pg. 13</em>, <em>Pathfinder Campaign Setting pg. 209</em>, <em>PRPG Core Rulebook pg. 142</em>, <em>Varisia, Birthplace of Legends pg. 14</em></p><h3 class=\"framing\"><img src=\"https://www.aonprd.com/images/PathfinderSocietySymbol.gif\" title=\"PFS Legal\" style=\"margin:3px 3px 0px 3px;\">Statistics</h3><p><strong>Cost</strong> 24 gp <strong>Weight</strong> 3 lbs.</p><p><strong>Damage</strong> 1d3 (small), 1d4 (medium); <strong>Critical</strong> x3; <strong>Range</strong> 20 ft.; <strong>Type</strong> P; <strong>Special</strong> -</p><p><strong>Category</strong> Light; <strong>Proficiency</strong> Martial</p><p><strong>Weapon Groups</strong> Blades, Light; Thrown</p><h3 class=\"framing\">Description</h3><p>From a central metal ring, four tapering metal blades extend from this weapon like points on a compass rose. By gripping the crossbar that runs through the weapon's open middle, a wielder can strike with it as a deadly melee weapon. Alternatively, by gripping it by the outer rim, a starknife's light, aerodynamic design allows it to be thrown short distances in a manner similar to a chakram.</p>"
    },
    "tags": [],
    "weight": 3,
    "price": 24,
    "hp": {
      "max": 2,
      "value": 2
    },
    "hardness": 10,
    "identifiedName": "Starknife",
    "changes": [],
    "contextNotes": [],
    "links": {
      "children": []
    },
    "tag": "starknife",
    "flags": {
      "boolean": [],
      "dictionary": []
    },
    "scriptCalls": [],
    "weaponType": "martial",
    "weaponData": {
      "damageRoll": "1d4",
      "damageType": "P",
      "critMult": 3,
      "range": 20
    }
  },
  "effects": [],
  "folder": null,
  "sort": 0,
  "permission": {
    "default": 0
  },
  "flags": {}
}