{
  "_id": "lq720GoSQPgO0p7P",
  "name": "War Razor",
  "type": "weapon",
  "img": "systems/pf1/icons/items/weapons/war-razor.png",
  "data": {
    "description": {
      "value": "<p><strong>Source</strong> <em>Book of the Damned pg. 93</em>, <em>Rise of the Runelords Player's Guide pg. 11</em>, <em>Pathfinder Campaign Setting pg. 209</em>, <em>Inner Sea World Guide pg. 290</em>, <em>Adventurer's Armory pg. 0</em></p><h3 class=\"framing\"><img src=\"https://www.aonprd.com/images/PathfinderSocietySymbol.gif\" title=\"PFS Legal\" style=\"margin:3px 3px 0px 3px;\">Statistics</h3><p><strong>Cost</strong> 8 gp <strong>Weight</strong> 1 lb.</p><p><strong>Damage</strong> 1d3 (small), 1d4 (medium); <strong>Critical</strong> 19-20/x2; <strong>Range</strong> -; <strong>Type</strong> S; <strong>Special</strong> -</p><p><strong>Category</strong> Light; <strong>Proficiency</strong> Martial</p><p><strong>Weapon Groups</strong> Blades, Light</p><h3 class=\"framing\">Description</h3><p>To all appearances, a war razor is an oversized razor or flip knife. Since the razor folds into the handle, no sheath is required, making the weapon easy to hide and thus granting the wielder a +2 bonus on Sleight of Hand checks to conceal the weapon on her body.</p>"
    },
    "tags": [],
    "weight": 1,
    "price": 8,
    "hp": {
      "max": 2,
      "value": 2
    },
    "hardness": 10,
    "identifiedName": "War Razor",
    "changes": [],
    "contextNotes": [],
    "links": {
      "children": []
    },
    "tag": "warRazor",
    "flags": {
      "boolean": [],
      "dictionary": []
    },
    "scriptCalls": [],
    "weaponType": "martial",
    "weaponData": {
      "damageRoll": "1d4",
      "damageType": "S",
      "critRange": 19,
      "range": 0
    }
  },
  "effects": [],
  "folder": null,
  "sort": 0,
  "permission": {
    "default": 0
  },
  "flags": {}
}