{
  "_id": "7zvBqNNlc5i5EtFd",
  "name": "Wooden Stake",
  "type": "weapon",
  "img": "systems/pf1/icons/items/weapons/wooden-stake.png",
  "data": {
    "description": {
      "value": "<p><strong>Source</strong> <em>Ultimate Equipment pg. 17</em>, <em>Pathfinder Campaign Setting pg. 209</em>, <em>Adventurer's Armory pg. 5</em>, <em>Advanced Player's Guide pg. 179</em></p><h3 class=\"framing\"><img src=\"https://www.aonprd.com/images/PathfinderSocietySymbol.gif\" title=\"PFS Legal\" style=\"margin:3px 3px 0px 3px;\">Statistics</h3><p><strong>Cost</strong> - <strong>Weight</strong> 1 lb.</p><p><strong>Damage</strong> 1d3 (small), 1d4 (medium); <strong>Critical</strong> x2; <strong>Range</strong> 10 ft.; <strong>Type</strong> P; <strong>Special</strong> -</p><p><strong>Category</strong> Light; <strong>Proficiency</strong> Simple</p><p><strong>Weapon Groups</strong> Close</p><h3 class=\"framing\">Description</h3><p>This close combat weapon is just a sharpened piece of wood. Iron spikes that are used as weapons deal damage as wooden stakes.</p>"
    },
    "tags": [],
    "weight": 1,
    "hp": {
      "max": 2,
      "value": 2
    },
    "hardness": 10,
    "identifiedName": "Wooden Stake",
    "changes": [],
    "contextNotes": [],
    "links": {
      "children": []
    },
    "tag": "woodenStake",
    "flags": {
      "boolean": [],
      "dictionary": []
    },
    "scriptCalls": [],
    "weaponData": {
      "damageRoll": "1d4",
      "damageType": "P",
      "critRange": "",
      "critMult": "2",
      "range": 10
    }
  },
  "effects": [],
  "folder": null,
  "sort": 0,
  "permission": {
    "default": 0
  },
  "flags": {}
}