{
  "_id": "TV266l7yYIZzhTq3",
  "name": "Dhampir",
  "type": "npc",
  "img": "systems/pf1/icons/races/human.jpg",
  "data": {
    "abilities": {
      "str": {
        "value": 13
      },
      "dex": {
        "value": 15
      },
      "con": {
        "value": 12
      },
      "wis": {
        "value": 8
      },
      "cha": {
        "value": 14
      }
    },
    "attributes": {
      "saveNotes": "+2 vs. disease and mind-affecting effects",
      "hp": {
        "value": 13
      },
      "spells": {
        "usedSpellbooks": [
          "spelllike"
        ],
        "spellbooks": {
          "spelllike": {
            "altName": "Spell-like Abilities",
            "concentrationNotes": "sbc | Total in statblock was +0, adjust as needed.",
            "clNotes": "sbc | Total in statblock was CL 1, adjust as needed.",
            "autoSpellLevelCalculation": false,
            "autoSpellLevels": false,
            "arcaneSpellFailure": false,
            "domainSlotValue": 0
          }
        }
      }
    },
    "details": {
      "alignment": "ce",
      "cr": {
        "base": 0.5
      }
    },
    "skills": {
      "blf": {
        "rank": 3
      },
      "int": {
        "rank": 2
      },
      "per": {
        "rank": 2
      },
      "sur": {
        "rank": 1
      }
    },
    "traits": {
      "senses": "darkvision 60 ft., low-light vision; Perception +1",
      "eres": "Level Drain;",
      "languages": {
        "value": [
          "common"
        ]
      },
      "di": {
        "value": []
      },
      "dv": {
        "value": []
      },
      "ci": {
        "value": []
      },
      "stature": ""
    }
  },
  "token": {
    "name": "Dhampir",
    "displayName": 20,
    "actorLink": false,
    "width": 1,
    "height": 1,
    "scale": 1,
    "mirrorX": false,
    "mirrorY": false,
    "lockRotation": false,
    "rotation": 0,
    "alpha": 1,
    "vision": false,
    "dimSight": 0,
    "brightSight": "60",
    "dimLight": 0,
    "brightLight": 0,
    "sightAngle": 0,
    "lightAngle": 0,
    "lightAlpha": 0.25,
    "lightAnimation": {
      "speed": 5,
      "intensity": 5
    },
    "disposition": -1,
    "displayBars": 20,
    "bar1": {
      "attribute": null
    },
    "bar2": {
      "attribute": null
    },
    "flags": {
      "pf1": {
        "lowLightVision": false
      }
    },
    "randomImg": false,
    "img": "systems/pf1/icons/races/human.jpg"
  },
  "items": [
    {
      "_id": "puKk997wHX3kIRkR",
      "name": "Dhampir",
      "type": "race",
      "img": "systems/pf1/icons/races/dhampir.png",
      "data": {
        "description": {
          "value": "<h2>Starting Age</h2>\n<table style=\"border-spacing: 0px; background-color: #ffffff; margin: 10px; table-layout: fixed; border-color: #888888; min-width: 200px; color: #333333; font-family: Varela, sans-serif;\" border=\"1\" cellpadding=\"5\">\n<thead style=\"box-sizing: border-box; background-color: #cfe2f3;\">\n<tr style=\"box-sizing: border-box;\">\n<th class=\"text\" style=\"box-sizing: border-box; padding: 2px; text-align: left; border: 1px solid #888888;\">Adulthood</th>\n<th class=\"text\" style=\"box-sizing: border-box; padding: 2px; text-align: left; border: 1px solid #888888;\">Intuitive<span style=\"box-sizing: border-box; position: relative; font-size: 10px; line-height: 0; vertical-align: baseline; top: -0.5em;\">1</span></th>\n<th class=\"text\" style=\"box-sizing: border-box; padding: 2px; text-align: left; border: 1px solid #888888;\">Self-Taught<span style=\"box-sizing: border-box; position: relative; font-size: 10px; line-height: 0; vertical-align: baseline; top: -0.5em;\">2</span></th>\n<th class=\"text\" style=\"box-sizing: border-box; padding: 2px; text-align: left; border: 1px solid #888888;\">Trained<span style=\"box-sizing: border-box; position: relative; font-size: 10px; line-height: 0; vertical-align: baseline; top: -0.5em;\">3</span></th>\n</tr>\n</thead>\n<tbody style=\"box-sizing: border-box;\">\n<tr style=\"box-sizing: border-box;\">\n<td class=\"text\" style=\"box-sizing: border-box; padding: 2px; vertical-align: top; border: 1px solid #888888;\">20 years</td>\n<td class=\"text\" style=\"box-sizing: border-box; padding: 2px; vertical-align: top; border: 1px solid #888888;\">+4d6 years<br style=\"box-sizing: border-box;\" />(24 &ndash; 44 years)</td>\n<td class=\"text\" style=\"box-sizing: border-box; padding: 2px; vertical-align: top; border: 1px solid #888888;\">+6d6 years<br style=\"box-sizing: border-box;\" />(26 &ndash; 56 years)</td>\n<td class=\"text\" style=\"box-sizing: border-box; padding: 2px; vertical-align: top; border: 1px solid #888888;\">+10d6 years<br style=\"box-sizing: border-box;\" />(30 &ndash; 80 years)</td>\n</tr>\n</tbody>\n</table>\n<p><sup style=\"box-sizing: border-box; user-select: text; color: #191813;\">1</sup><span style=\"color: #191813; font-size: 13px;\">&nbsp;This category includes barbarians, oracles, rogues, and sorcerers.</span><br style=\"box-sizing: border-box; user-select: text; color: #191813; font-size: 13px;\" /><sup style=\"box-sizing: border-box; user-select: text; color: #191813;\">2</sup><span style=\"color: #191813; font-size: 13px;\">&nbsp;This category includes bards, cavaliers, fighters, gunslingers, paladins, rangers, summoners, and witches.</span><br style=\"box-sizing: border-box; user-select: text; color: #191813; font-size: 13px;\" /><sup style=\"box-sizing: border-box; user-select: text; color: #191813;\">3</sup><span style=\"color: #191813; font-size: 13px;\"> This category includes alchemists, clerics, druids, inquisitors, magi, monks, and wizards.</span></p>\n<h2>Height and Weight</h2>\n<table style=\"border-spacing: 0px; background-color: #ffffff; margin: 10px; table-layout: fixed; border-color: #888888; min-width: 200px; color: #333333; font-family: Varela, sans-serif;\" border=\"1\" cellpadding=\"5\">\n<thead style=\"box-sizing: border-box; background-color: #cfe2f3;\">\n<tr style=\"box-sizing: border-box;\">\n<th class=\"text\" style=\"box-sizing: border-box; padding: 2px; text-align: left; border: 1px solid #888888;\">Gender</th>\n<th class=\"text\" style=\"box-sizing: border-box; padding: 2px; text-align: left; border: 1px solid #888888;\">Base Height</th>\n<th class=\"text\" style=\"box-sizing: border-box; padding: 2px; text-align: left; border: 1px solid #888888;\">Height Modifier</th>\n<th class=\"text\" style=\"box-sizing: border-box; padding: 2px; text-align: left; border: 1px solid #888888;\">Base Weight</th>\n<th class=\"text\" style=\"box-sizing: border-box; padding: 2px; text-align: left; border: 1px solid #888888;\">Weight Modifier</th>\n</tr>\n</thead>\n<tbody style=\"box-sizing: border-box;\">\n<tr style=\"box-sizing: border-box;\">\n<td class=\"text\" style=\"box-sizing: border-box; padding: 2px; vertical-align: top; border: 1px solid #888888;\">Male</td>\n<td class=\"text\" style=\"box-sizing: border-box; padding: 2px; vertical-align: top; border: 1px solid #888888;\">4 ft. 10 in.</td>\n<td class=\"text\" style=\"box-sizing: border-box; padding: 2px; vertical-align: top; border: 1px solid #888888;\">+2d10 in.<br style=\"box-sizing: border-box;\" />(5 ft. &ndash; 6 ft. 6 in.)</td>\n<td class=\"text\" style=\"box-sizing: border-box; padding: 2px; vertical-align: top; border: 1px solid #888888;\">120 lbs.</td>\n<td class=\"text\" style=\"box-sizing: border-box; padding: 2px; vertical-align: top; border: 1px solid #888888;\">+(2d10&times;5 lbs.)<br style=\"box-sizing: border-box;\" />(130 &ndash; 220 lbs.)</td>\n</tr>\n<tr style=\"box-sizing: border-box; background-color: #f3f3f3;\">\n<td class=\"text\" style=\"box-sizing: border-box; padding: 2px; vertical-align: top; border: 1px solid #888888;\">Female</td>\n<td class=\"text\" style=\"box-sizing: border-box; padding: 2px; vertical-align: top; border: 1px solid #888888;\">4 ft. 5 in.</td>\n<td class=\"text\" style=\"box-sizing: border-box; padding: 2px; vertical-align: top; border: 1px solid #888888;\">+2d10 in.<br style=\"box-sizing: border-box;\" />(4 ft. 7 in. &ndash; 6 ft. 1 in.)</td>\n<td class=\"text\" style=\"box-sizing: border-box; padding: 2px; vertical-align: top; border: 1px solid #888888;\">85 lbs.</td>\n<td class=\"text\" style=\"box-sizing: border-box; padding: 2px; vertical-align: top; border: 1px solid #888888;\">+(2d10&times;5 lbs.)<br style=\"box-sizing: border-box;\" />(95 &ndash; 185 lbs.)</td>\n</tr>\n</tbody>\n</table>\n<h2>Standard Racial Traits</h2>\n<ul>\n<li><strong>Ability Score Modifiers</strong>: Dhampirs are fast and seductive, but their racial bond to the&nbsp;<a href=\"https://www.d20pfsrd.com/bestiary/rules-for-monsters/creature-types#TOC-Undead\">undead</a>&nbsp;impedes their mortal vigor. They gain +2&nbsp;<a href=\"https://www.d20pfsrd.com/basics-ability-scores/ability-scores#TOC-Dexterity-Dex-\">Dexterity</a>, +2&nbsp;<a href=\"https://www.d20pfsrd.com/basics-ability-scores/ability-scores#TOC-Charisma-Cha-\">Charisma</a>, and &ndash;2&nbsp;<a href=\"https://www.d20pfsrd.com/basics-ability-scores/ability-scores#TOC-Constitution-Con-\">Constitution</a>.</li>\n<li><strong>Type:</strong> Dhampirs are&nbsp;<a href=\"https://www.d20pfsrd.com/bestiary/rules-for-monsters/creature-types#TOC-Humanoid\">humanoids</a>&nbsp;with the&nbsp;<a href=\"https://www.d20pfsrd.com/bestiary/monster-listings/humanoids/dhampir\">dhampir</a>&nbsp;subtype.</li>\n<li><strong>Size:</strong> Dhampirs are Medium creatures and thus have no bonuses or penalties due to their size.</li>\n<li><strong>Base Speed</strong>: Dhampirs have a base speed of 30 feet.</li>\n<li><strong>Languages:</strong> Dhampirs begin play speaking Common. Those with high&nbsp;<a href=\"https://www.d20pfsrd.com/basics-ability-scores/ability-scores#TOC-Intelligence-Int-\">Intelligence</a>&nbsp;scores can choose any language it wants (except secret languages, such as Druidic). See the&nbsp;<a href=\"https://www.d20pfsrd.com/skills/linguistics\">Linguistics skill page</a>&nbsp;for more information about these languages.</li>\n<li><strong>Undead Resistance</strong>: Dhampirs gain a +2&nbsp;<a href=\"https://www.d20pfsrd.com/basics-ability-scores/glossary#TOC-Racial-Bonus\">racial bonus</a>&nbsp;on saving throws against&nbsp;<a href=\"https://www.d20pfsrd.com/gamemastering/afflictions/diseases\">disease</a>&nbsp;and mind-affecting effects.</li>\n<li><strong>Resist Level Drain (Ex)</strong>: A dhampir takes no penalties from&nbsp;<a href=\"https://www.d20pfsrd.com/magic/all-spells/e/energy-drain\">energy drain</a>&nbsp;effects, though he can still be killed if he accrues more&nbsp;<a href=\"https://www.d20pfsrd.com/gamemastering/special-abilities#TOC-Energy-Drain-and-Negative-Levels\">negative levels</a> than he has&nbsp;<a href=\"https://www.d20pfsrd.com/basics-ability-scores/glossary#TOC-Hit-Dice-HD-\">Hit Dice</a>. After 24 hours, any&nbsp;<a href=\"https://www.d20pfsrd.com/gamemastering/special-abilities#TOC-Energy-Drain-and-Negative-Levels\">negative levels</a>&nbsp;a dhampir takes are removed without the need for an additional saving throw.</li>\n<li><strong>Manipulative:</strong>&nbsp;Dhampir gain a +2&nbsp;<a href=\"https://www.d20pfsrd.com/basics-ability-scores/glossary#TOC-Racial-Bonus\">racial bonus</a> on @Compendium[pf1.skills.pAB2PYkZO3lsmeaC]{Bluff} and @Compendium[pf1.skills.YYmmxDgp0g3ltSUG]{Perception}&nbsp;checks.</li>\n<li><strong>Spell-Like Abilities (Su)</strong>: A dhampir can use @Compendium[pf1.spells.aa0w7tk852iqn3ni]{Detect Undead}&nbsp;three times per day as a&nbsp;<a href=\"https://www.d20pfsrd.com/magic#TOC-Spell-Like-Abilities-Sp-\">spell-like ability</a>. The&nbsp;<a href=\"https://www.d20pfsrd.com/magic#TOC-Caster-Level\">caster level</a>&nbsp;for this ability equals the dhampir&rsquo;s class level.</li>\n<li><strong>Darkvision:</strong> Dhampir see perfectly in the dark up to 60 feet.</li>\n<li><strong>Low-light vision</strong>: In addition to their ability to see perfectly in the dark up to 60 ft, dhampir have low-light vision, allowing them to see twice as far as&nbsp;<a href=\"https://www.d20pfsrd.com/races/core-races/human\">humans</a>&nbsp;in conditions of dim light.</li>\n<li><strong>Light Sensitivity</strong>: Dhampirs are @Compendium[pf1.conditions.2pICNUG3g7O4obyu]{dazzled} in areas of bright sunlight or within the radius of a @Compendium[pf1.spells.7x2z0i8rcx7s81fk]{Daylight}&nbsp;spell.</li>\n<li><strong>Negative Energy Affinity</strong>: Though a living creature, a dhampir reacts to positive and negative energy as if it were undead&mdash;positive energy harms it, while negative energy heals it.</li>\n</ul>"
        },
        "tags": [],
        "changes": [
          {
            "_id": "mcct1d90",
            "formula": "2",
            "operator": "add",
            "subTarget": "dex",
            "modifier": "racial",
            "priority": 0,
            "value": 0,
            "target": "ability"
          },
          {
            "_id": "ixhtav91",
            "formula": "2",
            "operator": "add",
            "subTarget": "cha",
            "modifier": "racial",
            "priority": 0,
            "value": 0,
            "target": "ability"
          },
          {
            "_id": "fzof61tb",
            "formula": "-2",
            "operator": "add",
            "subTarget": "con",
            "modifier": "racial",
            "priority": 0,
            "value": 0,
            "target": "ability"
          },
          {
            "_id": "wscus995",
            "formula": "2",
            "operator": "add",
            "subTarget": "skill.blf",
            "modifier": "racial",
            "priority": 0,
            "value": 0,
            "target": "skill"
          },
          {
            "_id": "rdnznait",
            "formula": "2",
            "operator": "add",
            "subTarget": "skill.per",
            "modifier": "racial",
            "priority": 0,
            "value": 0,
            "target": "skill"
          }
        ],
        "contextNotes": [],
        "links": {
          "children": []
        },
        "armorProf": {
          "value": []
        },
        "weaponProf": {
          "value": []
        },
        "flags": {
          "boolean": [],
          "dictionary": []
        },
        "scriptCalls": [],
        "subTypes": [
          [
            "Dhampir"
          ]
        ]
      },
      "effects": [],
      "folder": null,
      "sort": 0,
      "permission": {
        "default": 0
      },
      "flags": {}
    },
    {
      "_id": "WLqBCT5DqmGAx8Wd",
      "name": "Fighter",
      "type": "class",
      "img": "systems/pf1/icons/skills/yellow_37.jpg",
      "data": {
        "description": {
          "value": "<p><strong>Role</strong>: Fighters excel at combat—defeating their enemies, controlling the flow of battle, and surviving such sorties themselves. While their specific weapons and methods grant them a wide variety of tactics, few can match fighters for sheer battle prowess.</p>\n<p><strong>Alignment</strong>: Any.</p>\n<p><strong>Hit Die</strong>: d10.</p>\n<p><strong>Starting Wealth</strong>: 5d6 x 10 gp (average 175 gp.) In addition, each character begins play with an outfit worth 10 gp or less.</p>\n<h2><span id=\"Class_Skills\">Class Skills</span></h2>\n<p>The fighter’s class skills are <a href=\"https://www.d20pfsrd.com/skills/climb\">Climb</a>&nbsp;(<a href=\"https://www.d20pfsrd.com/basics-ability-scores/ability-scores#TOC-Strength-Str-\">Str</a>), <a href=\"https://www.d20pfsrd.com/skills/craft\">Craft</a>&nbsp;(<a href=\"https://www.d20pfsrd.com/basics-ability-scores/ability-scores#TOC-Intelligence-Int-\">Int</a>), <a href=\"https://www.d20pfsrd.com/skills/handle-animal\">Handle Animal</a>&nbsp;(<a href=\"https://www.d20pfsrd.com/basics-ability-scores/ability-scores#TOC-Charisma-Cha-\">Cha</a>), <a href=\"https://www.d20pfsrd.com/skills/intimidate\">Intimidate</a>&nbsp;(<a href=\"https://www.d20pfsrd.com/basics-ability-scores/ability-scores#TOC-Charisma-Cha-\">Cha</a>), <a href=\"https://www.d20pfsrd.com/skills/knowledge\">Knowledge</a>&nbsp;(dungeoneering) (<a href=\"https://www.d20pfsrd.com/basics-ability-scores/ability-scores#TOC-Intelligence-Int-\">Int</a>), <a href=\"https://www.d20pfsrd.com/skills/knowledge\">Knowledge</a>&nbsp;(engineering) (<a href=\"https://www.d20pfsrd.com/basics-ability-scores/ability-scores#TOC-Intelligence-Int-\">Int</a>), <a href=\"https://www.d20pfsrd.com/skills/profession\">Profession</a>&nbsp;(<a href=\"https://www.d20pfsrd.com/basics-ability-scores/ability-scores#TOC-Wisdom-Wis-\">Wis</a>), <a href=\"https://www.d20pfsrd.com/skills/ride\">Ride</a>&nbsp;(<a href=\"https://www.d20pfsrd.com/basics-ability-scores/ability-scores#TOC-Dexterity-Dex-\">Dex</a>), <a href=\"https://www.d20pfsrd.com/skills/survival\">Survival</a>&nbsp;(<a href=\"https://www.d20pfsrd.com/basics-ability-scores/ability-scores#TOC-Wisdom-Wis-\">Wis</a>), and <a href=\"https://www.d20pfsrd.com/skills/swim\">Swim</a>&nbsp;(<a href=\"https://www.d20pfsrd.com/basics-ability-scores/ability-scores#TOC-Strength-Str-\">Str</a>).</p>\n<p><strong>Skill Ranks Per Level</strong>: 2 +&nbsp;<a href=\"https://www.d20pfsrd.com/basics-ability-scores/ability-scores#TOC-Intelligence-Int-\">Int</a>&nbsp;modifier.</p>"
        },
        "tags": [],
        "changes": [],
        "links": {
          "children": [],
          "classAssociations": [
            {
              "id": "pf1.class-abilities.CV8BsY3ciUb9TA1Y",
              "dataType": "compendium",
              "name": "Bonus Feats (FGT)",
              "img": "systems/pf1/icons/skills/affliction_18.jpg",
              "hiddenLinks": {},
              "level": 1,
              "_index": 0
            },
            {
              "id": "pf1.class-abilities.h0Brxw6khcjlEf1T",
              "dataType": "compendium",
              "name": "Bravery",
              "img": "systems/pf1/icons/skills/affliction_24.jpg",
              "hiddenLinks": {},
              "level": 2,
              "_index": 1
            },
            {
              "id": "pf1.class-abilities.5JFfSqLMCpbRmERa",
              "dataType": "compendium",
              "name": "Armor Training",
              "img": "systems/pf1/icons/items/armor/field-plate.png",
              "hiddenLinks": {},
              "level": 3,
              "_index": 2
            },
            {
              "id": "pf1.class-abilities.RzEzudurxQFirFoF",
              "dataType": "compendium",
              "name": "Weapon Training",
              "img": "systems/pf1/icons/items/weapons/dagger-swordbreaker.PNG",
              "hiddenLinks": {},
              "level": 5,
              "_index": 3
            },
            {
              "id": "pf1.class-abilities.McXAM1BoPHZLO1n4",
              "dataType": "compendium",
              "name": "Weapon Mastery",
              "img": "systems/pf1/icons/items/weapons/sabre-sawtooth.png",
              "hiddenLinks": {},
              "level": 20,
              "_index": 4
            }
          ]
        },
        "tag": "fighter",
        "useCustomTag": true,
        "armorProf": {
          "value": [
            "lgt",
            "med",
            "hvy",
            "shl",
            "twr"
          ]
        },
        "weaponProf": {
          "value": [
            "sim",
            "mar"
          ]
        },
        "flags": {
          "boolean": [],
          "dictionary": []
        },
        "scriptCalls": [],
        "hd": 10,
        "hp": 10,
        "bab": "high",
        "skillsPerLevel": 2,
        "savingThrows": {
          "fort": {
            "value": "high"
          }
        },
        "classSkills": {
          "acr": false,
          "apr": false,
          "art": false,
          "blf": false,
          "clm": true,
          "crf": true,
          "dip": false,
          "dev": false,
          "dis": false,
          "esc": false,
          "fly": false,
          "han": true,
          "hea": false,
          "int": true,
          "kar": false,
          "kdu": true,
          "ken": true,
          "kge": false,
          "khi": false,
          "klo": false,
          "kna": false,
          "kno": false,
          "kpl": false,
          "kre": false,
          "lin": false,
          "lor": false,
          "per": false,
          "prf": false,
          "pro": true,
          "rid": true,
          "sen": false,
          "slt": false,
          "spl": false,
          "ste": false,
          "sur": true,
          "swm": true,
          "umd": false
        }
      },
      "effects": [],
      "folder": null,
      "sort": 0,
      "permission": {
        "default": 0
      },
      "flags": {}
    },
    {
      "_id": "S38eYYsK7pRhPbwg",
      "name": "Humanoid (Dhampir)",
      "type": "class",
      "img": "systems/pf1/icons/skills/blue_35.jpg",
      "data": {
        "description": {
          "value": "<p>A humanoid usually has two arms, two legs, and one head, or a human-like torso, arms, and a head. Humanoids have few or no supernatural or extraordinary abilities, but most can speak and usually have well-developed societies. They are usually Small or Medium (with the exception of giants). Every humanoid creature also has a specific subtype to match its race, such as human, giant, goblinoid, reptilian, or tengu.</p>\n<p>Humanoids with 1 Hit Die exchange the features of their humanoid Hit Die for the class features of a PC or NPC class. Humanoids of this sort are typically presented as 1st-level warriors, which means they have average combat ability and poor saving throws. Humanoids with more than 1 Hit Die are the only humanoids who make use of the features of the humanoid type.</p>\n<h2><span id=\"Features\">Features</span></h2>\n<p>A humanoid has the following features (unless otherwise noted in a creature’s entry).</p>\n<ul>\n<li>d8 Hit Die, or by character class.</li>\n<li>Base attack bonus equal to 3/4 total Hit Dice (medium progression).</li>\n<li>One good save, usually&nbsp;<a href=\"https://www.d20pfsrd.com/gamemastering/combat#TOC-Reflex\" rel=\"nofollow\">Reflex</a>.</li>\n<li>Skill points equal to 2 + Int modifier (minimum 1) per Hit Die or by character class. The following are class skills for humanoids without a character class: <a href=\"https://www.d20pfsrd.com/skills/climb\" rel=\"nofollow\">Climb</a>, <a href=\"https://www.d20pfsrd.com/skills/craft\" rel=\"nofollow\">Craft</a>, <a href=\"https://www.d20pfsrd.com/skills/handle-animal\" rel=\"nofollow\">Handle Animal</a>, <a href=\"https://www.d20pfsrd.com/skills/heal\" rel=\"nofollow\">Heal</a>, <a href=\"https://www.d20pfsrd.com/skills/profession\" rel=\"nofollow\">Profession</a>, <a href=\"https://www.d20pfsrd.com/skills/ride\" rel=\"nofollow\">Ride</a>, and <a href=\"https://www.d20pfsrd.com/skills/survival\" rel=\"nofollow\">Survival</a>. Humanoids with a character class use their class’s skill list instead.</li>\n</ul>\n<h2><span id=\"Traits\"><a name=\"TOC-Traits\"></a>Traits</span></h2>\n<p>A humanoid possesses the following traits (unless otherwise noted in a creature’s entry).</p>\n<ul>\n<li>Proficient with all simple weapons, or by character class.</li>\n<li>Proficient with whatever type of armor (light, medium, or heavy) it is described as wearing, or by character class. If a humanoid does not have a class and wears&nbsp;<a href=\"https://www.d20pfsrd.com/basics-ability-scores/glossary#TOC-Armor-Bonus\">armor</a>, it is proficient with that type of armor and all lighter types. Humanoids not indicated as wearing armor are not proficient with armor. Humanoids are proficient with shields if they are proficient with any form of armor.</li>\n<li>Humanoids breathe, eat, and sleep.</li>\n</ul>"
        },
        "tags": [],
        "changes": [],
        "links": "",
        "tag": "humanoid",
        "useCustomTag": true,
        "armorProf": {
          "value": []
        },
        "weaponProf": {
          "value": []
        },
        "flags": {
          "boolean": [],
          "dictionary": []
        },
        "scriptCalls": [],
        "classType": "racial",
        "level": 0,
        "hp": 0,
        "bab": "med",
        "skillsPerLevel": 2,
        "savingThrows": {
          "ref": {
            "value": "high"
          }
        },
        "classSkills": {
          "acr": false,
          "apr": false,
          "art": false,
          "blf": false,
          "clm": true,
          "crf": true,
          "dip": false,
          "dev": false,
          "dis": false,
          "esc": false,
          "fly": false,
          "han": true,
          "hea": true,
          "int": false,
          "kar": false,
          "kdu": false,
          "ken": false,
          "kge": false,
          "khi": false,
          "klo": false,
          "kna": false,
          "kno": false,
          "kpl": false,
          "kre": false,
          "lin": false,
          "lor": false,
          "per": false,
          "prf": false,
          "pro": true,
          "rid": true,
          "sen": false,
          "slt": false,
          "spl": false,
          "ste": false,
          "sur": true,
          "swm": false,
          "umd": false
        }
      },
      "effects": [],
      "folder": null,
      "sort": 0,
      "permission": {
        "default": 0
      },
      "flags": {}
    },
    {
      "_id": "gl2xmmdpx3va3ane",
      "name": "Sense: Darkvision 60ft.",
      "type": "feat",
      "img": "systems/pf1/icons/skills/shadow_12.jpg",
      "data": {
        "description": {
          "value": "Darkvision is the extraordinary ability to see with no light source at all, out to a range specified for the creature. Darkvision is black-and-white only (colors cannot be discerned). It does not allow characters to see anything that they could not see otherwise—invisible objects are still invisible, and illusions are still visible as what they seem to be. Likewise, darkvision subjects a creature to gaze attacks normally. The presence of light does not spoil darkvision."
        },
        "tags": [],
        "damage": {
          "parts": [],
          "critParts": [],
          "nonCritParts": []
        },
        "attackParts": [],
        "effectNotes": [],
        "attackNotes": [],
        "changes": [],
        "contextNotes": [],
        "links": {
          "children": [],
          "charges": []
        },
        "tag": "senseDarkvision60ft",
        "armorProf": {
          "value": []
        },
        "weaponProf": {
          "value": []
        },
        "flags": {
          "boolean": [],
          "dictionary": []
        },
        "scriptCalls": [],
        "featType": "racial",
        "associations": {
          "classes": []
        },
        "abilityType": "ex"
      },
      "effects": [],
      "folder": null,
      "sort": 0,
      "permission": {
        "default": 0
      },
      "flags": {}
    },
    {
      "_id": "22kk4qrpg33hpu3l",
      "name": "Sense: Low-light Vision",
      "type": "feat",
      "img": "systems/pf1/icons/skills/shadow_11.jpg",
      "data": {
        "description": {
          "value": "A creature with low-light vision can see twice as far as a human in starlight, moonlight, torchlight, and similar conditions of dim light. It retains the ability to distinguish color and detail under these conditions."
        },
        "tags": [],
        "damage": {
          "parts": [],
          "critParts": [],
          "nonCritParts": []
        },
        "attackParts": [],
        "effectNotes": [],
        "attackNotes": [],
        "changes": [],
        "contextNotes": [],
        "links": {
          "children": [],
          "charges": []
        },
        "tag": "senseLowlightVision",
        "armorProf": {
          "value": []
        },
        "weaponProf": {
          "value": []
        },
        "flags": {
          "boolean": [],
          "dictionary": []
        },
        "scriptCalls": [],
        "featType": "racial",
        "associations": {
          "classes": []
        },
        "abilityType": "ex"
      },
      "effects": [],
      "folder": null,
      "sort": 0,
      "permission": {
        "default": 0
      },
      "flags": {}
    },
    {
      "_id": "8snLqsJN4LLL00Nq",
      "name": "Toughness",
      "type": "feat",
      "img": "systems/pf1/icons/feats/toughness.jpg",
      "data": {
        "description": {
          "value": "\n                <i>You have enhanced physical stamina.</i>\n                <br />\n                <br />\n                \n                <p><b>Benefits</b></p>\n                <p><p class=\"stat-block-1\"> You gain +3 hit points. For every Hit Die you possess beyond 3, you gain an additional +1 hit point. If you have more than 3 Hit Dice, you gain +1 hit points whenever you gain a Hit Die (such as when you gain a level).</p></p>\n                \n            \n            "
        },
        "tags": [
          [
            "General"
          ],
          [
            "Defensive"
          ]
        ],
        "measureTemplate": {
          "size": "0"
        },
        "actionType": "",
        "damage": {
          "parts": [],
          "critParts": [],
          "nonCritParts": []
        },
        "attackParts": [],
        "effectNotes": [],
        "attackNotes": [],
        "changes": [
          {
            "_id": "bl5pemy2",
            "formula": "max(3, @attributes.hd.total)",
            "operator": "add",
            "subTarget": "mhp",
            "modifier": "untyped",
            "priority": 0,
            "value": 0,
            "target": "misc"
          }
        ],
        "contextNotes": [],
        "links": {
          "children": [],
          "charges": []
        },
        "tag": "toughness",
        "armorProf": {
          "value": []
        },
        "weaponProf": {
          "value": []
        },
        "flags": {
          "boolean": [],
          "dictionary": []
        },
        "scriptCalls": [],
        "associations": {
          "classes": []
        }
      },
      "effects": [],
      "folder": null,
      "sort": 0,
      "permission": {
        "default": 0
      },
      "flags": {}
    },
    {
      "_id": "vWiTqHC4Y3Xn1Pme",
      "name": "Weapon Finesse",
      "type": "feat",
      "img": "systems/pf1/icons/feats/weapon-finesse.jpg",
      "data": {
        "description": {
          "value": "\n                <i>You are trained in using your agility in melee combat, as opposed to brute strength.</i>\n                <br />\n                <br />\n                \n                <p><b>Benefits</b></p>\n                <p><p class=\"stat-block-1\"> With a light weapon, rapier, whip, or spiked chain made for a creature of your size category, you may use your Dexterity modifier instead of your Strength modifier on attack rolls. If you carry a shield, its armor check penalty applies to your attack rolls.</p></p>\n                \n            <br />\n                <p><b>Special</b></p>\n                <p><p class=\"stat-block-1\"> Natural weapons are considered light weapons.</p></p>\n                \n            \n            "
        },
        "tags": [
          [
            "Combat"
          ],
          [
            "Weapon"
          ]
        ],
        "measureTemplate": {
          "size": "0"
        },
        "actionType": "",
        "damage": {
          "parts": [],
          "critParts": [],
          "nonCritParts": []
        },
        "attackParts": [],
        "effectNotes": [],
        "attackNotes": [],
        "changes": [],
        "contextNotes": [],
        "links": {
          "children": [],
          "charges": []
        },
        "tag": "weaponFinesse",
        "armorProf": {
          "value": []
        },
        "weaponProf": {
          "value": []
        },
        "flags": {
          "boolean": [],
          "dictionary": []
        },
        "scriptCalls": [],
        "associations": {
          "classes": []
        }
      },
      "effects": [],
      "folder": null,
      "sort": 0,
      "permission": {
        "default": 0
      },
      "flags": {}
    },
    {
      "_id": "v29291f1fug5s54q",
      "name": "Negative Energy Affinity",
      "type": "feat",
      "img": "systems/pf1/icons/skills/yellow_36.jpg",
      "data": {
        "description": {
          "value": "sbc | Placeholder"
        },
        "tags": [],
        "damage": {
          "parts": [],
          "critParts": [],
          "nonCritParts": []
        },
        "attackParts": [],
        "effectNotes": [],
        "attackNotes": [],
        "changes": [],
        "contextNotes": [],
        "links": {
          "children": [],
          "charges": []
        },
        "armorProf": {
          "value": []
        },
        "weaponProf": {
          "value": []
        },
        "flags": {
          "boolean": [],
          "dictionary": []
        },
        "scriptCalls": [],
        "featType": "classFeat",
        "associations": {
          "classes": []
        },
        "abilityType": ""
      },
      "effects": [],
      "folder": null,
      "sort": 0,
      "permission": {
        "default": 0
      },
      "flags": {}
    },
    {
      "_id": "67gwjxcc0e9zdq5k",
      "name": "Rapier",
      "type": "attack",
      "img": null,
      "data": {
        "tags": [],
        "activation": {
          "type": "attack"
        },
        "unchainedAction": {
          "activation": {
            "type": "attack"
          }
        },
        "duration": {
          "units": "inst"
        },
        "range": {
          "value": "",
          "units": "melee"
        },
        "attackName": "Rapier",
        "actionType": "mwak",
        "attackBonus": "2",
        "damage": {
          "parts": [
            [
              "1d6+0",
              "P"
            ]
          ],
          "critParts": [],
          "nonCritParts": []
        },
        "attackParts": [],
        "ability": {
          "attack": "str",
          "damage": "str",
          "critRange": "18"
        },
        "effectNotes": [],
        "attackNotes": [
          "rapier +4 (1d6+1/18-20 )",
          "Weapon Qualities: [finesse]"
        ],
        "links": {
          "children": [],
          "charges": [],
          "ammunition": []
        },
        "flags": {
          "boolean": [],
          "dictionary": []
        },
        "scriptCalls": [],
        "primaryAttack": false,
        "conditionals": []
      },
      "effects": [],
      "folder": null,
      "sort": 0,
      "permission": {
        "default": 0
      },
      "flags": {}
    },
    {
      "_id": "aa0w7tk852iqn3ni",
      "name": "Detect Undead",
      "type": "spell",
      "img": "systems/pf1/icons/misc/magic-swirl.png",
      "data": {
        "description": {
          "value": "<div class=\"spell-description\">\n  <p>\n    <strong>School</strong>&nbsp;divination;\n    <strong>Level</strong>&nbsp;alchemist 1, cleric/oracle 1, inquisitor 1, medium 1, mesmerist 1, paladin 1, psychic 1, shaman 1, sorcerer/wizard 1, spiritualist 1;\n    \n    \n    \n    \n  </p>\n  <p>\n    <strong>Casting Time</strong>&nbsp;1 standard action<br>\n    <strong>Components</strong>&nbsp;V, S, M/DF (earth from a grave)<br>\n  </p>\n  <p>\n    <strong>Range</strong>&nbsp;60 feet<br>\n    <strong>Area</strong>&nbsp;cone-shaped emanation<br>\n    \n    \n    <strong>Duration</strong>&nbsp;concentration, up to 1 minute/level<br>\n    <strong>Saving Throw</strong>&nbsp;none;&nbsp;<strong>Spell Resistance</strong>&nbsp;no<br>\n  </p>\n  <h2>Description</h2>\n  <p>You can detect the aura that surrounds undead creatures. The amount of information revealed depends on how long you study a particular area.</p><p><i>1st Round</i>: Presence or absence of undead auras.</p><p><i>2nd Round</i>: Number of undead auras in the area and the strength of the strongest undead aura present. If you are of good alignment, and the strongest undead aura's strength is overwhelming (see below), and the creature has HD of at least twice your character level, you are stunned for 1 round and the spell ends.</p><p><i>3rd Round</i>: The strength and location of each undead aura. If an aura is outside your line of sight, then you discern its direction but not its exact location.</p><p><i>Aura Strength</i>: The strength of an undead aura is determined by the HD of the undead creature, as given on the table below.</p><p><i>Lingering Aura</i>: An undead aura lingers after its original source is destroyed. If detect undead is cast and directed at such a location, the spell indicates an aura strength of dim (even weaker than a faint aura). How long the aura lingers at this dim level depends on its original power, as given on the table below.</p><p><table><tr><th>HD</th><th>Strength</th><th>Lingering Aura Duration</th></tr> <tr><td>1 or lower</td><td>Faint</td><td>1d6 rounds</td></tr> <tr><td>2-4</td><td>Moderate</td><td>1d6 minutes</td></tr> <tr><td>5-10</td><td>Strong</td><td>1d6 x 10 minutes</td></tr> <tr><td>11 or higher</td><td>Overwhelming</td><td>1d6 days</td></tr></table>  Each round, you can turn to detect undead in a new area. The spell can penetrate barriers, but 1 foot of stone, 1 inch of common metal, a thin sheet of lead, or 3 feet of wood or dirt blocks it.</p>\n</div>\n"
        },
        "tags": [],
        "activation": {
          "type": "standard"
        },
        "unchainedAction": {
          "activation": {
            "cost": 2,
            "type": "action"
          }
        },
        "range": {
          "value": 60,
          "units": "ft"
        },
        "uses": {
          "value": 3,
          "per": "day"
        },
        "measureTemplate": {
          "size": "0"
        },
        "actionType": "",
        "damage": {
          "parts": [],
          "critParts": [],
          "nonCritParts": []
        },
        "attackParts": [],
        "ability": {
          "attack": "",
          "damage": ""
        },
        "save": {
          "dc": "0"
        },
        "effectNotes": [],
        "attackNotes": [],
        "links": {
          "children": []
        },
        "flags": {
          "boolean": [],
          "dictionary": []
        },
        "scriptCalls": [],
        "learnedAt": {
          "class": [
            [
              "sorcerer/wizard",
              1
            ],
            [
              "cleric/oracle",
              1
            ],
            [
              "paladin",
              1
            ],
            [
              "alchemist",
              1
            ],
            [
              "inquisitor",
              1
            ],
            [
              "shaman",
              1
            ],
            [
              "psychic",
              1
            ],
            [
              "medium",
              1
            ],
            [
              "mesmerist",
              1
            ],
            [
              "spiritualist",
              1
            ]
          ],
          "domain": [],
          "subDomain": [],
          "elementalSchool": [],
          "bloodline": []
        },
        "school": "div",
        "conditionals": [],
        "components": {
          "verbal": true,
          "somatic": true,
          "material": true,
          "divineFocus": 2
        },
        "materials": {
          "value": "earth from a grave"
        },
        "spellbook": "spelllike",
        "preparation": {
          "preparedAmount": 3,
          "maxAmount": 3
        },
        "atWill": true,
        "sr": false,
        "shortDescription": "<p>You can detect the aura that surrounds undead creatures. The amount of information revealed depends on how long you study a particular area.</p><p><i>1st Round</i>: Presence or absence of undead auras.</p><p><i>2nd Round</i>: Number of undead auras in the area and the strength of the strongest undead aura present. If you are of good alignment, and the strongest undead aura's strength is overwhelming (see below), and the creature has HD of at least twice your character level, you are stunned for 1 round and the spell ends.</p><p><i>3rd Round</i>: The strength and location of each undead aura. If an aura is outside your line of sight, then you discern its direction but not its exact location.</p><p><i>Aura Strength</i>: The strength of an undead aura is determined by the HD of the undead creature, as given on the table below.</p><p><i>Lingering Aura</i>: An undead aura lingers after its original source is destroyed. If detect undead is cast and directed at such a location, the spell indicates an aura strength of dim (even weaker than a faint aura). How long the aura lingers at this dim level depends on its original power, as given on the table below.</p><p><table><tr><th>HD</th><th>Strength</th><th>Lingering Aura Duration</th></tr> <tr><td>1 or lower</td><td>Faint</td><td>1d6 rounds</td></tr> <tr><td>2-4</td><td>Moderate</td><td>1d6 minutes</td></tr> <tr><td>5-10</td><td>Strong</td><td>1d6 x 10 minutes</td></tr> <tr><td>11 or higher</td><td>Overwhelming</td><td>1d6 days</td></tr></table>  Each round, you can turn to detect undead in a new area. The spell can penetrate barriers, but 1 foot of stone, 1 inch of common metal, a thin sheet of lead, or 3 feet of wood or dirt blocks it.</p>",
        "spellDuration": "concentration, up to 1 minute/level",
        "spellArea": "cone-shaped emanation"
      },
      "effects": [],
      "folder": null,
      "sort": 0,
      "permission": {
        "default": 0
      },
      "flags": {}
    },
    {
      "_id": "sc6fg448jgl8bzlp",
      "name": "Ecology",
      "type": "feat",
      "img": "icons/environment/wilderness/tree-oak.webp",
      "data": {
        "description": {
          "value": "<div><strong>Environment</strong>:  any land</div><div><strong>Organization</strong>:  solitary, pair, or court (3-8 and 1 vampire)</div><div><strong>Treasure</strong>:  NPC gear (chain shirt, rapier, other treasure)</div>"
        },
        "tags": [],
        "damage": {
          "parts": [],
          "critParts": [],
          "nonCritParts": []
        },
        "attackParts": [],
        "effectNotes": [],
        "attackNotes": [],
        "changes": [],
        "contextNotes": [],
        "links": {
          "children": [],
          "charges": []
        },
        "armorProf": {
          "value": []
        },
        "weaponProf": {
          "value": []
        },
        "flags": {
          "boolean": [],
          "dictionary": []
        },
        "scriptCalls": [],
        "featType": "misc",
        "associations": {
          "classes": []
        }
      },
      "effects": [],
      "folder": null,
      "sort": 0,
      "permission": {
        "default": 0
      },
      "flags": {}
    },
    {
      "_id": "x1g89tquk3xw8uhr",
      "name": "Resist Level Drain",
      "type": "feat",
      "img": "systems/pf1/icons/skills/yellow_36.jpg",
      "data": {
        "description": {
          "value": "A dhampir takes no penalties from energy draining effects, though he can still be killed if he accrues more negative levels then he has Hit Dice. After 24 hours, any negative levels a dhampir takes are removed without the need for an additional saving throw."
        },
        "tags": [],
        "damage": {
          "parts": [],
          "critParts": [],
          "nonCritParts": []
        },
        "attackParts": [],
        "effectNotes": [],
        "attackNotes": [],
        "changes": [],
        "contextNotes": [],
        "links": {
          "children": [],
          "charges": []
        },
        "armorProf": {
          "value": []
        },
        "weaponProf": {
          "value": []
        },
        "flags": {
          "boolean": [],
          "dictionary": []
        },
        "scriptCalls": [],
        "featType": "classFeat",
        "associations": {
          "classes": []
        },
        "abilityType": "ex"
      },
      "effects": [],
      "folder": null,
      "sort": 0,
      "permission": {
        "default": 0
      },
      "flags": {}
    },
    {
      "_id": "EQ613znyo4L8CMvb",
      "name": "sbc | Conversion Buff",
      "type": "buff",
      "img": "systems/pf1/icons/skills/yellow_36.jpg",
      "data": {
        "description": {
          "value": "<h2>sbc | Conversion Buff</h2>\n                        This Buff was created by <strong>sbc</strong> to compensate for differences between the input and the values FoundryVTT calculates automatically.\n                        <br><br>\n                        Especially when the pathfinder system gets upgraded, entries in compendiums get updated or foundry changes in some way, this buff may become outdated.\n                        <br><br>\n                        For most mooks the conversion should more or less work, but for important NPCs or creatures it is adviced to double check the conversion manually."
        },
        "tags": [],
        "changes": [
          {
            "formula": "-2",
            "modifier": "untypedPerm",
            "operator": "add",
            "priority": 0,
            "subTarget": "ref",
            "target": "savingThrows",
            "value": -2,
            "id": "pt569ylt"
          },
          {
            "formula": "4",
            "modifier": "untypedPerm",
            "operator": "add",
            "priority": 0,
            "subTarget": "aac",
            "target": "ac",
            "value": 4,
            "id": "ewjtkwz7"
          },
          {
            "formula": "-3",
            "modifier": "untypedPerm",
            "operator": "add",
            "priority": 0,
            "subTarget": "skill.blf",
            "target": "skill",
            "value": -3,
            "id": "pkst1kt4"
          },
          {
            "formula": "-1",
            "modifier": "untypedPerm",
            "operator": "add",
            "priority": 0,
            "subTarget": "skill.int",
            "target": "skill",
            "value": -1,
            "id": "hg97v4q2"
          },
          {
            "formula": "-2",
            "modifier": "untypedPerm",
            "operator": "add",
            "priority": 0,
            "subTarget": "skill.per",
            "target": "skill",
            "value": -2,
            "id": "1cuydbod"
          },
          {
            "formula": "2",
            "modifier": "untypedPerm",
            "operator": "add",
            "priority": 0,
            "subTarget": "skill.rid",
            "target": "skill",
            "value": 2,
            "id": "uunsmd72"
          }
        ],
        "contextNotes": [],
        "links": {
          "children": []
        },
        "tag": "sbcConversionBuff",
        "useCustomTag": true,
        "flags": {
          "boolean": [],
          "dictionary": []
        },
        "scriptCalls": [],
        "buffType": "perm",
        "active": true,
        "hideFromToken": true
      },
      "effects": [],
      "folder": null,
      "sort": 0,
      "permission": {
        "default": 0,
        "iM1ACTqH0Ml6HJtd": 3
      },
      "flags": {}
    }
  ],
  "effects": [],
  "folder": null,
  "sort": 0,
  "permission": {
    "default": 0
  },
  "flags": {}
}