{
  "_id": "QXENVhF2tPuFrn5k",
  "name": "Haniver",
  "type": "npc",
  "img": "systems/pf1/icons/races/creature-types/fey.png",
  "data": {
    "abilities": {
      "str": {
        "value": 9
      },
      "dex": {
        "value": 13
      },
      "con": {
        "value": 12
      },
      "int": {
        "value": 8
      },
      "wis": {
        "value": 11
      },
      "cha": {
        "value": 12
      }
    },
    "attributes": {
      "sr": {
        "formula": "11"
      },
      "hp": {
        "value": 10
      },
      "speed": {
        "land": {
          "base": 10
        },
        "swim": {
          "base": 20
        },
        "fly": {
          "base": 20
        }
      },
      "spells": {
        "usedSpellbooks": [
          "spelllike"
        ],
        "spellbooks": {
          "spelllike": {
            "altName": "Spell-like Abilities",
            "concentrationNotes": "sbc | Total in statblock was +2, adjust as needed.",
            "clNotes": "sbc | Total in statblock was CL 1, adjust as needed.",
            "autoSpellLevelCalculation": false,
            "autoSpellLevels": false,
            "arcaneSpellFailure": false,
            "domainSlotValue": 0
          }
        }
      }
    },
    "details": {
      "cr": {
        "base": 0.5
      }
    },
    "skills": {
      "dev": {
        "rank": 2
      },
      "dis": {
        "rank": 1
      },
      "fly": {
        "rank": -3
      },
      "per": {
        "rank": 1
      },
      "slt": {
        "rank": 3
      },
      "ste": {
        "rank": 1
      },
      "swm": {
        "rank": 9
      }
    },
    "traits": {
      "size": "tiny",
      "senses": "darkvision 60 ft., low-light vision; Perception +4",
      "dr": "2/cold iron",
      "languages": {
        "value": [
          "common",
          "sylvan"
        ]
      },
      "di": {
        "value": []
      },
      "dv": {
        "value": []
      },
      "ci": {
        "value": []
      },
      "stature": ""
    }
  },
  "token": {
    "name": "Haniver",
    "displayName": 20,
    "actorLink": false,
    "width": 1,
    "height": 1,
    "scale": 0.75,
    "mirrorX": false,
    "mirrorY": false,
    "lockRotation": false,
    "rotation": 0,
    "alpha": 1,
    "vision": false,
    "dimSight": 0,
    "brightSight": "60",
    "dimLight": 0,
    "brightLight": 0,
    "sightAngle": 0,
    "lightAngle": 0,
    "lightAlpha": 0.25,
    "lightAnimation": {
      "speed": 5,
      "intensity": 5
    },
    "disposition": -1,
    "displayBars": 20,
    "bar1": {
      "attribute": null
    },
    "bar2": {
      "attribute": null
    },
    "flags": {
      "pf1": {
        "lowLightVision": false
      }
    },
    "randomImg": false,
    "img": "systems/pf1/icons/races/creature-types/fey.png"
  },
  "items": [
    {
      "_id": "0jjH2XJVd6dzlaSm",
      "name": "Fey (Aquatic)",
      "type": "class",
      "img": "systems/pf1/icons/skills/green_10.jpg",
      "data": {
        "description": {
          "value": "<p>A fey is a creature with supernatural abilities and connections to nature or to some other force or place. Fey are usually human-shaped.</p>\n<h2><span id=\"Features\">Features</span></h2>\n<p>A fey has the following features.</p>\n<ul>\n<li>d6 Hit Die.</li>\n<li>Base attack bonus equal to 1/2 total Hit Dice (slow progression).</li>\n<li>Good&nbsp;<a href=\"https://www.d20pfsrd.com/gamemastering/combat#TOC-Reflex\">Reflex</a>&nbsp;and&nbsp;<a href=\"https://www.d20pfsrd.com/gamemastering/combat#TOC-Will\">Will</a>&nbsp;Saves.</li>\n<li>Skill points equal to 6 + Int modifier (minimum 1) per Hit Die. The following are class skills for fey: <a href=\"https://www.d20pfsrd.com/skills/acrobatics\">Acrobatics</a>, <a href=\"https://www.d20pfsrd.com/skills/bluff\">Bluff</a>, <a href=\"https://www.d20pfsrd.com/skills/climb\">Climb</a>, <a href=\"https://www.d20pfsrd.com/skills/craft\">Craft</a>, <a href=\"https://www.d20pfsrd.com/skills/diplomacy\">Diplomacy</a>, <a href=\"https://www.d20pfsrd.com/skills/disguise\">Disguise</a>, <a href=\"https://www.d20pfsrd.com/skills/escape-artist\">Escape Artist</a>, <a href=\"https://www.d20pfsrd.com/skills/fly\">Fly</a>, <a href=\"https://www.d20pfsrd.com/skills/knowledge\">Knowledge</a>&nbsp;(geography), <a href=\"https://www.d20pfsrd.com/skills/knowledge\">Knowledge</a>&nbsp;(local), <a href=\"https://www.d20pfsrd.com/skills/knowledge\">Knowledge</a>&nbsp;(nature), <a href=\"https://www.d20pfsrd.com/skills/perception\">Perception</a>, <a href=\"https://www.d20pfsrd.com/skills/perform\">Perform</a>, <a href=\"https://www.d20pfsrd.com/skills/sense-motive\">Sense Motive</a>, <a href=\"https://www.d20pfsrd.com/skills/sleight-of-hand\">Sleight of Hand</a>, <a href=\"https://www.d20pfsrd.com/skills/stealth\">Stealth</a>, <a href=\"https://www.d20pfsrd.com/skills/swim\">Swim</a>, <a href=\"https://www.d20pfsrd.com/skills/use-magic-device\">Use Magic Device</a>.</li>\n</ul>\n<h2>Traits</h2>\n<p>A fey possesses the following traits (unless otherwise noted in a creature’s entry).</p>\n<ul>\n<li><a href=\"https://www.d20pfsrd.com/gamemastering/special-abilities#TOC-Low-Light-Vision\">Low-light vision</a>.</li>\n<li>Proficient with all simple weapons and any weapons mentioned in its entry.</li>\n<li>Proficient with whatever type of armor (light, medium, or heavy) it is described as wearing, as well as all lighter types. Fey not indicated as wearing armor are not proficient with armor. Fey are proficient with shields if they are proficient with any form of armor.</li>\n<li>Fey breathe, eat, and sleep.</li>\n</ul>"
        },
        "tags": [],
        "changes": [],
        "links": "",
        "tag": "fey",
        "useCustomTag": true,
        "armorProf": {
          "value": []
        },
        "weaponProf": {
          "value": []
        },
        "flags": {
          "boolean": [],
          "dictionary": []
        },
        "scriptCalls": [],
        "classType": "racial",
        "hd": 6,
        "hp": 9,
        "skillsPerLevel": 6,
        "savingThrows": {
          "ref": {
            "value": "high"
          },
          "will": {
            "value": "high"
          }
        },
        "classSkills": {
          "acr": true,
          "apr": false,
          "art": false,
          "blf": true,
          "clm": true,
          "crf": true,
          "dip": true,
          "dev": false,
          "dis": true,
          "esc": true,
          "fly": true,
          "han": false,
          "hea": false,
          "int": false,
          "kar": false,
          "kdu": false,
          "ken": false,
          "kge": true,
          "khi": false,
          "klo": true,
          "kna": true,
          "kno": false,
          "kpl": false,
          "kre": false,
          "lin": false,
          "lor": false,
          "per": true,
          "prf": true,
          "pro": false,
          "rid": false,
          "sen": true,
          "slt": true,
          "spl": false,
          "ste": true,
          "sur": false,
          "swm": true,
          "umd": true
        }
      },
      "effects": [],
      "folder": null,
      "sort": 0,
      "permission": {
        "default": 0
      },
      "flags": {}
    },
    {
      "_id": "kx26z812gclx37n2",
      "name": "Race: Fey",
      "type": "race",
      "img": "systems/pf1/icons/skills/green_10.jpg",
      "data": {
        "description": {
          "value": "sbc | As no playable race was found a placeholder was generated."
        },
        "tags": [],
        "changes": [],
        "contextNotes": [],
        "links": {
          "children": []
        },
        "armorProf": {
          "value": []
        },
        "weaponProf": {
          "value": []
        },
        "flags": {
          "boolean": [],
          "dictionary": []
        },
        "scriptCalls": [],
        "creatureType": "fey",
        "subTypes": [
          [
            "aquatic"
          ]
        ]
      },
      "effects": [],
      "folder": null,
      "sort": 0,
      "permission": {
        "default": 0
      },
      "flags": {}
    },
    {
      "_id": "5j4ncbd2y5hf6dks",
      "name": "Sense: Darkvision 60ft.",
      "type": "feat",
      "img": "systems/pf1/icons/skills/shadow_12.jpg",
      "data": {
        "description": {
          "value": "Darkvision is the extraordinary ability to see with no light source at all, out to a range specified for the creature. Darkvision is black-and-white only (colors cannot be discerned). It does not allow characters to see anything that they could not see otherwise—invisible objects are still invisible, and illusions are still visible as what they seem to be. Likewise, darkvision subjects a creature to gaze attacks normally. The presence of light does not spoil darkvision."
        },
        "tags": [],
        "damage": {
          "parts": [],
          "critParts": [],
          "nonCritParts": []
        },
        "attackParts": [],
        "effectNotes": [],
        "attackNotes": [],
        "changes": [],
        "contextNotes": [],
        "links": {
          "children": [],
          "charges": []
        },
        "tag": "senseDarkvision60ft",
        "armorProf": {
          "value": []
        },
        "weaponProf": {
          "value": []
        },
        "flags": {
          "boolean": [],
          "dictionary": []
        },
        "scriptCalls": [],
        "featType": "racial",
        "associations": {
          "classes": []
        },
        "abilityType": "ex"
      },
      "effects": [],
      "folder": null,
      "sort": 0,
      "permission": {
        "default": 0
      },
      "flags": {}
    },
    {
      "_id": "rg8z3rmvx6tdwf82",
      "name": "Sense: Low-light Vision",
      "type": "feat",
      "img": "systems/pf1/icons/skills/shadow_11.jpg",
      "data": {
        "description": {
          "value": "A creature with low-light vision can see twice as far as a human in starlight, moonlight, torchlight, and similar conditions of dim light. It retains the ability to distinguish color and detail under these conditions."
        },
        "tags": [],
        "damage": {
          "parts": [],
          "critParts": [],
          "nonCritParts": []
        },
        "attackParts": [],
        "effectNotes": [],
        "attackNotes": [],
        "changes": [],
        "contextNotes": [],
        "links": {
          "children": [],
          "charges": []
        },
        "tag": "senseLowlightVision",
        "armorProf": {
          "value": []
        },
        "weaponProf": {
          "value": []
        },
        "flags": {
          "boolean": [],
          "dictionary": []
        },
        "scriptCalls": [],
        "featType": "racial",
        "associations": {
          "classes": []
        },
        "abilityType": "ex"
      },
      "effects": [],
      "folder": null,
      "sort": 0,
      "permission": {
        "default": 0
      },
      "flags": {}
    },
    {
      "_id": "Uuiu3p982omhMEPj",
      "name": "Improved Initiative",
      "type": "feat",
      "img": "systems/pf1/icons/feats/improved-initiative.jpg",
      "data": {
        "description": {
          "value": "\n                <i>Your quick reflexes allow you to react rapidly to danger.</i>\n                <br />\n                <br />\n                \n                <p><b>Benefits</b></p>\n                <p><p class=\"stat-block-1\"> You get a +4 bonus on initiative checks.</p></p>\n                \n            \n            "
        },
        "tags": [
          [
            "Combat"
          ]
        ],
        "measureTemplate": {
          "size": "0"
        },
        "actionType": "",
        "damage": {
          "parts": [],
          "critParts": [],
          "nonCritParts": []
        },
        "attackParts": [],
        "effectNotes": [],
        "attackNotes": [],
        "changes": [
          {
            "_id": "ign7okhi",
            "formula": "4",
            "operator": "add",
            "subTarget": "init",
            "modifier": "untyped",
            "priority": 0,
            "value": 0,
            "target": "misc"
          }
        ],
        "contextNotes": [],
        "links": {
          "children": [],
          "charges": []
        },
        "tag": "improvedInitiative",
        "armorProf": {
          "value": []
        },
        "weaponProf": {
          "value": []
        },
        "flags": {
          "boolean": [],
          "dictionary": []
        },
        "scriptCalls": [],
        "associations": {
          "classes": []
        }
      },
      "effects": [],
      "folder": null,
      "sort": 0,
      "permission": {
        "default": 0
      },
      "flags": {}
    },
    {
      "_id": "9iq3q4vojujph6al",
      "name": "Special Quality: Amphibious",
      "type": "feat",
      "img": "systems/pf1/icons/skills/yellow_36.jpg",
      "data": {
        "description": {
          "value": "sbc | Placeholder for Special Qualities, which in most statblocks are listed under SQ in the statistics block, but described in the Special Abilities. Remove duplicates as needed!"
        },
        "tags": [],
        "damage": {
          "parts": [],
          "critParts": [],
          "nonCritParts": []
        },
        "attackParts": [],
        "effectNotes": [],
        "attackNotes": [],
        "changes": [],
        "contextNotes": [],
        "links": {
          "children": [],
          "charges": []
        },
        "armorProf": {
          "value": []
        },
        "weaponProf": {
          "value": []
        },
        "flags": {
          "boolean": [],
          "dictionary": []
        },
        "scriptCalls": [],
        "featType": "misc",
        "associations": {
          "classes": []
        }
      },
      "effects": [],
      "folder": null,
      "sort": 0,
      "permission": {
        "default": 0
      },
      "flags": {}
    },
    {
      "_id": "p4clm113yjlz15mm",
      "name": "Bite",
      "type": "attack",
      "img": "systems/pf1/icons/items/inventory/monster-head.jpg",
      "data": {
        "tags": [],
        "activation": {
          "type": "attack"
        },
        "unchainedAction": {
          "activation": {
            "type": "attack"
          }
        },
        "duration": {
          "units": "inst"
        },
        "range": {
          "value": "",
          "units": "melee"
        },
        "attackName": "Bite",
        "actionType": "mwak",
        "attackBonus": "0",
        "damage": {
          "parts": [
            [
              "1d3+0",
              "B, P and S"
            ]
          ],
          "critParts": [],
          "nonCritParts": []
        },
        "attackParts": [],
        "ability": {
          "attack": "str",
          "damage": "str"
        },
        "effectNotes": [],
        "attackNotes": [
          "bite +1 (1d3-1 )"
        ],
        "links": {
          "children": [],
          "charges": [],
          "ammunition": []
        },
        "flags": {
          "boolean": [],
          "dictionary": []
        },
        "scriptCalls": [],
        "attackType": "natural",
        "conditionals": []
      },
      "effects": [],
      "folder": null,
      "sort": 0,
      "permission": {
        "default": 0
      },
      "flags": {}
    },
    {
      "_id": "jm280rckhy9t2cq9",
      "name": "Special Attack: Misplacement",
      "type": "attack",
      "img": "systems/pf1/icons/skills/yellow_36.jpg",
      "data": {
        "description": {
          "value": "sbc | Placeholder for Special Attacks, which in most statblocks are listed under 'Special Attacks' in the statistics block, but are described in the 'Special Abilities' block. Remove duplicates as needed!"
        },
        "tags": [],
        "damage": {
          "parts": [],
          "critParts": [],
          "nonCritParts": []
        },
        "attackParts": [],
        "effectNotes": [],
        "attackNotes": [],
        "links": {
          "children": [],
          "charges": [],
          "ammunition": []
        },
        "flags": {
          "boolean": [],
          "dictionary": []
        },
        "scriptCalls": [],
        "attackType": "misc",
        "conditionals": []
      },
      "effects": [],
      "folder": null,
      "sort": 0,
      "permission": {
        "default": 0
      },
      "flags": {}
    },
    {
      "_id": "a6isom7wx0nmhwfp",
      "name": "Prestidigitation",
      "type": "spell",
      "img": "systems/pf1/icons/misc/magic-swirl.png",
      "data": {
        "description": {
          "value": "<div class=\"spell-description\">\n  <p>\n    <strong>School</strong>&nbsp;universal;\n    <strong>Level</strong>&nbsp;bard 0, magus 0, medium 0, mesmerist 0, psychic 0, sorcerer/wizard 0;\n    \n    \n    \n    \n  </p>\n  <p>\n    <strong>Casting Time</strong>&nbsp;1 standard action<br>\n    <strong>Components</strong>&nbsp;V, S<br>\n  </p>\n  <p>\n    <strong>Range</strong>&nbsp;10 feet<br>\n    <strong>Area</strong>&nbsp;see text<br>\n    <strong>Targets</strong>&nbsp;see text<br>\n    <strong>Effect</strong>&nbsp;see text<br>\n    <strong>Duration</strong>&nbsp;1 hour<br>\n    <strong>Saving Throw</strong>&nbsp;see text;&nbsp;<strong>Spell Resistance</strong>&nbsp;no<br>\n  </p>\n  <h2>Description</h2>\n  <p>Prestidigitations are minor tricks that novice spellcasters use for practice. Once cast, a prestidigitation spell enables you to perform simple magical effects for 1 hour. The effects are minor and have severe limitations. A prestidigitation can slowly lift 1 pound of material. It can color, clean, or soil items in a 1-foot cube each round. It can chill, warm, or flavor 1 pound of nonliving material. It cannot deal damage or affect the concentration of spellcasters. Prestidigitation can create small objects, but they look crude and artificial. The materials created by a prestidigitation spell are extremely fragile, and they cannot be used as tools, weapons, or spell components. Finally, prestidigitation lacks the power to duplicate any other spell effects. Any actual change to an object (beyond just moving, cleaning, or soiling it) persists only 1 hour.</p>\n</div>\n"
        },
        "tags": [],
        "activation": {
          "type": "standard"
        },
        "unchainedAction": {
          "activation": {
            "cost": 2,
            "type": "action"
          }
        },
        "target": {
          "value": "see text"
        },
        "range": {
          "value": 10,
          "units": "ft"
        },
        "uses": {
          "value": 3,
          "per": "day"
        },
        "measureTemplate": {
          "size": "0"
        },
        "actionType": "spellsave",
        "damage": {
          "parts": [],
          "critParts": [],
          "nonCritParts": []
        },
        "attackParts": [],
        "ability": {
          "attack": "",
          "damage": ""
        },
        "save": {
          "dc": "0",
          "description": "see text"
        },
        "effectNotes": [],
        "attackNotes": [],
        "links": {
          "children": []
        },
        "flags": {
          "boolean": [],
          "dictionary": []
        },
        "scriptCalls": [],
        "learnedAt": {
          "class": [
            [
              "sorcerer/wizard",
              0
            ],
            [
              "bard",
              0
            ],
            [
              "magus",
              0
            ],
            [
              "psychic",
              0
            ],
            [
              "medium",
              0
            ],
            [
              "mesmerist",
              0
            ]
          ],
          "domain": [],
          "subDomain": [],
          "elementalSchool": [],
          "bloodline": []
        },
        "level": 0,
        "school": "uni",
        "conditionals": [],
        "components": {
          "verbal": true,
          "somatic": true
        },
        "spellbook": "spelllike",
        "preparation": {
          "preparedAmount": 3,
          "maxAmount": 3,
          "autoDeductCharges": false
        },
        "atWill": true,
        "sr": false,
        "shortDescription": "<p>Prestidigitations are minor tricks that novice spellcasters use for practice. Once cast, a prestidigitation spell enables you to perform simple magical effects for 1 hour. The effects are minor and have severe limitations. A prestidigitation can slowly lift 1 pound of material. It can color, clean, or soil items in a 1-foot cube each round. It can chill, warm, or flavor 1 pound of nonliving material. It cannot deal damage or affect the concentration of spellcasters. Prestidigitation can create small objects, but they look crude and artificial. The materials created by a prestidigitation spell are extremely fragile, and they cannot be used as tools, weapons, or spell components. Finally, prestidigitation lacks the power to duplicate any other spell effects. Any actual change to an object (beyond just moving, cleaning, or soiling it) persists only 1 hour.</p>",
        "spellDuration": "1 hour",
        "spellEffect": "see text",
        "spellArea": "see text"
      },
      "effects": [],
      "folder": null,
      "sort": 0,
      "permission": {
        "default": 0
      },
      "flags": {}
    },
    {
      "_id": "0onqjy8gfgop1xsi",
      "name": "Ventriloquism",
      "type": "spell",
      "img": "systems/pf1/icons/misc/magic-swirl.png",
      "data": {
        "description": {
          "value": "<div class=\"spell-description\">\n  <p>\n    <strong>School</strong>&nbsp;illusion&nbsp;(figment);\n    <strong>Level</strong>&nbsp;bard 1, medium 1, mesmerist 1, psychic 1, sorcerer/wizard 1, spiritualist 1, summoner 1, unchained Summoner 1;\n    \n    \n    \n    <strong>Bloodline</strong>&nbsp;Maestro 1;\n  </p>\n  <p>\n    <strong>Casting Time</strong>&nbsp;1 standard action<br>\n    <strong>Components</strong>&nbsp;V, F (parchment rolled into cone)<br>\n  </p>\n  <p>\n    <strong>Range</strong>&nbsp;close (25 ft. + 5 ft./2 levels)<br>\n    \n    \n    <strong>Effect</strong>&nbsp;intelligible sound, usually speech<br>\n    <strong>Duration</strong>&nbsp;1 min./level<br>\n    <strong>Saving Throw</strong>&nbsp;Will disbelief (if interacted with);&nbsp;<strong>Spell Resistance</strong>&nbsp;no<br>\n  </p>\n  <h2>Description</h2>\n  <p>You can make your voice (or any sound that you can normally make vocally) seem to issue from someplace else. You can speak in any language you know. With respect to such voices and sounds, anyone who hears the sound and rolls a successful save recognizes it as illusory (but still hears it).</p>\n</div>\n"
        },
        "tags": [],
        "activation": {
          "type": "standard"
        },
        "unchainedAction": {
          "activation": {
            "cost": 2,
            "type": "action"
          }
        },
        "range": {
          "units": "close"
        },
        "uses": {
          "value": 3,
          "per": "day"
        },
        "measureTemplate": {
          "size": "0"
        },
        "actionType": "spellsave",
        "damage": {
          "parts": [],
          "critParts": [],
          "nonCritParts": []
        },
        "attackParts": [],
        "ability": {
          "attack": "",
          "damage": ""
        },
        "save": {
          "dc": "0",
          "type": "will",
          "description": "Will disbelief (if interacted with)"
        },
        "effectNotes": [],
        "attackNotes": [],
        "links": {
          "children": []
        },
        "flags": {
          "boolean": [],
          "dictionary": []
        },
        "scriptCalls": [],
        "learnedAt": {
          "class": [
            [
              "sorcerer/wizard",
              1
            ],
            [
              "bard",
              1
            ],
            [
              "summoner",
              1
            ],
            [
              "psychic",
              1
            ],
            [
              "medium",
              1
            ],
            [
              "mesmerist",
              1
            ],
            [
              "spiritualist",
              1
            ],
            [
              "unchained Summoner",
              1
            ]
          ],
          "domain": [],
          "subDomain": [],
          "elementalSchool": [],
          "bloodline": [
            [
              "Maestro",
              1
            ]
          ]
        },
        "school": "ill",
        "subschool": "figment",
        "conditionals": [],
        "components": {
          "verbal": true,
          "focus": true
        },
        "materials": {
          "focus": "parchment rolled into cone"
        },
        "spellbook": "spelllike",
        "preparation": {
          "preparedAmount": 3,
          "maxAmount": 3
        },
        "atWill": true,
        "sr": false,
        "shortDescription": "<p>You can make your voice (or any sound that you can normally make vocally) seem to issue from someplace else. You can speak in any language you know. With respect to such voices and sounds, anyone who hears the sound and rolls a successful save recognizes it as illusory (but still hears it).</p>",
        "spellDuration": "1 min./level",
        "spellEffect": "intelligible sound, usually speech"
      },
      "effects": [],
      "folder": null,
      "sort": 0,
      "permission": {
        "default": 0
      },
      "flags": {}
    },
    {
      "_id": "j71cjhkj0697faj3",
      "name": "Scare",
      "type": "spell",
      "img": "systems/pf1/icons/misc/magic-swirl.png",
      "data": {
        "description": {
          "value": "<div class=\"spell-description\">\n  <p>\n    <strong>School</strong>&nbsp;necromancy&nbsp;[fear, mind-affecting, emotion];\n    <strong>Level</strong>&nbsp;antipaladin 2, bard 2, medium 2, mesmerist 2, occultist 2, psychic 2, shaman 2, sorcerer/wizard 2, spiritualist 2, witch 2;\n    \n    <strong>Subdomain</strong>&nbsp;Fear 3;\n    \n    \n  </p>\n  <p>\n    <strong>Casting Time</strong>&nbsp;1 standard action<br>\n    <strong>Components</strong>&nbsp;V, S, M (a bone from an undead creature)<br>\n  </p>\n  <p>\n    <strong>Range</strong>&nbsp;medium (100 ft. + 10 ft./level)<br>\n    \n    <strong>Targets</strong>&nbsp;one living creature per three levels, no two of which can be more than 30 ft. apart<br>\n    \n    <strong>Duration</strong>&nbsp;1 round/level or 1 round; see text for cause fear<br>\n    <strong>Saving Throw</strong>&nbsp;Will partial;&nbsp;<strong>Spell Resistance</strong>&nbsp;yes<br>\n  </p>\n  <h2>Description</h2>\n  <p>This spell functions like <i>cause fear</i>, except that it causes all targeted creatures of less than 6 HD to become frightened.</p>\n</div>\n"
        },
        "tags": [],
        "activation": {
          "type": "standard"
        },
        "unchainedAction": {
          "activation": {
            "cost": 2,
            "type": "action"
          }
        },
        "target": {
          "value": "one living creature per three levels, no two of which can be more than 30 ft. apart"
        },
        "range": {
          "units": "medium"
        },
        "uses": {
          "value": 1,
          "per": "day"
        },
        "measureTemplate": {
          "size": "0"
        },
        "actionType": "spellsave",
        "damage": {
          "parts": [],
          "critParts": [],
          "nonCritParts": []
        },
        "attackParts": [],
        "ability": {
          "attack": "",
          "damage": ""
        },
        "save": {
          "dc": "0",
          "type": "will",
          "description": "Will partial"
        },
        "effectNotes": [],
        "attackNotes": [],
        "links": {
          "children": []
        },
        "flags": {
          "boolean": [],
          "dictionary": []
        },
        "scriptCalls": [],
        "learnedAt": {
          "class": [
            [
              "sorcerer/wizard",
              2
            ],
            [
              "bard",
              2
            ],
            [
              "witch",
              2
            ],
            [
              "antipaladin",
              2
            ],
            [
              "shaman",
              2
            ],
            [
              "psychic",
              2
            ],
            [
              "medium",
              2
            ],
            [
              "mesmerist",
              2
            ],
            [
              "occultist",
              2
            ],
            [
              "spiritualist",
              2
            ]
          ],
          "domain": [],
          "subDomain": [
            [
              "Fear",
              3
            ]
          ],
          "elementalSchool": [],
          "bloodline": []
        },
        "level": 2,
        "school": "nec",
        "types": "fear, mind-affecting, emotion",
        "conditionals": [],
        "components": {
          "verbal": true,
          "somatic": true,
          "material": true
        },
        "materials": {
          "value": "a bone from an undead creature"
        },
        "spellbook": "spelllike",
        "preparation": {
          "preparedAmount": 1,
          "maxAmount": 1
        },
        "shortDescription": "<p>This spell functions like <i>cause fear</i>, except that it causes all targeted creatures of less than 6 HD to become frightened.</p>",
        "spellDuration": "1 round/level or 1 round; see text for cause fear"
      },
      "effects": [],
      "folder": null,
      "sort": 0,
      "permission": {
        "default": 0
      },
      "flags": {}
    },
    {
      "_id": "e34blsiqbucg1gt5",
      "name": "Ecology",
      "type": "feat",
      "img": "icons/environment/wilderness/tree-oak.webp",
      "data": {
        "description": {
          "value": "<div><strong>Environment</strong>:  temperate coasts</div><div><strong>Organization</strong>:  solitary, pair, or swarm (4-12)</div><div><strong>Treasure</strong>:  incidental</div>"
        },
        "tags": [],
        "damage": {
          "parts": [],
          "critParts": [],
          "nonCritParts": []
        },
        "attackParts": [],
        "effectNotes": [],
        "attackNotes": [],
        "changes": [],
        "contextNotes": [],
        "links": {
          "children": [],
          "charges": []
        },
        "armorProf": {
          "value": []
        },
        "weaponProf": {
          "value": []
        },
        "flags": {
          "boolean": [],
          "dictionary": []
        },
        "scriptCalls": [],
        "featType": "misc",
        "associations": {
          "classes": []
        }
      },
      "effects": [],
      "folder": null,
      "sort": 0,
      "permission": {
        "default": 0
      },
      "flags": {}
    },
    {
      "_id": "wjs07jn899g8v30j",
      "name": "Misplacement",
      "type": "feat",
      "img": "systems/pf1/icons/skills/yellow_36.jpg",
      "data": {
        "description": {
          "value": "Hanivers are swift and curious, possessing an uncanny ability to meddle with the possessions of any character whose square they enter. Any time a haniver succeeds at a Sleight of Hand check against a creature, it also rearranges that creature’s possessions. The next time that creature attempts to produce a weapon or item, it finds its possessions misplaced or disarranged; retrieving a stored item or drawing a weapon then requires a standard action instead of a move action (unless the haniver has stolen the item in question). After spending this standard action, the character takes mental inventory and is no longer affected by this ability."
        },
        "tags": [],
        "damage": {
          "parts": [],
          "critParts": [],
          "nonCritParts": []
        },
        "attackParts": [],
        "effectNotes": [],
        "attackNotes": [],
        "changes": [],
        "contextNotes": [],
        "links": {
          "children": [],
          "charges": []
        },
        "armorProf": {
          "value": []
        },
        "weaponProf": {
          "value": []
        },
        "flags": {
          "boolean": [],
          "dictionary": []
        },
        "scriptCalls": [],
        "featType": "classFeat",
        "associations": {
          "classes": []
        },
        "abilityType": "su"
      },
      "effects": [],
      "folder": null,
      "sort": 0,
      "permission": {
        "default": 0
      },
      "flags": {}
    },
    {
      "_id": "6luqvcd85m87i9uh",
      "name": "Occasionally",
      "type": "feat",
      "img": "systems/pf1/icons/skills/yellow_36.jpg",
      "data": {
        "description": {
          "value": ", hanivers replace items they’ve stolen or leave their old treasures-seashells, old fish, clumps of sand-in containers or clothing they have rooted through. They do this without any added difficultly to their Sleight of Hand checks."
        },
        "tags": [],
        "damage": {
          "parts": [],
          "critParts": [],
          "nonCritParts": []
        },
        "attackParts": [],
        "effectNotes": [],
        "attackNotes": [],
        "changes": [],
        "contextNotes": [],
        "links": {
          "children": [],
          "charges": []
        },
        "armorProf": {
          "value": []
        },
        "weaponProf": {
          "value": []
        },
        "flags": {
          "boolean": [],
          "dictionary": []
        },
        "scriptCalls": [],
        "featType": "classFeat",
        "associations": {
          "classes": []
        },
        "abilityType": ""
      },
      "effects": [],
      "folder": null,
      "sort": 0,
      "permission": {
        "default": 0
      },
      "flags": {}
    },
    {
      "_id": "z2Ta1BGaDf93DBx0",
      "name": "sbc | Conversion Buff",
      "type": "buff",
      "img": "systems/pf1/icons/skills/yellow_36.jpg",
      "data": {
        "description": {
          "value": "<h2>sbc | Conversion Buff</h2>\n                        This Buff was created by <strong>sbc</strong> to compensate for differences between the input and the values FoundryVTT calculates automatically.\n                        <br><br>\n                        Especially when the pathfinder system gets upgraded, entries in compendiums get updated or foundry changes in some way, this buff may become outdated.\n                        <br><br>\n                        For most mooks the conversion should more or less work, but for important NPCs or creatures it is adviced to double check the conversion manually."
        },
        "tags": [],
        "changes": [
          {
            "formula": "2",
            "modifier": "untypedPerm",
            "operator": "add",
            "priority": 0,
            "subTarget": "cmb",
            "target": "misc",
            "value": 2,
            "id": "hxziuobn"
          },
          {
            "formula": "-6",
            "modifier": "untypedPerm",
            "operator": "add",
            "priority": 0,
            "subTarget": "mhp",
            "target": "misc",
            "value": -6,
            "id": "bjk8kj0v"
          },
          {
            "formula": "3",
            "modifier": "untypedPerm",
            "operator": "add",
            "priority": 0,
            "subTarget": "skill.fly",
            "target": "skill",
            "value": 3,
            "id": "xjwpg2cu"
          },
          {
            "formula": "-8",
            "modifier": "untypedPerm",
            "operator": "add",
            "priority": 0,
            "subTarget": "skill.swm",
            "target": "skill",
            "value": -8,
            "id": "t0jkbttv"
          }
        ],
        "contextNotes": [],
        "links": {
          "children": []
        },
        "tag": "sbcConversionBuff",
        "useCustomTag": true,
        "flags": {
          "boolean": [],
          "dictionary": []
        },
        "scriptCalls": [],
        "buffType": "perm",
        "active": true,
        "hideFromToken": true
      },
      "effects": [],
      "folder": null,
      "sort": 0,
      "permission": {
        "default": 0,
        "iM1ACTqH0Ml6HJtd": 3
      },
      "flags": {}
    }
  ],
  "effects": [],
  "folder": null,
  "sort": 0,
  "permission": {
    "default": 0
  },
  "flags": {}
}