{
  "_id": "K7WRvLzkmA5XDfFn",
  "name": "Incubus",
  "type": "npc",
  "img": "systems/pf1/icons/races/creature-types/outsider.png",
  "data": {
    "abilities": {
      "str": {
        "value": 20
      },
      "dex": {
        "value": 15
      },
      "con": {
        "value": 18
      },
      "int": {
        "value": 16
      },
      "wis": {
        "value": 15
      },
      "cha": {
        "value": 21
      }
    },
    "attributes": {
      "naturalAC": "+6",
      "sr": {
        "formula": "17"
      },
      "hp": {
        "value": 86
      },
      "speed": {
        "fly": {
          "base": 50
        }
      },
      "spells": {
        "usedSpellbooks": [
          "spelllike"
        ],
        "spellbooks": {
          "spelllike": {
            "altName": "Spell-like Abilities",
            "concentrationNotes": "sbc | Total in statblock was +13, adjust as needed.",
            "clNotes": "sbc | Total in statblock was CL 8, adjust as needed.",
            "autoSpellLevelCalculation": false,
            "autoSpellLevels": false,
            "arcaneSpellFailure": false,
            "domainSlotValue": 0
          }
        }
      }
    },
    "details": {
      "alignment": "ce",
      "cr": {
        "base": 6
      }
    },
    "skills": {
      "acr": {
        "rank": 4
      },
      "blf": {
        "rank": 8
      },
      "dip": {
        "rank": 11
      },
      "esc": {
        "rank": 4
      },
      "fly": {
        "rank": 11
      },
      "int": {
        "rank": 19
      },
      "kpl": {
        "rank": 8
      },
      "per": {
        "rank": 16
      },
      "sen": {
        "rank": 8
      },
      "spl": {
        "rank": 8
      },
      "ste": {
        "rank": 6
      }
    },
    "traits": {
      "senses": "darkvision 60 ft.; Perception +13",
      "dr": "10/cold iron or good",
      "eres": "Acid 10;Cold 10;Fire 10;",
      "languages": {
        "value": [
          "abyssal",
          "celestial",
          "common"
        ],
        "custom": "telepathy 100 ft.;tongues"
      },
      "di": {
        "value": [
          "electric"
        ]
      },
      "dv": {
        "value": []
      },
      "ci": {
        "value": [
          "poison"
        ]
      },
      "stature": ""
    }
  },
  "token": {
    "name": "Incubus",
    "displayName": 20,
    "actorLink": false,
    "width": 1,
    "height": 1,
    "scale": 1,
    "mirrorX": false,
    "mirrorY": false,
    "lockRotation": false,
    "rotation": 0,
    "alpha": 1,
    "vision": false,
    "dimSight": 0,
    "brightSight": "60",
    "dimLight": 0,
    "brightLight": 0,
    "sightAngle": 0,
    "lightAngle": 0,
    "lightAlpha": 0.25,
    "lightAnimation": {
      "speed": 5,
      "intensity": 5
    },
    "disposition": -1,
    "displayBars": 20,
    "bar1": {
      "attribute": null
    },
    "bar2": {
      "attribute": null
    },
    "flags": {
      "pf1": {
        "lowLightVision": false
      }
    },
    "randomImg": false,
    "img": "systems/pf1/icons/races/creature-types/outsider.png"
  },
  "items": [
    {
      "_id": "cV7yHt8i5YCV0ZTd",
      "name": "Outsider (Chaotic, Demon, Evil, Extraplanar)",
      "type": "class",
      "img": "systems/pf1/icons/skills/yellow_40.jpg",
      "data": {
        "description": {
          "value": "<p>An outsider is at least partially composed of the essence (but not necessarily the material) of some plane other than the Material Plane. Some creatures start out as some other type and become outsiders when they attain a higher (or lower) state of spiritual existence.</p>\n<h2><span id=\"Features\">Features</span></h2>\n<p>An outsider has the following features.</p>\n<ul>\n<li>d10 Hit Dice.</li>\n<li>Base attack bonus equal to total Hit Dice (fast progression).</li>\n<li>Two good saving throws, usually&nbsp;<a href=\"https://www.d20pfsrd.com/gamemastering/combat#TOC-Reflex\" rel=\"nofollow\">Reflex</a>&nbsp;and Will.</li>\n<li>Skill points equal to 6 + Int modifier (minimum 1) per Hit Die. The following are class skills for outsiders: <a href=\"https://www.d20pfsrd.com/skills/bluff\" rel=\"nofollow\">Bluff</a>, <a href=\"https://www.d20pfsrd.com/skills/craft\" rel=\"nofollow\">Craft</a>, <a href=\"https://www.d20pfsrd.com/skills/knowledge\" rel=\"nofollow\">Knowledge</a>&nbsp;(planes), <a href=\"https://www.d20pfsrd.com/skills/perception\" rel=\"nofollow\">Perception</a>, <a href=\"https://www.d20pfsrd.com/skills/sense-motive\" rel=\"nofollow\">Sense Motive</a>, and <a href=\"https://www.d20pfsrd.com/skills/stealth\" rel=\"nofollow\">Stealth</a>. Due to their varied nature, outsiders also receive 4 additional class skills determined by the creature’s theme.</li>\n</ul>\n<h2><span id=\"Traits\">Traits</span></h2>\n<p>An outsider possesses the following traits (unless otherwise noted in a creature’s entry).</p>\n<ul>\n<li>Darkvision 60 feet.</li>\n<li>Unlike most living creatures, an outsider does not have a dual nature—its soul and body form one unit. When an outsider is slain, no soul is set loose. Spells that restore souls to their bodies, such as&nbsp;<a href=\"https://www.d20pfsrd.com/magic/all-spells/r/raise-dead\" rel=\"nofollow\">raise dead</a>,&nbsp;<a href=\"https://www.d20pfsrd.com/magic/all-spells/r/reincarnate\" rel=\"nofollow\">reincarnate</a>,&nbsp;and&nbsp;<a href=\"https://www.d20pfsrd.com/magic/all-spells/r/resurrection\" rel=\"nofollow\">resurrection</a>,&nbsp;don’t work on an outsider. It takes a different magical effect, such as&nbsp;<a href=\"https://www.d20pfsrd.com/magic/all-spells/l/limited-wish\" rel=\"nofollow\">limited wish</a>,&nbsp;<a href=\"https://www.d20pfsrd.com/magic/all-spells/w/wish\" rel=\"nofollow\">wish</a>,&nbsp;<a href=\"https://www.d20pfsrd.com/magic/all-spells/m/miracle\" rel=\"nofollow\">miracle</a>,&nbsp;or&nbsp;<a href=\"https://www.d20pfsrd.com/magic/all-spells/t/true-resurrection\" rel=\"nofollow\">true resurrection</a>&nbsp;to restore it to life. An outsider with the native subtype can be raised, reincarnated, or resurrected just as other living creatures can be.</li>\n<li>Proficient with all simple and martial weapons and any weapons mentioned in its entry.</li>\n<li>Proficient with whatever type of armor (light, medium, or heavy) it is described as wearing, as well as all lighter types. Outsiders not indicated as wearing armor are not proficient with armor. Outsiders are proficient with shields if they are proficient with any form of armor.</li>\n<li>Outsiders breathe, but do not need to eat or sleep (although they can do so if they wish). Native outsiders breathe, eat, and sleep.</li>\n</ul>"
        },
        "tags": [],
        "changes": [],
        "links": "",
        "tag": "outsider",
        "useCustomTag": true,
        "armorProf": {
          "value": []
        },
        "weaponProf": {
          "value": []
        },
        "flags": {
          "boolean": [],
          "dictionary": []
        },
        "scriptCalls": [],
        "classType": "racial",
        "level": 8,
        "hd": 10,
        "hp": 54,
        "bab": "high",
        "skillsPerLevel": 6,
        "savingThrows": {
          "ref": {
            "value": "high"
          },
          "will": {
            "value": "high"
          }
        },
        "classSkills": {
          "acr": false,
          "apr": false,
          "art": false,
          "blf": true,
          "clm": false,
          "crf": true,
          "dip": false,
          "dev": false,
          "dis": false,
          "esc": false,
          "fly": false,
          "han": false,
          "hea": false,
          "int": false,
          "kar": false,
          "kdu": false,
          "ken": false,
          "kge": false,
          "khi": false,
          "klo": false,
          "kna": false,
          "kno": false,
          "kpl": true,
          "kre": false,
          "lin": false,
          "lor": false,
          "per": true,
          "prf": false,
          "pro": false,
          "rid": false,
          "sen": true,
          "slt": false,
          "spl": false,
          "ste": true,
          "sur": false,
          "swm": false,
          "umd": false
        }
      },
      "effects": [],
      "folder": null,
      "sort": 0,
      "permission": {
        "default": 0
      },
      "flags": {}
    },
    {
      "_id": "6grvlne05ct6lodm",
      "name": "Race: Outsider",
      "type": "race",
      "img": "systems/pf1/icons/skills/yellow_40.jpg",
      "data": {
        "description": {
          "value": "sbc | As no playable race was found a placeholder was generated."
        },
        "tags": [],
        "changes": [],
        "contextNotes": [],
        "links": {
          "children": []
        },
        "armorProf": {
          "value": []
        },
        "weaponProf": {
          "value": []
        },
        "flags": {
          "boolean": [],
          "dictionary": []
        },
        "scriptCalls": [],
        "creatureType": "outsider",
        "subTypes": [
          [
            "chaotic"
          ],
          [
            "demon"
          ],
          [
            "evil"
          ],
          [
            "extraplanar"
          ]
        ]
      },
      "effects": [],
      "folder": null,
      "sort": 0,
      "permission": {
        "default": 0
      },
      "flags": {}
    },
    {
      "_id": "y9qd71hylglr9f8u",
      "name": "Sense: Darkvision 60ft.",
      "type": "feat",
      "img": "systems/pf1/icons/skills/shadow_12.jpg",
      "data": {
        "description": {
          "value": "Darkvision is the extraordinary ability to see with no light source at all, out to a range specified for the creature. Darkvision is black-and-white only (colors cannot be discerned). It does not allow characters to see anything that they could not see otherwise—invisible objects are still invisible, and illusions are still visible as what they seem to be. Likewise, darkvision subjects a creature to gaze attacks normally. The presence of light does not spoil darkvision."
        },
        "tags": [],
        "damage": {
          "parts": [],
          "critParts": [],
          "nonCritParts": []
        },
        "attackParts": [],
        "effectNotes": [],
        "attackNotes": [],
        "changes": [],
        "contextNotes": [],
        "links": {
          "children": [],
          "charges": []
        },
        "tag": "senseDarkvision60ft",
        "armorProf": {
          "value": []
        },
        "weaponProf": {
          "value": []
        },
        "flags": {
          "boolean": [],
          "dictionary": []
        },
        "scriptCalls": [],
        "featType": "racial",
        "associations": {
          "classes": []
        },
        "abilityType": "ex"
      },
      "effects": [],
      "folder": null,
      "sort": 0,
      "permission": {
        "default": 0
      },
      "flags": {}
    },
    {
      "_id": "87j0nasxzry5jqcn",
      "name": "Flyby Attack",
      "type": "feat",
      "img": "systems/pf1/icons/skills/yellow_36.jpg",
      "data": {
        "description": {
          "value": "sbc | As Flyby Attack could not be found in any compendium, a placeholder was generated."
        },
        "tags": [],
        "damage": {
          "parts": [],
          "critParts": [],
          "nonCritParts": []
        },
        "attackParts": [],
        "effectNotes": [],
        "attackNotes": [],
        "changes": [],
        "contextNotes": [],
        "links": {
          "children": [],
          "charges": []
        },
        "armorProf": {
          "value": []
        },
        "weaponProf": {
          "value": []
        },
        "flags": {
          "boolean": [],
          "dictionary": []
        },
        "scriptCalls": [],
        "associations": {
          "classes": []
        }
      },
      "effects": [],
      "folder": null,
      "sort": 0,
      "permission": {
        "default": 0
      },
      "flags": {}
    },
    {
      "_id": "0bZf3SDkvVOe2ujH",
      "name": "Lightning Reflexes",
      "type": "feat",
      "img": "systems/pf1/icons/feats/lighting-reflexes.jpg",
      "data": {
        "description": {
          "value": "\n                <i>You have faster reflexes than normal.</i>\n                <br />\n                <br />\n                \n                <p><b>Benefits</b></p>\n                <p><p class=\"stat-block-1\"> You get a +2 bonus on all Reflex saving throws.</p></p>\n                \n            \n            "
        },
        "tags": [
          [
            "General"
          ],
          [
            "Saving Throw"
          ]
        ],
        "measureTemplate": {
          "size": "0"
        },
        "actionType": "",
        "damage": {
          "parts": [],
          "critParts": [],
          "nonCritParts": []
        },
        "attackParts": [],
        "effectNotes": [],
        "attackNotes": [],
        "changes": [
          {
            "_id": "ni86uxwa",
            "formula": "2",
            "operator": "add",
            "subTarget": "ref",
            "modifier": "untyped",
            "priority": 0,
            "value": 0,
            "target": "savingThrows"
          }
        ],
        "contextNotes": [],
        "links": {
          "children": [],
          "charges": []
        },
        "tag": "lightningReflexes",
        "armorProf": {
          "value": []
        },
        "weaponProf": {
          "value": []
        },
        "flags": {
          "boolean": [],
          "dictionary": []
        },
        "scriptCalls": [],
        "associations": {
          "classes": []
        }
      },
      "effects": [],
      "folder": null,
      "sort": 0,
      "permission": {
        "default": 0
      },
      "flags": {}
    },
    {
      "_id": "FUW5mIXHNBBIQ1Sq",
      "name": "Power Attack",
      "type": "feat",
      "img": "systems/pf1/icons/feats/power-attack.jpg",
      "data": {
        "description": {
          "value": "\n                <i>You can make exceptionally deadly melee attacks by sacrificing accuracy for strength.</i>\n                <br />\n                <br />\n                \n                <p><b>Prerequisites</b></p>\n                <p> Str 13, base attack bonus +1.</p>\n                \n            <br />\n                <p><b>Benefits</b></p>\n                <p><p class=\"stat-block-1\"> You can choose to take a &ndash;1 penalty on all melee attack rolls and combat maneuver checks to gain a +2 bonus on all melee damage rolls. This bonus to damage is increased by half (+50%) if you are making an attack with a two-handed weapon, a one handed weapon using two hands, or a primary natural weapon that adds 1-1/2 times your Strength modifier on damage rolls. This bonus to damage is halved (&ndash;50%) if you are making an attack with an off-hand weapon or secondary natural weapon. When your base attack bonus reaches +4, and every 4 points thereafter, the penalty increases by &ndash;1 and the bonus to damage increases by +2. You must choose to use this feat before making an attack roll, and its effects last until your next turn. The bonus damage does not apply to touch attacks or effects that do not deal hit point damage.</p></p>\n                \n            \n            "
        },
        "tags": [
          [
            "Combat"
          ],
          [
            "Offensive"
          ]
        ],
        "measureTemplate": {
          "size": "0"
        },
        "actionType": "",
        "damage": {
          "parts": [],
          "critParts": [],
          "nonCritParts": []
        },
        "attackParts": [],
        "effectNotes": [],
        "attackNotes": [],
        "changes": [],
        "contextNotes": [],
        "links": {
          "children": [],
          "charges": []
        },
        "tag": "powerAttack",
        "armorProf": {
          "value": []
        },
        "weaponProf": {
          "value": []
        },
        "flags": {
          "boolean": [],
          "dictionary": []
        },
        "scriptCalls": [],
        "associations": {
          "classes": []
        }
      },
      "effects": [],
      "folder": null,
      "sort": 0,
      "permission": {
        "default": 0
      },
      "flags": {}
    },
    {
      "_id": "26k1Gi7t5BoqxhIj",
      "name": "Vital Strike",
      "type": "feat",
      "img": "systems/pf1/icons/feats/vital-strike.jpg",
      "data": {
        "description": {
          "value": "\n                <i>You make a single attack that deals significantly more damage than normal.</i>\n                <br />\n                <br />\n                \n                <p><b>Prerequisites</b></p>\n                <p> Base attack bonus +6.</p>\n                \n            <br />\n                <p><b>Benefits</b></p>\n                <p><p class=\"stat-block-1\"> When you use the attack action, you can make one attack at your highest base attack bonus that deals additional damage. Roll the weapon's damage dice for the attack twice and add the results together before adding bonuses from Strength, weapon abilities (such as <i>flaming</i>), precision based damage, and other damage bonuses. These extra weapon damage dice are not multiplied on a critical hit, but are added to the total.</p></p>\n                \n            \n            "
        },
        "tags": [
          [
            "Combat"
          ],
          [
            "Offensive"
          ]
        ],
        "measureTemplate": {
          "size": "0"
        },
        "actionType": "",
        "damage": {
          "parts": [],
          "critParts": [],
          "nonCritParts": []
        },
        "attackParts": [],
        "effectNotes": [],
        "attackNotes": [],
        "changes": [],
        "contextNotes": [],
        "links": {
          "children": [],
          "charges": []
        },
        "tag": "vitalStrike",
        "armorProf": {
          "value": []
        },
        "weaponProf": {
          "value": []
        },
        "flags": {
          "boolean": [],
          "dictionary": []
        },
        "scriptCalls": [],
        "associations": {
          "classes": []
        }
      },
      "effects": [],
      "folder": null,
      "sort": 0,
      "permission": {
        "default": 0
      },
      "flags": {}
    },
    {
      "_id": "2y8e6b8l4ltffrl1",
      "name": "Special Quality: Change Shape (small Or Medium Humanoid,alter Self)",
      "type": "feat",
      "img": "systems/pf1/icons/skills/yellow_36.jpg",
      "data": {
        "description": {
          "value": "sbc | Placeholder for Special Qualities, which in most statblocks are listed under SQ in the statistics block, but described in the Special Abilities. Remove duplicates as needed!"
        },
        "tags": [],
        "damage": {
          "parts": [],
          "critParts": [],
          "nonCritParts": []
        },
        "attackParts": [],
        "effectNotes": [],
        "attackNotes": [],
        "changes": [],
        "contextNotes": [],
        "links": {
          "children": [],
          "charges": []
        },
        "armorProf": {
          "value": []
        },
        "weaponProf": {
          "value": []
        },
        "flags": {
          "boolean": [],
          "dictionary": []
        },
        "scriptCalls": [],
        "featType": "misc",
        "associations": {
          "classes": []
        }
      },
      "effects": [],
      "folder": null,
      "sort": 0,
      "permission": {
        "default": 0
      },
      "flags": {}
    },
    {
      "_id": "rxuq8fsaz4v032p9",
      "name": "Mwk Scimitar",
      "type": "attack",
      "img": null,
      "data": {
        "tags": [],
        "activation": {
          "type": "attack"
        },
        "unchainedAction": {
          "activation": {
            "type": "attack"
          }
        },
        "duration": {
          "units": "inst"
        },
        "range": {
          "value": "",
          "units": "melee"
        },
        "attackName": "Scimitar",
        "actionType": "mwak",
        "attackBonus": "0",
        "damage": {
          "parts": [
            [
              "1d6+2",
              "S"
            ]
          ],
          "critParts": [],
          "nonCritParts": []
        },
        "attackParts": [
          [
            -5,
            "Iterative Attack with -5"
          ]
        ],
        "ability": {
          "attack": "str",
          "damage": "str",
          "critRange": "18"
        },
        "effectNotes": [],
        "attackNotes": [
          "mwk scimitar +14/+5 (1d6+7/18-20 )"
        ],
        "links": {
          "children": [],
          "charges": [],
          "ammunition": []
        },
        "flags": {
          "boolean": [],
          "dictionary": []
        },
        "scriptCalls": [],
        "masterwork": true,
        "primaryAttack": false,
        "conditionals": []
      },
      "effects": [],
      "folder": null,
      "sort": 0,
      "permission": {
        "default": 0
      },
      "flags": {}
    },
    {
      "_id": "id0e4wwz85s33t4a",
      "name": "Special Attack: Pain Redoubled",
      "type": "attack",
      "img": "systems/pf1/icons/skills/yellow_36.jpg",
      "data": {
        "description": {
          "value": "sbc | Placeholder for Special Attacks, which in most statblocks are listed under 'Special Attacks' in the statistics block, but are described in the 'Special Abilities' block. Remove duplicates as needed!"
        },
        "tags": [],
        "damage": {
          "parts": [],
          "critParts": [],
          "nonCritParts": []
        },
        "attackParts": [],
        "effectNotes": [],
        "attackNotes": [],
        "links": {
          "children": [],
          "charges": [],
          "ammunition": []
        },
        "flags": {
          "boolean": [],
          "dictionary": []
        },
        "scriptCalls": [],
        "attackType": "misc",
        "conditionals": []
      },
      "effects": [],
      "folder": null,
      "sort": 0,
      "permission": {
        "default": 0
      },
      "flags": {}
    },
    {
      "_id": "m1rmcpcaixcpz9ib",
      "name": "Constant: Tongues",
      "type": "spell",
      "img": "systems/pf1/icons/misc/magic-swirl.png",
      "data": {
        "description": {
          "value": "<div class=\"spell-description\">\n  <p>\n    <strong>School</strong>&nbsp;divination;\n    <strong>Level</strong>&nbsp;adept 3, alchemist 3, bard 2, cleric/oracle 4, inquisitor 2, medium 2, mesmerist 2, psychic 3, shaman 4, sorcerer/wizard 3, spiritualist 3, summoner 3, unchained Summoner 3, witch 3;\n    \n    <strong>Subdomain</strong>&nbsp;Agathion 3, Language 3;\n    \n    \n  </p>\n  <p>\n    <strong>Casting Time</strong>&nbsp;1 standard action<br>\n    <strong>Components</strong>&nbsp;V, M/DF (a clay model of a ziggurat)<br>\n  </p>\n  <p>\n    <strong>Range</strong>&nbsp;touch<br>\n    \n    <strong>Targets</strong>&nbsp;creature touched<br>\n    \n    <strong>Duration</strong>&nbsp;10 min./level<br>\n    <strong>Saving Throw</strong>&nbsp;Will negates (harmless);&nbsp;<strong>Spell Resistance</strong>&nbsp;no<br>\n  </p>\n  <h2>Description</h2>\n  <p>This spell grants the creature touched the ability to speak and understand the language of any intelligent creature, whether it is a racial tongue or a regional dialect. The subject can speak only one language at a time, although it may be able to understand several languages. <i>Tongues</i> does not enable the subject to speak with creatures who don't speak. The subject can make itself understood as far as its voice carries. This spell does not predispose any creature addressed toward the subject in any way.</p><p><i>Tongues</i> can be made permanent with a <i>permanency</i> spell.</p>\n</div>\n"
        },
        "tags": [],
        "activation": {
          "type": "standard"
        },
        "unchainedAction": {
          "activation": {
            "cost": 2,
            "type": "action"
          }
        },
        "target": {
          "value": "creature touched"
        },
        "range": {
          "units": "touch"
        },
        "uses": {
          "per": ""
        },
        "measureTemplate": {
          "size": "0"
        },
        "actionType": "spellsave",
        "damage": {
          "parts": [],
          "critParts": [],
          "nonCritParts": []
        },
        "attackParts": [],
        "ability": {
          "attack": "",
          "damage": ""
        },
        "save": {
          "dc": "0",
          "type": "will",
          "description": "Will negates (harmless)"
        },
        "effectNotes": [],
        "attackNotes": [],
        "links": {
          "children": []
        },
        "flags": {
          "boolean": [],
          "dictionary": []
        },
        "scriptCalls": [],
        "learnedAt": {
          "class": [
            [
              "sorcerer/wizard",
              3
            ],
            [
              "cleric/oracle",
              4
            ],
            [
              "bard",
              2
            ],
            [
              "alchemist",
              3
            ],
            [
              "summoner",
              3
            ],
            [
              "witch",
              3
            ],
            [
              "inquisitor",
              2
            ],
            [
              "adept",
              3
            ],
            [
              "shaman",
              4
            ],
            [
              "psychic",
              3
            ],
            [
              "medium",
              2
            ],
            [
              "mesmerist",
              2
            ],
            [
              "spiritualist",
              3
            ],
            [
              "unchained Summoner",
              3
            ]
          ],
          "domain": [],
          "subDomain": [
            [
              "Agathion",
              3
            ],
            [
              "Language",
              3
            ]
          ],
          "elementalSchool": [],
          "bloodline": []
        },
        "level": 3,
        "school": "div",
        "conditionals": [],
        "components": {
          "verbal": true,
          "material": true,
          "divineFocus": 2
        },
        "materials": {
          "value": "a clay model of a ziggurat"
        },
        "spellbook": "spelllike",
        "atWill": true,
        "sr": false,
        "shortDescription": "<p>This spell grants the creature touched the ability to speak and understand the language of any intelligent creature, whether it is a racial tongue or a regional dialect. The subject can speak only one language at a time, although it may be able to understand several languages. <i>Tongues</i> does not enable the subject to speak with creatures who don't speak. The subject can make itself understood as far as its voice carries. This spell does not predispose any creature addressed toward the subject in any way.</p><p><i>Tongues</i> can be made permanent with a <i>permanency</i> spell.</p>",
        "spellDuration": "10 min./level"
      },
      "effects": [],
      "folder": null,
      "sort": 0,
      "permission": {
        "default": 0
      },
      "flags": {}
    },
    {
      "_id": "tjog6bufg5b08lvq",
      "name": "Charm Person",
      "type": "spell",
      "img": "systems/pf1/icons/misc/magic-swirl.png",
      "data": {
        "description": {
          "value": "<div class=\"spell-description\">\n  <p>\n    <strong>School</strong>&nbsp;enchantment&nbsp;(charm)&nbsp;[mind-affecting];\n    <strong>Level</strong>&nbsp;bard 1, mesmerist 1, occultist 1, psychic 1, shaman 1, sorcerer/wizard 1, witch 1;\n    <strong>Domain</strong>&nbsp;Charm 1;\n    <strong>Subdomain</strong>&nbsp;Slavery 1;\n    \n    <strong>Bloodline</strong>&nbsp;Rakshasa 1;\n  </p>\n  <p>\n    <strong>Casting Time</strong>&nbsp;1 standard action<br>\n    <strong>Components</strong>&nbsp;V, S<br>\n  </p>\n  <p>\n    <strong>Range</strong>&nbsp;close (25 ft. + 5 ft./2 levels)<br>\n    \n    <strong>Targets</strong>&nbsp;one humanoid creature<br>\n    \n    <strong>Duration</strong>&nbsp;1 hour/level<br>\n    <strong>Saving Throw</strong>&nbsp;Will negates;&nbsp;<strong>Spell Resistance</strong>&nbsp;yes<br>\n  </p>\n  <h2>Description</h2>\n  <p>This charm makes a humanoid creature regard you as its trusted friend and ally (treat the target's attitude as friendly). If the creature is currently being threatened or attacked by you or your allies, however, it receives a +5 bonus on its saving throw.</p><p>The spell does not enable you to control the charmed person as if it were an automaton, but it perceives your words and actions in the most favorable way. You can try to give the subject orders, but you must win an opposed Charisma check to convince it to do anything it wouldn't ordinarily do. (Retries are not allowed.) An affected creature never obeys suicidal or obviously harmful orders, but it might be convinced that something very dangerous is worth doing. Any act by you or your apparent allies that threatens the charmed person breaks the spell. You must speak the person's language to communicate your commands, or else be good at pantomiming.</p>\n</div>\n"
        },
        "tags": [],
        "activation": {
          "type": "standard"
        },
        "unchainedAction": {
          "activation": {
            "cost": 2,
            "type": "action"
          }
        },
        "target": {
          "value": "one humanoid creature"
        },
        "range": {
          "units": "close"
        },
        "uses": {
          "value": 3,
          "per": ""
        },
        "measureTemplate": {
          "size": "0"
        },
        "actionType": "spellsave",
        "damage": {
          "parts": [],
          "critParts": [],
          "nonCritParts": []
        },
        "attackParts": [],
        "ability": {
          "attack": "",
          "damage": ""
        },
        "save": {
          "dc": "0",
          "type": "will",
          "description": "Will negates"
        },
        "effectNotes": [],
        "attackNotes": [],
        "links": {
          "children": []
        },
        "flags": {
          "boolean": [],
          "dictionary": []
        },
        "scriptCalls": [],
        "learnedAt": {
          "class": [
            [
              "sorcerer/wizard",
              1
            ],
            [
              "bard",
              1
            ],
            [
              "witch",
              1
            ],
            [
              "shaman",
              1
            ],
            [
              "psychic",
              1
            ],
            [
              "mesmerist",
              1
            ],
            [
              "occultist",
              1
            ]
          ],
          "domain": [
            [
              "Charm",
              1
            ]
          ],
          "subDomain": [
            [
              "Slavery",
              1
            ]
          ],
          "elementalSchool": [],
          "bloodline": [
            [
              "Rakshasa",
              1
            ]
          ]
        },
        "school": "enc",
        "subschool": "charm",
        "types": "mind-affecting",
        "conditionals": [],
        "components": {
          "verbal": true,
          "somatic": true
        },
        "spellbook": "spelllike",
        "preparation": {
          "preparedAmount": 3,
          "maxAmount": 3
        },
        "atWill": true,
        "shortDescription": "<p>This charm makes a humanoid creature regard you as its trusted friend and ally (treat the target's attitude as friendly). If the creature is currently being threatened or attacked by you or your allies, however, it receives a +5 bonus on its saving throw.</p><p>The spell does not enable you to control the charmed person as if it were an automaton, but it perceives your words and actions in the most favorable way. You can try to give the subject orders, but you must win an opposed Charisma check to convince it to do anything it wouldn't ordinarily do. (Retries are not allowed.) An affected creature never obeys suicidal or obviously harmful orders, but it might be convinced that something very dangerous is worth doing. Any act by you or your apparent allies that threatens the charmed person breaks the spell. You must speak the person's language to communicate your commands, or else be good at pantomiming.</p>",
        "spellDuration": "1 hour/level"
      },
      "effects": [],
      "folder": null,
      "sort": 0,
      "permission": {
        "default": 0
      },
      "flags": {}
    },
    {
      "_id": "xllxylvvqr82o2d5",
      "name": "Detect Thoughts",
      "type": "spell",
      "img": "systems/pf1/icons/misc/magic-swirl.png",
      "data": {
        "description": {
          "value": "<div class=\"spell-description\">\n  <p>\n    <strong>School</strong>&nbsp;divination&nbsp;[mind-affecting];\n    <strong>Level</strong>&nbsp;alchemist 2, bard 2, inquisitor 2, medium 2, mesmerist 2, psychic 1, sorcerer/wizard 2, spiritualist 2, summoner 2, unchained Summoner 2, witch 2;\n    <strong>Domain</strong>&nbsp;Knowledge 2;\n    \n    \n    \n  </p>\n  <p>\n    <strong>Casting Time</strong>&nbsp;1 standard action<br>\n    <strong>Components</strong>&nbsp;V, S, F/DF (a copper piece)<br>\n  </p>\n  <p>\n    <strong>Range</strong>&nbsp;60 feet<br>\n    <strong>Area</strong>&nbsp;cone-shaped emanation<br>\n    \n    \n    <strong>Duration</strong>&nbsp;concentration, up to 1 min./level<br>\n    <strong>Saving Throw</strong>&nbsp;Will negates; see text;&nbsp;<strong>Spell Resistance</strong>&nbsp;no<br>\n  </p>\n  <h2>Description</h2>\n  <p>You detect surface thoughts. The amount of information revealed depends on how long you study a particular area or subject.</p><p><i>1st Round</i>: Presence or absence of thoughts (from conscious creatures with Intelligence scores of 1 or higher).</p><p><i>2nd Round</i>: Number of thinking minds and the Intelligence score of each. If the highest Intelligence is 26 or higher (and at least 10 points higher than your own Intelligence score), you are stunned for 1 round and the spell ends. This spell does not let you determine the location of the thinking minds if you can't see the creatures whose thoughts you are detecting.</p><p><i>3rd Round</i>: Surface thoughts of any mind in the area. A target's Will save prevents you from reading its thoughts, and you must cast <i>detect thoughts</i> again to have another chance. Creatures of animal intelligence (Int 1 or 2) have simple, instinctual thoughts.</p><p>Each round, you can turn to detect thoughts in a new area. The spell can penetrate barriers, but 1 foot of stone, 1 inch of common metal, a thin sheet of lead, or 3 feet of wood or dirt blocks it.</p>\n</div>\n"
        },
        "tags": [],
        "activation": {
          "type": "standard"
        },
        "unchainedAction": {
          "activation": {
            "cost": 2,
            "type": "action"
          }
        },
        "range": {
          "value": 60,
          "units": "ft"
        },
        "uses": {
          "per": ""
        },
        "measureTemplate": {
          "size": "0"
        },
        "actionType": "spellsave",
        "damage": {
          "parts": [],
          "critParts": [],
          "nonCritParts": []
        },
        "attackParts": [],
        "ability": {
          "attack": "",
          "damage": ""
        },
        "save": {
          "dc": "0",
          "type": "will",
          "description": "Will negates; see text"
        },
        "effectNotes": [],
        "attackNotes": [],
        "links": {
          "children": []
        },
        "flags": {
          "boolean": [],
          "dictionary": []
        },
        "scriptCalls": [],
        "learnedAt": {
          "class": [
            [
              "sorcerer/wizard",
              2
            ],
            [
              "bard",
              2
            ],
            [
              "alchemist",
              2
            ],
            [
              "summoner",
              2
            ],
            [
              "witch",
              2
            ],
            [
              "inquisitor",
              2
            ],
            [
              "psychic",
              1
            ],
            [
              "medium",
              2
            ],
            [
              "mesmerist",
              2
            ],
            [
              "spiritualist",
              2
            ],
            [
              "unchained Summoner",
              2
            ]
          ],
          "domain": [
            [
              "Knowledge",
              2
            ]
          ],
          "subDomain": [],
          "elementalSchool": [],
          "bloodline": []
        },
        "level": 2,
        "school": "div",
        "types": "mind-affecting",
        "conditionals": [],
        "components": {
          "verbal": true,
          "somatic": true,
          "focus": true,
          "divineFocus": 3
        },
        "materials": {
          "focus": "a copper piece"
        },
        "spellbook": "spelllike",
        "atWill": true,
        "sr": false,
        "shortDescription": "<p>You detect surface thoughts. The amount of information revealed depends on how long you study a particular area or subject.</p><p><i>1st Round</i>: Presence or absence of thoughts (from conscious creatures with Intelligence scores of 1 or higher).</p><p><i>2nd Round</i>: Number of thinking minds and the Intelligence score of each. If the highest Intelligence is 26 or higher (and at least 10 points higher than your own Intelligence score), you are stunned for 1 round and the spell ends. This spell does not let you determine the location of the thinking minds if you can't see the creatures whose thoughts you are detecting.</p><p><i>3rd Round</i>: Surface thoughts of any mind in the area. A target's Will save prevents you from reading its thoughts, and you must cast <i>detect thoughts</i> again to have another chance. Creatures of animal intelligence (Int 1 or 2) have simple, instinctual thoughts.</p><p>Each round, you can turn to detect thoughts in a new area. The spell can penetrate barriers, but 1 foot of stone, 1 inch of common metal, a thin sheet of lead, or 3 feet of wood or dirt blocks it.</p>",
        "spellDuration": "concentration, up to 1 min./level",
        "spellArea": "cone-shaped emanation"
      },
      "effects": [],
      "folder": null,
      "sort": 0,
      "permission": {
        "default": 0
      },
      "flags": {}
    },
    {
      "_id": "ytftv63qgv91gg97",
      "name": "Greater Teleport",
      "type": "spell",
      "img": "systems/pf1/icons/skills/yellow_36.jpg",
      "data": {
        "description": {
          "value": "sbc | As greater teleport could not be found in any compendium, a placeholder was generated."
        },
        "tags": [],
        "damage": {
          "parts": [],
          "critParts": [],
          "nonCritParts": []
        },
        "attackParts": [],
        "effectNotes": [],
        "attackNotes": [],
        "links": {
          "children": []
        },
        "flags": {
          "boolean": [],
          "dictionary": []
        },
        "scriptCalls": [],
        "learnedAt": {
          "class": [],
          "domain": [],
          "subDomain": [],
          "elementalSchool": [],
          "bloodline": []
        },
        "conditionals": [],
        "spellbook": "spelllike",
        "atWill": true
      },
      "effects": [],
      "folder": null,
      "sort": 0,
      "permission": {
        "default": 0
      },
      "flags": {}
    },
    {
      "_id": "zqj5qzyl46af27v0",
      "name": "Suggestion",
      "type": "spell",
      "img": "systems/pf1/icons/misc/magic-swirl.png",
      "data": {
        "description": {
          "value": "<div class=\"spell-description\">\n  <p>\n    <strong>School</strong>&nbsp;enchantment&nbsp;(compulsion)&nbsp;[language-dependent, mind-affecting];\n    <strong>Level</strong>&nbsp;bard 2, medium 2, mesmerist 2, occultist 3, psychic 2, sorcerer/wizard 3, witch 3;\n    <strong>Domain</strong>&nbsp;Charm 3;\n    <strong>Subdomain</strong>&nbsp;Corruption 2, Devil 3, Innuendo 3;\n    \n    <strong>Bloodline</strong>&nbsp;Infernal 3, Maestro 3, Rakshasa 3;\n  </p>\n  <p>\n    <strong>Casting Time</strong>&nbsp;1 standard action<br>\n    <strong>Components</strong>&nbsp;V, M (a snake&#x27;s tongue and a honeycomb)<br>\n  </p>\n  <p>\n    <strong>Range</strong>&nbsp;close (25 ft. + 5 ft./2 levels)<br>\n    \n    <strong>Targets</strong>&nbsp;one living creature<br>\n    \n    <strong>Duration</strong>&nbsp;1 hour/level or until completed<br>\n    <strong>Saving Throw</strong>&nbsp;Will negates;&nbsp;<strong>Spell Resistance</strong>&nbsp;yes<br>\n  </p>\n  <h2>Description</h2>\n  <p>You influence the actions of the target creature by suggesting a course of activity (limited to a sentence or two). The <i>suggestion</i> must be worded in such a manner as to make the activity sound reasonable. Asking the creature to do some obviously harmful act automatically negates the effect of the spell.</p><p>The suggested course of activity can continue for the entire duration. If the suggested activity can be completed in a shorter time, the spell ends when the subject finishes what it was asked to do. You can instead specify conditions that will trigger a special activity during the duration. If the condition is not met before the spell duration expires, the activity is not performed.</p><p>A very reasonable <i>suggestion</i> causes the save to be made with a penalty (such as -1 or -2).</p>\n</div>\n"
        },
        "tags": [],
        "activation": {
          "type": "standard"
        },
        "unchainedAction": {
          "activation": {
            "cost": 2,
            "type": "action"
          }
        },
        "target": {
          "value": "one living creature"
        },
        "range": {
          "units": "close"
        },
        "uses": {
          "value": 1,
          "per": "day"
        },
        "measureTemplate": {
          "size": "0"
        },
        "actionType": "spellsave",
        "damage": {
          "parts": [],
          "critParts": [],
          "nonCritParts": []
        },
        "attackParts": [],
        "ability": {
          "attack": "",
          "damage": ""
        },
        "save": {
          "dc": "0",
          "type": "will",
          "description": "Will negates"
        },
        "effectNotes": [],
        "attackNotes": [],
        "links": {
          "children": []
        },
        "flags": {
          "boolean": [],
          "dictionary": []
        },
        "scriptCalls": [],
        "learnedAt": {
          "class": [
            [
              "sorcerer/wizard",
              3
            ],
            [
              "bard",
              2
            ],
            [
              "witch",
              3
            ],
            [
              "psychic",
              2
            ],
            [
              "medium",
              2
            ],
            [
              "mesmerist",
              2
            ],
            [
              "occultist",
              3
            ]
          ],
          "domain": [
            [
              "Charm",
              3
            ]
          ],
          "subDomain": [
            [
              "Devil",
              3
            ],
            [
              "Corruption",
              2
            ],
            [
              "Innuendo",
              3
            ]
          ],
          "elementalSchool": [],
          "bloodline": [
            [
              "Infernal",
              3
            ],
            [
              "Maestro",
              3
            ],
            [
              "Rakshasa",
              3
            ]
          ]
        },
        "level": 3,
        "school": "enc",
        "subschool": "compulsion",
        "types": "language-dependent, mind-affecting",
        "conditionals": [],
        "components": {
          "verbal": true,
          "material": true
        },
        "materials": {
          "value": "a snake's tongue and a honeycomb"
        },
        "spellbook": "spelllike",
        "preparation": {
          "preparedAmount": 1,
          "maxAmount": 1
        },
        "atWill": true,
        "shortDescription": "<p>You influence the actions of the target creature by suggesting a course of activity (limited to a sentence or two). The <i>suggestion</i> must be worded in such a manner as to make the activity sound reasonable. Asking the creature to do some obviously harmful act automatically negates the effect of the spell.</p><p>The suggested course of activity can continue for the entire duration. If the suggested activity can be completed in a shorter time, the spell ends when the subject finishes what it was asked to do. You can instead specify conditions that will trigger a special activity during the duration. If the condition is not met before the spell duration expires, the activity is not performed.</p><p>A very reasonable <i>suggestion</i> causes the save to be made with a penalty (such as -1 or -2).</p>",
        "spellDuration": "1 hour/level or until completed"
      },
      "effects": [],
      "folder": null,
      "sort": 0,
      "permission": {
        "default": 0
      },
      "flags": {}
    },
    {
      "_id": "zt7cje76dck9hwp9",
      "name": "Crushing Despair",
      "type": "spell",
      "img": "systems/pf1/icons/misc/magic-swirl.png",
      "data": {
        "description": {
          "value": "<div class=\"spell-description\">\n  <p>\n    <strong>School</strong>&nbsp;enchantment&nbsp;(compulsion)&nbsp;[mind-affecting, emotion];\n    <strong>Level</strong>&nbsp;bard 3, bloodrager 4, mesmerist 3, psychic 4, sorcerer/wizard 4, spiritualist 4, witch 4;\n    \n    <strong>Subdomain</strong>&nbsp;Isolation 4;\n    \n    \n  </p>\n  <p>\n    <strong>Casting Time</strong>&nbsp;1 standard action<br>\n    <strong>Components</strong>&nbsp;V, S<br>\n  </p>\n  <p>\n    <strong>Range</strong>&nbsp;30 feet<br>\n    <strong>Area</strong>&nbsp;cone-shaped burst<br>\n    \n    \n    <strong>Duration</strong>&nbsp;1 min./level<br>\n    <strong>Saving Throw</strong>&nbsp;Will negates;&nbsp;<strong>Spell Resistance</strong>&nbsp;yes<br>\n  </p>\n  <h2>Description</h2>\n  <p>An invisible cone of despair causes great sadness in the subjects. Each affected creature takes a -2 penalty on attack rolls, saving throws, ability checks, skill checks, and weapon damage rolls.</p><p> <i>Crushing despair </i> counters and dispels  <i>good hope </i>.</p>\n</div>\n"
        },
        "tags": [],
        "activation": {
          "type": "standard"
        },
        "unchainedAction": {
          "activation": {
            "cost": 2,
            "type": "action"
          }
        },
        "range": {
          "value": 30,
          "units": "ft"
        },
        "uses": {
          "value": 1,
          "per": "day"
        },
        "measureTemplate": {
          "size": "0"
        },
        "actionType": "spellsave",
        "damage": {
          "parts": [],
          "critParts": [],
          "nonCritParts": []
        },
        "attackParts": [],
        "ability": {
          "attack": "",
          "damage": ""
        },
        "save": {
          "dc": "0",
          "type": "will",
          "description": "Will negates"
        },
        "effectNotes": [],
        "attackNotes": [],
        "links": {
          "children": []
        },
        "flags": {
          "boolean": [],
          "dictionary": []
        },
        "scriptCalls": [],
        "learnedAt": {
          "class": [
            [
              "sorcerer/wizard",
              4
            ],
            [
              "bard",
              3
            ],
            [
              "witch",
              4
            ],
            [
              "bloodrager",
              4
            ],
            [
              "psychic",
              4
            ],
            [
              "mesmerist",
              3
            ],
            [
              "spiritualist",
              4
            ]
          ],
          "domain": [],
          "subDomain": [
            [
              "Isolation",
              4
            ]
          ],
          "elementalSchool": [],
          "bloodline": []
        },
        "level": 4,
        "school": "enc",
        "subschool": "compulsion",
        "types": "mind-affecting, emotion",
        "conditionals": [],
        "components": {
          "verbal": true,
          "somatic": true
        },
        "spellbook": "spelllike",
        "preparation": {
          "preparedAmount": 1,
          "maxAmount": 1
        },
        "shortDescription": "<p>An invisible cone of despair causes great sadness in the subjects. Each affected creature takes a -2 penalty on attack rolls, saving throws, ability checks, skill checks, and weapon damage rolls.</p><p> <i>Crushing despair </i> counters and dispels  <i>good hope </i>.</p>",
        "spellDuration": "1 min./level",
        "spellArea": "cone-shaped burst"
      },
      "effects": [],
      "folder": null,
      "sort": 0,
      "permission": {
        "default": 0
      },
      "flags": {}
    },
    {
      "_id": "e1go7r84wjjjtryh",
      "name": "Summon",
      "type": "spell",
      "img": "systems/pf1/icons/skills/yellow_36.jpg",
      "data": {
        "description": {
          "value": "sbc | As summon could not be found in any compendium, a placeholder was generated."
        },
        "tags": [],
        "uses": {
          "value": 1,
          "per": "day"
        },
        "damage": {
          "parts": [],
          "critParts": [],
          "nonCritParts": []
        },
        "attackParts": [],
        "effectNotes": [],
        "attackNotes": [],
        "links": {
          "children": []
        },
        "flags": {
          "boolean": [],
          "dictionary": []
        },
        "scriptCalls": [],
        "learnedAt": {
          "class": [],
          "domain": [],
          "subDomain": [],
          "elementalSchool": [],
          "bloodline": []
        },
        "conditionals": [],
        "spellbook": "spelllike",
        "preparation": {
          "preparedAmount": 1,
          "maxAmount": 1
        }
      },
      "effects": [],
      "folder": null,
      "sort": 0,
      "permission": {
        "default": 0
      },
      "flags": {}
    },
    {
      "_id": "q0s46pzvjxkdl4d8",
      "name": "Ecology",
      "type": "feat",
      "img": "icons/environment/wilderness/tree-oak.webp",
      "data": {
        "description": {
          "value": "<div><strong>Environment</strong>:  any (Abyss)</div><div><strong>Organization</strong>:  solitary, pair, or wing (2-8)</div><div><strong>Treasure</strong>:  standard (masterwork scimitar, other treasure)</div>"
        },
        "tags": [],
        "damage": {
          "parts": [],
          "critParts": [],
          "nonCritParts": []
        },
        "attackParts": [],
        "effectNotes": [],
        "attackNotes": [],
        "changes": [],
        "contextNotes": [],
        "links": {
          "children": [],
          "charges": []
        },
        "armorProf": {
          "value": []
        },
        "weaponProf": {
          "value": []
        },
        "flags": {
          "boolean": [],
          "dictionary": []
        },
        "scriptCalls": [],
        "featType": "misc",
        "associations": {
          "classes": []
        }
      },
      "effects": [],
      "folder": null,
      "sort": 0,
      "permission": {
        "default": 0
      },
      "flags": {}
    },
    {
      "_id": "btzhsb8yz8li0xhw",
      "name": "Pain Redoubled",
      "type": "feat",
      "img": "systems/pf1/icons/skills/yellow_36.jpg",
      "data": {
        "description": {
          "value": "When an incubus confirms a critical hit with a melee weapon or a natural weapon, that attack deals an additional 2d6 points of nonlethal damage and the target must succeed at a DC 19 Fortitude save or be wracked by pain, becoming sickened for 1d6 rounds. Multiple uses of this ability extend the duration. The save DC is Charisma-based."
        },
        "tags": [],
        "damage": {
          "parts": [],
          "critParts": [],
          "nonCritParts": []
        },
        "attackParts": [],
        "effectNotes": [],
        "attackNotes": [],
        "changes": [],
        "contextNotes": [],
        "links": {
          "children": [],
          "charges": []
        },
        "armorProf": {
          "value": []
        },
        "weaponProf": {
          "value": []
        },
        "flags": {
          "boolean": [],
          "dictionary": []
        },
        "scriptCalls": [],
        "featType": "classFeat",
        "associations": {
          "classes": []
        },
        "abilityType": "su"
      },
      "effects": [],
      "folder": null,
      "sort": 0,
      "permission": {
        "default": 0
      },
      "flags": {}
    },
    {
      "_id": "FAEz9ysFGTqypR7r",
      "name": "sbc | Conversion Buff",
      "type": "buff",
      "img": "systems/pf1/icons/skills/yellow_36.jpg",
      "data": {
        "description": {
          "value": "<h2>sbc | Conversion Buff</h2>\n                        This Buff was created by <strong>sbc</strong> to compensate for differences between the input and the values FoundryVTT calculates automatically.\n                        <br><br>\n                        Especially when the pathfinder system gets upgraded, entries in compendiums get updated or foundry changes in some way, this buff may become outdated.\n                        <br><br>\n                        For most mooks the conversion should more or less work, but for important NPCs or creatures it is adviced to double check the conversion manually."
        },
        "tags": [],
        "changes": [
          {
            "_id": "e029goiv",
            "formula": "-10",
            "operator": "add",
            "subTarget": "mhp",
            "modifier": "untypedPerm",
            "priority": 0,
            "value": -10,
            "target": "misc",
            "id": "fdlxobzl"
          },
          {
            "_id": "gob0g882",
            "formula": "4",
            "operator": "add",
            "subTarget": "fort",
            "modifier": "untypedPerm",
            "priority": 0,
            "value": 4,
            "target": "savingThrows",
            "id": "ys0x7ioz"
          },
          {
            "_id": "lcrx1k04",
            "formula": "-4",
            "operator": "add",
            "subTarget": "ref",
            "modifier": "untypedPerm",
            "priority": 0,
            "value": -4,
            "target": "savingThrows",
            "id": "h21ur59u"
          }
        ],
        "contextNotes": [],
        "links": {
          "children": []
        },
        "tag": "sbcConversionBuff",
        "useCustomTag": true,
        "flags": {
          "boolean": [],
          "dictionary": []
        },
        "scriptCalls": [],
        "buffType": "perm",
        "active": true,
        "hideFromToken": true
      },
      "effects": [],
      "folder": null,
      "sort": 0,
      "permission": {
        "default": 0,
        "iM1ACTqH0Ml6HJtd": 3
      },
      "flags": {}
    }
  ],
  "effects": [],
  "folder": null,
  "sort": 0,
  "permission": {
    "default": 0
  },
  "flags": {}
}