{
  "_id": "ky8n4yzn6kc2cume",
  "name": "Acid Fog",
  "type": "spell",
  "img": "systems/pf1/icons/misc/magic-swirl.png",
  "data": {
    "description": {
      "value": "<div class=\"spell-description\">\n  <p>\n    <strong>School</strong>&nbsp;conjuration&nbsp;(creation)&nbsp;[acid];\n    <strong>Level</strong>&nbsp;magus 6, sorcerer/wizard 6, unchained Summoner 6;\n    \n    \n    \n    \n  </p>\n  <p>\n    <strong>Casting Time</strong>&nbsp;1 standard<br>\n    <strong>Components</strong>&nbsp;V, S, M (powdered peas and an animal hoof)<br>\n  </p>\n  <p>\n    <strong>Range</strong>&nbsp;medium (100 ft. + 10 ft./level)<br>\n    \n    \n    <strong>Effect</strong>&nbsp;fog spreads in 20-ft. radius, 20 ft. high<br>\n    <strong>Duration</strong>&nbsp;1 round/level<br>\n      <strong>Saving Throw</strong>&nbsp;none;&nbsp;\n      <strong>Spell Resistance</strong>&nbsp;no<br>\n  </p>\n  <h2>Description</h2>\n  <p><i>Acid fog</i> creates a billowing mass of misty vapors like the <i>solid fog</i> spell. In addition to slowing down creatures and obscuring sight, this spell's vapors are highly acidic. Each round on your turn, starting when you cast the spell, the fog deals 2d6 points of acid damage to each creature and object within it.</p>\n</div>\n"
    },
    "tags": [],
    "activation": {
      "type": "standard"
    },
    "unchainedAction": {
      "activation": {
        "cost": 2,
        "type": "action"
      }
    },
    "range": {
      "units": "medium"
    },
    "uses": {
      "per": ""
    },
    "measureTemplate": {
      "type": "circle",
      "size": "20"
    },
    "actionType": "other",
    "damage": {
      "parts": [
        [
          "2d6",
          "Acid"
        ]
      ],
      "critParts": [],
      "nonCritParts": []
    },
    "attackParts": [],
    "ability": {
      "attack": "",
      "damage": ""
    },
    "save": {
      "dc": "0"
    },
    "effectNotes": [],
    "attackNotes": [],
    "links": {
      "children": []
    },
    "flags": {
      "boolean": [],
      "dictionary": []
    },
    "scriptCalls": [],
    "learnedAt": {
      "class": [
        [
          "sorcerer/wizard",
          6
        ],
        [
          "magus",
          6
        ],
        [
          "unchained Summoner",
          6
        ]
      ],
      "domain": [],
      "subDomain": [],
      "elementalSchool": [],
      "bloodline": []
    },
    "level": 6,
    "school": "con",
    "subschool": "creation",
    "types": "acid",
    "conditionals": [],
    "components": {
      "verbal": true,
      "somatic": true,
      "material": true
    },
    "materials": {
      "value": "powdered peas and an animal hoof"
    },
    "sr": false,
    "shortDescription": "<p><i>Acid fog</i> creates a billowing mass of misty vapors like the <i>solid fog</i> spell. In addition to slowing down creatures and obscuring sight, this spell's vapors are highly acidic. Each round on your turn, starting when you cast the spell, the fog deals 2d6 points of acid damage to each creature and object within it.</p>",
    "spellDuration": "1 round/level",
    "spellEffect": "fog spreads in 20-ft. radius, 20 ft. high"
  },
  "effects": [],
  "folder": null,
  "sort": 0,
  "permission": {
    "default": 0
  },
  "flags": {}
}