{
  "_id": "7f9tbbxfod3to7yu",
  "name": "Advanced Scurvy",
  "type": "spell",
  "img": "systems/pf1/icons/misc/magic-swirl.png",
  "data": {
    "description": {
      "value": "<div class=\"spell-description\">\n  <p>\n    <strong>School</strong>&nbsp;necromancy&nbsp;[disease, evil];\n    <strong>Level</strong>&nbsp;cleric/oracle 1, druid 1, hunter 1;\n    \n    \n    \n    \n  </p>\n  <p>\n    <strong>Casting Time</strong>&nbsp;1 standard<br>\n    <strong>Components</strong>&nbsp;V, S<br>\n  </p>\n  <p>\n    <strong>Range</strong>&nbsp;touch<br>\n    \n    <strong>Targets</strong>&nbsp;living creature touched<br>\n    \n    <strong>Duration</strong>&nbsp;instantaneous<br>\n      <strong>Saving Throw</strong>&nbsp;Fortitude negates;&nbsp;\n      <strong>Spell Resistance</strong>&nbsp;yes<br>\n  </p>\n  <h2>Description</h2>\n  <p>The subject contracts an advanced form of scurvy. He becomes constantly fatigued, suffers from bone pain (-1 penalty on Strength-and Dexterity-based checks), wounds easily (add +1 point of damage to any bleed effects affecting the target), experiences loose teeth, and is slow to heal (natural healing occurs at half the normal rate). Scurvy can be treated magically or can be overcome with proper nutrition; eating the right foods ends the fatigue and bone pain within 1-2 days and provides a full cure 2d6 days after that.</p>\n</div>\n"
    },
    "tags": [],
    "activation": {
      "type": "standard"
    },
    "unchainedAction": {
      "activation": {
        "cost": 2,
        "type": "action"
      }
    },
    "target": {
      "value": "living creature touched"
    },
    "range": {
      "units": "touch"
    },
    "uses": {
      "per": ""
    },
    "measureTemplate": {
      "size": "0"
    },
    "actionType": "spellsave",
    "damage": {
      "parts": [],
      "critParts": [],
      "nonCritParts": []
    },
    "attackParts": [],
    "ability": {
      "attack": "",
      "damage": ""
    },
    "save": {
      "dc": "0",
      "type": "fort",
      "description": "Fortitude negates"
    },
    "effectNotes": [],
    "attackNotes": [],
    "links": {
      "children": []
    },
    "flags": {
      "boolean": [],
      "dictionary": []
    },
    "scriptCalls": [],
    "learnedAt": {
      "class": [
        [
          "cleric/oracle",
          1
        ],
        [
          "druid",
          1
        ],
        [
          "hunter",
          1
        ]
      ],
      "domain": [],
      "subDomain": [],
      "elementalSchool": [],
      "bloodline": []
    },
    "school": "nec",
    "types": "disease, evil",
    "conditionals": [],
    "components": {
      "verbal": true,
      "somatic": true
    },
    "shortDescription": "<p>The subject contracts an advanced form of scurvy. He becomes constantly fatigued, suffers from bone pain (-1 penalty on Strength-and Dexterity-based checks), wounds easily (add +1 point of damage to any bleed effects affecting the target), experiences loose teeth, and is slow to heal (natural healing occurs at half the normal rate). Scurvy can be treated magically or can be overcome with proper nutrition; eating the right foods ends the fatigue and bone pain within 1-2 days and provides a full cure 2d6 days after that.</p>",
    "spellDuration": "instantaneous"
  },
  "effects": [],
  "folder": null,
  "sort": 0,
  "permission": {
    "default": 0
  },
  "flags": {}
}