{
  "_id": "nee6cxpoekp3aklq",
  "name": "Alarm",
  "type": "spell",
  "img": "systems/pf1/icons/misc/magic-swirl.png",
  "data": {
    "description": {
      "value": "<div class=\"spell-description\">\n  <p>\n    <strong>School</strong>&nbsp;abjuration;\n    <strong>Level</strong>&nbsp;bard 1, hunter 1, inquisitor 1, occultist 1, psychic 1, ranger 1, sorcerer/wizard 1, spiritualist 1, summoner 1, unchained Summoner 1;\n    \n    <strong>Subdomain</strong>&nbsp;Ambush 1, Home 1;\n    \n    <strong>Bloodline</strong>&nbsp;Destined 1, Kobold 1;\n  </p>\n  <p>\n    <strong>Casting Time</strong>&nbsp;1 standard<br>\n    <strong>Components</strong>&nbsp;V, S, F/DF (a tiny bell and a piece of very fine silver wire)<br>\n  </p>\n  <p>\n    <strong>Range</strong>&nbsp;close (25 ft. + 5 ft./2 levels)<br>\n    <strong>Area</strong>&nbsp;20-ft.-radius emanation centered on a point in space<br>\n    \n    \n    <strong>Duration</strong>&nbsp;2 hours/level<br>\n      <strong>Saving Throw</strong>&nbsp;none;&nbsp;\n      <strong>Spell Resistance</strong>&nbsp;no<br>\n  </p>\n  <h2>Description</h2>\n  <p><i>Alarm</i> creates a subtle ward on an area you select. Once the spell effect is in place, it thereafter sounds a mental or audible alarm each time a creature of Tiny or larger size enters the warded area or touches it. A creature that speaks the password (determined by you at the time of casting) does not set off the <i>alarm</i>. You decide at the time of casting whether the <i>alarm</i> will be mental or audible in nature.</p><p><i>Mental Alarm</i>: A mental <i>alarm</i> alerts you (and only you) so long as you remain within 1 mile of the warded area. You note a single mental \"ping\" that awakens you from normal sleep but does not otherwise disturb concentration. A silence spell has no effect on a mental <i>alarm</i>.</p><p><i>Audible Alarm</i>: An audible <i>alarm</i> produces the sound of a hand bell, and anyone within 60 feet of the warded area can hear it clearly. Reduce the distance by 10 feet for each interposing closed door and by 20 feet for each substantial interposing wall.</p><p>In quiet conditions, the ringing can be heard faintly as far as 180 feet away. The sound lasts for 1 round. Creatures within a <i>silence</i> spell cannot hear the ringing.  Ethereal or astral creatures do not trigger the <i>alarm</i>.</p><p><i>Alarm</i> can be made permanent with a <i>permanency</i> spell.</p>\n</div>\n"
    },
    "tags": [],
    "activation": {
      "type": "standard"
    },
    "unchainedAction": {
      "activation": {
        "cost": 2,
        "type": "action"
      }
    },
    "range": {
      "units": "close"
    },
    "uses": {
      "per": ""
    },
    "measureTemplate": {
      "type": "circle",
      "size": "20"
    },
    "actionType": "",
    "damage": {
      "parts": [],
      "critParts": [],
      "nonCritParts": []
    },
    "attackParts": [],
    "ability": {
      "attack": "",
      "damage": ""
    },
    "save": {
      "dc": "0"
    },
    "effectNotes": [],
    "attackNotes": [],
    "links": {
      "children": []
    },
    "flags": {
      "boolean": [],
      "dictionary": []
    },
    "scriptCalls": [],
    "learnedAt": {
      "class": [
        [
          "sorcerer/wizard",
          1
        ],
        [
          "ranger",
          1
        ],
        [
          "bard",
          1
        ],
        [
          "summoner",
          1
        ],
        [
          "inquisitor",
          1
        ],
        [
          "psychic",
          1
        ],
        [
          "occultist",
          1
        ],
        [
          "spiritualist",
          1
        ],
        [
          "hunter",
          1
        ],
        [
          "unchained Summoner",
          1
        ]
      ],
      "domain": [],
      "subDomain": [
        [
          "Home",
          1
        ],
        [
          "Ambush",
          1
        ]
      ],
      "elementalSchool": [],
      "bloodline": [
        [
          "Destined",
          1
        ],
        [
          "Kobold",
          1
        ]
      ]
    },
    "school": "abj",
    "conditionals": [],
    "components": {
      "verbal": true,
      "somatic": true,
      "focus": true,
      "divineFocus": 3
    },
    "materials": {
      "focus": "a tiny bell and a piece of very fine silver wire"
    },
    "sr": false,
    "shortDescription": "<p><i>Alarm</i> creates a subtle ward on an area you select. Once the spell effect is in place, it thereafter sounds a mental or audible alarm each time a creature of Tiny or larger size enters the warded area or touches it. A creature that speaks the password (determined by you at the time of casting) does not set off the <i>alarm</i>. You decide at the time of casting whether the <i>alarm</i> will be mental or audible in nature.</p><p><i>Mental Alarm</i>: A mental <i>alarm</i> alerts you (and only you) so long as you remain within 1 mile of the warded area. You note a single mental \"ping\" that awakens you from normal sleep but does not otherwise disturb concentration. A silence spell has no effect on a mental <i>alarm</i>.</p><p><i>Audible Alarm</i>: An audible <i>alarm</i> produces the sound of a hand bell, and anyone within 60 feet of the warded area can hear it clearly. Reduce the distance by 10 feet for each interposing closed door and by 20 feet for each substantial interposing wall.</p><p>In quiet conditions, the ringing can be heard faintly as far as 180 feet away. The sound lasts for 1 round. Creatures within a <i>silence</i> spell cannot hear the ringing.  Ethereal or astral creatures do not trigger the <i>alarm</i>.</p><p><i>Alarm</i> can be made permanent with a <i>permanency</i> spell.</p>",
    "spellDuration": "2 hours/level",
    "spellArea": "20-ft.-radius emanation centered on a point in space"
  },
  "effects": [],
  "folder": null,
  "sort": 0,
  "permission": {
    "default": 0
  },
  "flags": {}
}