{
  "_id": "p76d7elycoau7edn",
  "name": "Alaznist's Jinx",
  "type": "spell",
  "img": "systems/pf1/icons/misc/magic-swirl.png",
  "data": {
    "description": {
      "value": "<div class=\"spell-description\">\n  <p>\n    <strong>School</strong>&nbsp;evocation&nbsp;[curse];\n    <strong>Level</strong>&nbsp;antipaladin 4, bard 4, cleric/oracle 6, inquisitor 5, occultist 5, psychic 6, shaman 5, sorcerer/wizard 6, witch 5;\n    \n    \n    \n    \n  </p>\n  <p>\n    <strong>Casting Time</strong>&nbsp;1 standard<br>\n    <strong>Components</strong>&nbsp;V, S<br>\n  </p>\n  <p>\n    <strong>Range</strong>&nbsp;touch<br>\n    \n    <strong>Targets</strong>&nbsp;creature touched<br>\n    \n    <strong>Duration</strong>&nbsp;permanent<br>\n      <strong>Saving Throw</strong>&nbsp;Will negates;&nbsp;\n      <strong>Spell Resistance</strong>&nbsp;yes<br>\n  </p>\n  <h2>Description</h2>\n  <p>You inflict a curse similar to the spell burn spellblight (<i>Pathfinder RPG Ultimate Magic</i> 97) on a creature. Each time a spellcaster who is afflicted with this curse casts a spell or uses a spell-like ability, her skin seems to burn as though she were on fire. With a successful concentration check (DC = 15 + double the spell level of the spell cast or spell-like ability used), the spellcaster can ignore the pain of the effect, but if she fails, she loses the spell or spell slot and is staggered for a round.  Unlike with the spell burn spellblight, the burning sensation is a tangible effect, visible during the act of spellcasting as an incorporeal, violet flame surrounding the caster.</p>\n</div>\n"
    },
    "tags": [],
    "activation": {
      "type": "standard"
    },
    "unchainedAction": {
      "activation": {
        "cost": 2,
        "type": "action"
      }
    },
    "target": {
      "value": "creature touched"
    },
    "range": {
      "units": "touch"
    },
    "uses": {
      "per": ""
    },
    "measureTemplate": {
      "size": "0"
    },
    "actionType": "spellsave",
    "damage": {
      "parts": [],
      "critParts": [],
      "nonCritParts": []
    },
    "attackParts": [],
    "ability": {
      "attack": "",
      "damage": ""
    },
    "save": {
      "dc": "0",
      "type": "will",
      "description": "Will negates"
    },
    "effectNotes": [],
    "attackNotes": [],
    "links": {
      "children": []
    },
    "flags": {
      "boolean": [],
      "dictionary": []
    },
    "scriptCalls": [],
    "learnedAt": {
      "class": [
        [
          "sorcerer/wizard",
          6
        ],
        [
          "cleric/oracle",
          6
        ],
        [
          "bard",
          4
        ],
        [
          "witch",
          5
        ],
        [
          "inquisitor",
          5
        ],
        [
          "antipaladin",
          4
        ],
        [
          "shaman",
          5
        ],
        [
          "psychic",
          6
        ],
        [
          "occultist",
          5
        ]
      ],
      "domain": [],
      "subDomain": [],
      "elementalSchool": [],
      "bloodline": []
    },
    "level": 6,
    "school": "evo",
    "types": "curse",
    "conditionals": [],
    "components": {
      "verbal": true,
      "somatic": true
    },
    "shortDescription": "<p>You inflict a curse similar to the spell burn spellblight (<i>Pathfinder RPG Ultimate Magic</i> 97) on a creature. Each time a spellcaster who is afflicted with this curse casts a spell or uses a spell-like ability, her skin seems to burn as though she were on fire. With a successful concentration check (DC = 15 + double the spell level of the spell cast or spell-like ability used), the spellcaster can ignore the pain of the effect, but if she fails, she loses the spell or spell slot and is staggered for a round.  Unlike with the spell burn spellblight, the burning sensation is a tangible effect, visible during the act of spellcasting as an incorporeal, violet flame surrounding the caster.</p>",
    "spellDuration": "permanent"
  },
  "effects": [],
  "folder": null,
  "sort": 0,
  "permission": {
    "default": 0
  },
  "flags": {}
}