{
  "_id": "w6bdfme0t8frk73p",
  "name": "Animal Aspect",
  "type": "spell",
  "img": "systems/pf1/icons/misc/magic-swirl.png",
  "data": {
    "description": {
      "value": "<div class=\"spell-description\">\n  <p>\n    <strong>School</strong>&nbsp;transmutation&nbsp;(polymorph);\n    <strong>Level</strong>&nbsp;alchemist 2, bloodrager 2, druid 2, hunter 2, magus 2, psychic 2, ranger 2, sorcerer/wizard 2;\n    \n    \n    \n    \n  </p>\n  <p>\n    <strong>Casting Time</strong>&nbsp;1 standard<br>\n    <strong>Components</strong>&nbsp;V, S, M/DF (a part of the animal)<br>\n  </p>\n  <p>\n    <strong>Range</strong>&nbsp;personal<br>\n    \n    <strong>Targets</strong>&nbsp;you<br>\n    \n    <strong>Duration</strong>&nbsp;1 minute/level (D)<br>\n  </p>\n  <h2>Description</h2>\n  <p>You gain some of the beneficial qualities of an animal. Your base form is largely unchanged and your size is unaltered, but some of your body parts are altered. Armor or gear you are wearing adjusts to your new shape for the duration of the spell. When you cast <i>animal aspect</i>, choose one of the following animals to gain the associated benefits. You can only have one <i>animal aspect</i> or greater <i>animal aspect</i> spell active on you at a time.  <br><i>Frog</i>: Your legs become elongated and muscular. You gain a +4 competence bonus on Acrobatics checks, and you always jump as if you had a running start.  <br><i>Gorilla</i>: Your arms become long, flexible, and strong like those of a great ape. Your unarmed damage die type increases by one step, and you gain a +4 competence bonus on combat maneuver checks when making the grapple or reposition combat maneuver.  <br><i>Monkey</i>: Your hands and arms become dexterous like those of a simian. You gain a +4 competence bonus on Climb checks, and you can throw objects as if you had the Throw Anything feat.  <br><i>Otter</i>: Your hands and feet gain webbing, and your lungs gain capacity, allowing you to move through the water with ease. You gain a Swim speed equal to half your speed, and all the benefits of having a swim speed. Additionally, you can hold your breath for 4 rounds per point of Constitution before being forced to make Constitution checks to keep holding your breath.  <br><i>Raccoon</i>: Your hands become extremely dexterous, and your feet become padded. You gain a +2 competence bonus on Disable Device, Sleight of Hand, and Stealth checks.  <br><i>Raptor</i>: Your legs become built for running speed, like those of a deinonychus. You gain a enhancement bonus of +20 feet to your base speed.  <br><i>Tree Lizard</i>: Your hands and feet gain climbing claws and climbing pads. You gain a climb speed equal to half your normal speed and all the benefits of having a natural climb speed.</p>\n</div>\n"
    },
    "tags": [],
    "activation": {
      "type": "standard"
    },
    "unchainedAction": {
      "activation": {
        "cost": 2,
        "type": "action"
      }
    },
    "target": {
      "value": "you"
    },
    "range": {
      "units": "personal"
    },
    "uses": {
      "per": ""
    },
    "measureTemplate": {
      "size": "0"
    },
    "actionType": "",
    "damage": {
      "parts": [],
      "critParts": [],
      "nonCritParts": []
    },
    "attackParts": [],
    "ability": {
      "attack": "",
      "damage": ""
    },
    "save": {
      "dc": "0"
    },
    "effectNotes": [],
    "attackNotes": [],
    "links": {
      "children": []
    },
    "flags": {
      "boolean": [],
      "dictionary": []
    },
    "scriptCalls": [],
    "learnedAt": {
      "class": [
        [
          "sorcerer/wizard",
          2
        ],
        [
          "druid",
          2
        ],
        [
          "ranger",
          2
        ],
        [
          "alchemist",
          2
        ],
        [
          "magus",
          2
        ],
        [
          "bloodrager",
          2
        ],
        [
          "psychic",
          2
        ],
        [
          "hunter",
          2
        ]
      ],
      "domain": [],
      "subDomain": [],
      "elementalSchool": [],
      "bloodline": []
    },
    "level": 2,
    "school": "trs",
    "subschool": "polymorph",
    "conditionals": [],
    "components": {
      "verbal": true,
      "somatic": true,
      "material": true,
      "divineFocus": 2
    },
    "materials": {
      "value": "a part of the animal"
    },
    "shortDescription": "<p>You gain some of the beneficial qualities of an animal. Your base form is largely unchanged and your size is unaltered, but some of your body parts are altered. Armor or gear you are wearing adjusts to your new shape for the duration of the spell. When you cast <i>animal aspect</i>, choose one of the following animals to gain the associated benefits. You can only have one <i>animal aspect</i> or greater <i>animal aspect</i> spell active on you at a time.  <br><i>Frog</i>: Your legs become elongated and muscular. You gain a +4 competence bonus on Acrobatics checks, and you always jump as if you had a running start.  <br><i>Gorilla</i>: Your arms become long, flexible, and strong like those of a great ape. Your unarmed damage die type increases by one step, and you gain a +4 competence bonus on combat maneuver checks when making the grapple or reposition combat maneuver.  <br><i>Monkey</i>: Your hands and arms become dexterous like those of a simian. You gain a +4 competence bonus on Climb checks, and you can throw objects as if you had the Throw Anything feat.  <br><i>Otter</i>: Your hands and feet gain webbing, and your lungs gain capacity, allowing you to move through the water with ease. You gain a Swim speed equal to half your speed, and all the benefits of having a swim speed. Additionally, you can hold your breath for 4 rounds per point of Constitution before being forced to make Constitution checks to keep holding your breath.  <br><i>Raccoon</i>: Your hands become extremely dexterous, and your feet become padded. You gain a +2 competence bonus on Disable Device, Sleight of Hand, and Stealth checks.  <br><i>Raptor</i>: Your legs become built for running speed, like those of a deinonychus. You gain a enhancement bonus of +20 feet to your base speed.  <br><i>Tree Lizard</i>: Your hands and feet gain climbing claws and climbing pads. You gain a climb speed equal to half your normal speed and all the benefits of having a natural climb speed.</p>",
    "spellDuration": "1 minute/level (D)"
  },
  "effects": [],
  "folder": null,
  "sort": 0,
  "permission": {
    "default": 0
  },
  "flags": {}
}