{
  "_id": "76t09cafayrw13ux",
  "name": "Antilife Shell",
  "type": "spell",
  "img": "systems/pf1/icons/misc/magic-swirl.png",
  "data": {
    "description": {
      "value": "<div class=\"spell-description\">\n  <p>\n    <strong>School</strong>&nbsp;abjuration;\n    <strong>Level</strong>&nbsp;cleric/oracle 6, druid 6, hunter 6, psychic 6, shaman 6;\n    <strong>Domain</strong>&nbsp;Animal 6;\n    <strong>Subdomain</strong>&nbsp;Souls 6;\n    \n    \n  </p>\n  <p>\n    <strong>Casting Time</strong>&nbsp;1 round<br>\n    <strong>Components</strong>&nbsp;V, S, DF<br>\n  </p>\n  <p>\n    <strong>Range</strong>&nbsp;10 feet<br>\n    <strong>Area</strong>&nbsp;10-ft.-radius emanation, centered on you<br>\n    \n    \n    <strong>Duration</strong>&nbsp;1 min./level<br>\n      <strong>Saving Throw</strong>&nbsp;none;&nbsp;\n      <strong>Spell Resistance</strong>&nbsp;yes<br>\n  </p>\n  <h2>Description</h2>\n  <p>You bring into being a mobile, hemispherical energy field that prevents the entrance of most types of living creatures.</p><p>The effect hedges out animals, aberrations, dragons, fey, giants, humanoids, magical beasts, monstrous humanoids, oozes, plants, and vermin, but not constructs, elementals, outsiders, or undead.</p><p>This spell may be used only defensively, not aggressively. Forcing an abjuration barrier against creatures that the spell keeps at bay collapses the barrier.</p>\n</div>\n"
    },
    "tags": [],
    "activation": {
      "type": "round"
    },
    "unchainedAction": {
      "activation": {
        "cost": 3,
        "type": "action"
      }
    },
    "range": {
      "value": 10,
      "units": "ft"
    },
    "uses": {
      "per": ""
    },
    "measureTemplate": {
      "size": "0"
    },
    "actionType": "",
    "damage": {
      "parts": [],
      "critParts": [],
      "nonCritParts": []
    },
    "attackParts": [],
    "ability": {
      "attack": "",
      "damage": ""
    },
    "save": {
      "dc": "0"
    },
    "effectNotes": [],
    "attackNotes": [],
    "links": {
      "children": []
    },
    "flags": {
      "boolean": [],
      "dictionary": []
    },
    "scriptCalls": [],
    "learnedAt": {
      "class": [
        [
          "cleric/oracle",
          6
        ],
        [
          "druid",
          6
        ],
        [
          "shaman",
          6
        ],
        [
          "psychic",
          6
        ],
        [
          "hunter",
          6
        ]
      ],
      "domain": [
        [
          "Animal",
          6
        ]
      ],
      "subDomain": [
        [
          "Souls",
          6
        ]
      ],
      "elementalSchool": [],
      "bloodline": []
    },
    "level": 6,
    "school": "abj",
    "conditionals": [],
    "components": {
      "verbal": true,
      "somatic": true,
      "divineFocus": 1
    },
    "shortDescription": "<p>You bring into being a mobile, hemispherical energy field that prevents the entrance of most types of living creatures.</p><p>The effect hedges out animals, aberrations, dragons, fey, giants, humanoids, magical beasts, monstrous humanoids, oozes, plants, and vermin, but not constructs, elementals, outsiders, or undead.</p><p>This spell may be used only defensively, not aggressively. Forcing an abjuration barrier against creatures that the spell keeps at bay collapses the barrier.</p>",
    "spellDuration": "1 min./level",
    "spellArea": "10-ft.-radius emanation, centered on you"
  },
  "effects": [],
  "folder": null,
  "sort": 0,
  "permission": {
    "default": 0
  },
  "flags": {}
}