{
  "_id": "vphjuk9z5iofueuu",
  "name": "Anywhere but Here",
  "type": "spell",
  "img": "systems/pf1/icons/misc/magic-swirl.png",
  "data": {
    "description": {
      "value": "<div class=\"spell-description\">\n  <p>\n    <strong>School</strong>&nbsp;conjuration&nbsp;(teleportation);\n    <strong>Level</strong>&nbsp;magus 4, psychic 4, sorcerer/wizard 4, summoner 4, witch 4;\n    \n    \n    \n    \n  </p>\n  <p>\n    <strong>Casting Time</strong>&nbsp;1 standard<br>\n    <strong>Components</strong>&nbsp;V<br>\n  </p>\n  <p>\n    <strong>Range</strong>&nbsp;touch<br>\n    \n    <strong>Targets</strong>&nbsp;you and up to four willing creatures, none of whom can be on their home plane<br>\n    \n    <strong>Duration</strong>&nbsp;instantaneous<br>\n      <strong>Saving Throw</strong>&nbsp;Will negates (harmless);&nbsp;\n      <strong>Spell Resistance</strong>&nbsp;no<br>\n  </p>\n  <h2>Description</h2>\n  <p>This spell functions similarly to <i>plane shift</i>, but instead of transporting the targets to a destination near an intended location on a specific plane, <i>Anywhere but Here</i> transports affected creatures to a random plane. A creature can be affected by <i>Anywhere but Here</i> only if it is currently not on its home plane (although targets can, by chance, end up traveling to their home plane as a result of this spell). Subjects always appear in a location that is not inherently harmful, but the exact destination is otherwise random. The specific plane is determined by the table below; the location on the destination plane where the transported creatures arrive is completely subject to the GM's whim.     <table border ='1'><tr><th>d%</th><th>Planar Destination</th></tr><tr><td>1-7</td><td>Abyss</td></tr><tr><td>8-14</td><td>Abaddon</td></tr><tr><td>15-20</td><td>Hell</td></tr><tr><td>21-24</td><td>Shadow Plane</td></tr><tr><td>25-28</td><td>First World</td></tr><tr><td>29-35</td><td>Maelstrom</td></tr><tr><td>36-42</td><td>Boneyard</td></tr><tr><td>43-49</td><td>Axis</td></tr><tr><td>50-56</td><td>Ethereal Plane</td></tr><tr><td>57-63</td><td>Elysium</td></tr><tr><td>64-70</td><td>Nirvana</td></tr><tr><td>71-77</td><td>Heaven</td></tr><tr><td>78-84</td><td>Astral Plane</td></tr><tr><td>85-90</td><td>Random demiplane</td></tr><tr><td>91-95</td><td>Material Plane (random world)</td></tr><tr><td>96-100</td><td>GM's choice</td></tr></table>   A creature that is transported by <i>Anywhere but Here</i> cannot be affected by a subsequent casting of <i>Anywhere but Here</i> for 24 hours afterward (but can be affected normally by other forms of planar travel).</p>\n</div>\n"
    },
    "tags": [],
    "activation": {
      "type": "standard"
    },
    "unchainedAction": {
      "activation": {
        "cost": 2,
        "type": "action"
      }
    },
    "target": {
      "value": "you and up to four willing creatures, none of whom can be on their home plane"
    },
    "range": {
      "units": "touch"
    },
    "uses": {
      "per": ""
    },
    "measureTemplate": {
      "size": "0"
    },
    "actionType": "spellsave",
    "damage": {
      "parts": [],
      "critParts": [],
      "nonCritParts": []
    },
    "attackParts": [],
    "ability": {
      "attack": "",
      "damage": ""
    },
    "save": {
      "dc": "0",
      "type": "will",
      "description": "Will negates (harmless)"
    },
    "effectNotes": [],
    "attackNotes": [],
    "links": {
      "children": []
    },
    "flags": {
      "boolean": [],
      "dictionary": []
    },
    "scriptCalls": [],
    "learnedAt": {
      "class": [
        [
          "sorcerer/wizard",
          4
        ],
        [
          "summoner",
          4
        ],
        [
          "witch",
          4
        ],
        [
          "magus",
          4
        ],
        [
          "psychic",
          4
        ]
      ],
      "domain": [],
      "subDomain": [],
      "elementalSchool": [],
      "bloodline": []
    },
    "level": 4,
    "school": "con",
    "subschool": "teleportation",
    "conditionals": [],
    "components": {
      "verbal": true
    },
    "sr": false,
    "shortDescription": "<p>This spell functions similarly to <i>plane shift</i>, but instead of transporting the targets to a destination near an intended location on a specific plane, <i>Anywhere but Here</i> transports affected creatures to a random plane. A creature can be affected by <i>Anywhere but Here</i> only if it is currently not on its home plane (although targets can, by chance, end up traveling to their home plane as a result of this spell). Subjects always appear in a location that is not inherently harmful, but the exact destination is otherwise random. The specific plane is determined by the table below; the location on the destination plane where the transported creatures arrive is completely subject to the GM's whim.     <table border ='1'><tr><th>d%</th><th>Planar Destination</th></tr><tr><td>1-7</td><td>Abyss</td></tr><tr><td>8-14</td><td>Abaddon</td></tr><tr><td>15-20</td><td>Hell</td></tr><tr><td>21-24</td><td>Shadow Plane</td></tr><tr><td>25-28</td><td>First World</td></tr><tr><td>29-35</td><td>Maelstrom</td></tr><tr><td>36-42</td><td>Boneyard</td></tr><tr><td>43-49</td><td>Axis</td></tr><tr><td>50-56</td><td>Ethereal Plane</td></tr><tr><td>57-63</td><td>Elysium</td></tr><tr><td>64-70</td><td>Nirvana</td></tr><tr><td>71-77</td><td>Heaven</td></tr><tr><td>78-84</td><td>Astral Plane</td></tr><tr><td>85-90</td><td>Random demiplane</td></tr><tr><td>91-95</td><td>Material Plane (random world)</td></tr><tr><td>96-100</td><td>GM's choice</td></tr></table>   A creature that is transported by <i>Anywhere but Here</i> cannot be affected by a subsequent casting of <i>Anywhere but Here</i> for 24 hours afterward (but can be affected normally by other forms of planar travel).</p>",
    "spellDuration": "instantaneous"
  },
  "effects": [],
  "folder": null,
  "sort": 0,
  "permission": {
    "default": 0
  },
  "flags": {}
}