{
  "_id": "1deu73tsthfuepk5",
  "name": "Aspect of the Stag",
  "type": "spell",
  "img": "systems/pf1/icons/misc/magic-swirl.png",
  "data": {
    "description": {
      "value": "<div class=\"spell-description\">\n  <p>\n    <strong>School</strong>&nbsp;transmutation&nbsp;(polymorph);\n    <strong>Level</strong>&nbsp;druid 4, hunter 3, ranger 3;\n    \n    \n    \n    \n  </p>\n  <p>\n    <strong>Casting Time</strong>&nbsp;1 standard<br>\n    <strong>Components</strong>&nbsp;V, S, DF<br>\n  </p>\n  <p>\n    <strong>Range</strong>&nbsp;personal<br>\n    \n    <strong>Targets</strong>&nbsp;you<br>\n    \n    <strong>Duration</strong>&nbsp;1 minute/level<br>\n  </p>\n  <h2>Description</h2>\n  <p>When you cast this spell, you take on an aspect of a stag, including some of its physical characteristics. Your features become elongated and sinewy, and you grow a set of antlers you can use for defense. You gain a +2 dodge bonus to AC against attacks of opportunity, your base speed increases by 20 ft., you can move through any undergrowth (including magically manipulated undergrowth) at your normal speed, and can even make a 5-foot step within such terrain.</p><p>Furthermore, when you are hit with an attack of opportunity, you can make a single attack with your antlers against the opponent that hit you as an immediate action. This attack uses your highest base attack bonus plus your Strength or Dexterity bonus (your choice) and deals 1d8 points of piercing damage (if you are Medium; 1d6 points of damage if Small) plus your Strength modifier on a successful hit. The antlers have a critical multiplier of 19-20/x2.</p>\n</div>\n"
    },
    "tags": [],
    "activation": {
      "type": "standard"
    },
    "unchainedAction": {
      "activation": {
        "cost": 2,
        "type": "action"
      }
    },
    "target": {
      "value": "you"
    },
    "range": {
      "units": "personal"
    },
    "uses": {
      "per": ""
    },
    "measureTemplate": {
      "size": "0"
    },
    "actionType": "",
    "damage": {
      "parts": [],
      "critParts": [],
      "nonCritParts": []
    },
    "attackParts": [],
    "ability": {
      "attack": "",
      "damage": ""
    },
    "save": {
      "dc": "0"
    },
    "effectNotes": [],
    "attackNotes": [],
    "links": {
      "children": []
    },
    "flags": {
      "boolean": [],
      "dictionary": []
    },
    "scriptCalls": [],
    "learnedAt": {
      "class": [
        [
          "druid",
          4
        ],
        [
          "ranger",
          3
        ],
        [
          "hunter",
          3
        ]
      ],
      "domain": [],
      "subDomain": [],
      "elementalSchool": [],
      "bloodline": []
    },
    "level": 4,
    "school": "trs",
    "subschool": "polymorph",
    "conditionals": [],
    "components": {
      "verbal": true,
      "somatic": true,
      "divineFocus": 1
    },
    "sr": false,
    "shortDescription": "<p>When you cast this spell, you take on an aspect of a stag, including some of its physical characteristics. Your features become elongated and sinewy, and you grow a set of antlers you can use for defense. You gain a +2 dodge bonus to AC against attacks of opportunity, your base speed increases by 20 ft., you can move through any undergrowth (including magically manipulated undergrowth) at your normal speed, and can even make a 5-foot step within such terrain.</p><p>Furthermore, when you are hit with an attack of opportunity, you can make a single attack with your antlers against the opponent that hit you as an immediate action. This attack uses your highest base attack bonus plus your Strength or Dexterity bonus (your choice) and deals 1d8 points of piercing damage (if you are Medium; 1d6 points of damage if Small) plus your Strength modifier on a successful hit. The antlers have a critical multiplier of 19-20/x2.</p>",
    "spellDuration": "1 minute/level"
  },
  "effects": [],
  "folder": null,
  "sort": 0,
  "permission": {
    "default": 0
  },
  "flags": {}
}