{
  "_id": "ciief8f72f6fgpol",
  "name": "Aura of Distraction",
  "type": "spell",
  "img": "systems/pf1/icons/misc/magic-swirl.png",
  "data": {
    "description": {
      "value": "<div class=\"spell-description\">\n  <p>\n    <strong>School</strong>&nbsp;enchantment&nbsp;[mind-affecting];\n    <strong>Level</strong>&nbsp;psychic 2, sorcerer/wizard 2, witch 2;\n    \n    \n    \n    \n  </p>\n  <p>\n    <strong>Casting Time</strong>&nbsp;1 standard<br>\n    <strong>Components</strong>&nbsp;V, S<br>\n  </p>\n  <p>\n    \n    <strong>Area</strong>&nbsp;20-ft.-radius emanation centered on you<br>\n    \n    \n    <strong>Duration</strong>&nbsp;1 minute/level (D)<br>\n      <strong>Saving Throw</strong>&nbsp;Will negates;&nbsp;\n      <strong>Spell Resistance</strong>&nbsp;yes<br>\n  </p>\n  <h2>Description</h2>\n  <p>You emit an aura of subsonic noise and mental imagery that makes concentrating difficult. Any creature within the aura that fails its save takes a -5 penalty on concentration checks. A creature must attempt the Will save upon entering the area of the aura, and the penalty ends as soon as the creature leaves the aura. A creature that succeeds at its save is immune to the effects of the aura for this casting of the spell, even if it leaves and reenters the aura, but must attempt another Will save each additional time this spell is cast. You are immune to your own <i>Aura of Distraction</i>.</p>\n</div>\n"
    },
    "tags": [],
    "activation": {
      "type": "standard"
    },
    "unchainedAction": {
      "activation": {
        "cost": 2,
        "type": "action"
      }
    },
    "uses": {
      "per": ""
    },
    "measureTemplate": {
      "size": "0"
    },
    "actionType": "spellsave",
    "damage": {
      "parts": [],
      "critParts": [],
      "nonCritParts": []
    },
    "attackParts": [],
    "ability": {
      "attack": "",
      "damage": ""
    },
    "save": {
      "dc": "0",
      "type": "will",
      "description": "Will negates"
    },
    "effectNotes": [],
    "attackNotes": [],
    "links": {
      "children": []
    },
    "flags": {
      "boolean": [],
      "dictionary": []
    },
    "scriptCalls": [],
    "learnedAt": {
      "class": [
        [
          "sorcerer/wizard",
          2
        ],
        [
          "witch",
          2
        ],
        [
          "psychic",
          2
        ]
      ],
      "domain": [],
      "subDomain": [],
      "elementalSchool": [],
      "bloodline": []
    },
    "level": 2,
    "school": "enc",
    "types": "mind-affecting",
    "conditionals": [],
    "components": {
      "verbal": true,
      "somatic": true
    },
    "shortDescription": "<p>You emit an aura of subsonic noise and mental imagery that makes concentrating difficult. Any creature within the aura that fails its save takes a -5 penalty on concentration checks. A creature must attempt the Will save upon entering the area of the aura, and the penalty ends as soon as the creature leaves the aura. A creature that succeeds at its save is immune to the effects of the aura for this casting of the spell, even if it leaves and reenters the aura, but must attempt another Will save each additional time this spell is cast. You are immune to your own <i>Aura of Distraction</i>.</p>",
    "spellDuration": "1 minute/level (D)",
    "spellArea": "20-ft.-radius emanation centered on you"
  },
  "effects": [],
  "folder": null,
  "sort": 0,
  "permission": {
    "default": 0
  },
  "flags": {}
}