{
  "_id": "ev4d0jv3i5rxt9xs",
  "name": "Awaken the Devoured",
  "type": "spell",
  "img": "systems/pf1/icons/misc/magic-swirl.png",
  "data": {
    "description": {
      "value": "<div class=\"spell-description\">\n  <p>\n    <strong>School</strong>&nbsp;divination&nbsp;[pain];\n    <strong>Level</strong>&nbsp;cleric/oracle 5, inquisitor 4, psychic 5, shaman 5, sorcerer/wizard 5, spiritualist 5, witch 5;\n    \n    \n    \n    \n  </p>\n  <p>\n    <strong>Casting Time</strong>&nbsp;1 standard<br>\n    <strong>Components</strong>&nbsp;V, S<br>\n  </p>\n  <p>\n    <strong>Range</strong>&nbsp;medium (100 ft. + 10 ft./level)<br>\n    \n    <strong>Targets</strong>&nbsp;one daemon per 4 caster levels<br>\n    \n    <strong>Duration</strong>&nbsp;instantaneous and 1 round/level<br>\n      <strong>Saving Throw</strong>&nbsp;Will partial (see text);&nbsp;\n      <strong>Spell Resistance</strong>&nbsp;yes<br>\n  </p>\n  <h2>Description</h2>\n  <p>This spell is often used by conjurers as a method to torment daemons and force compliance, for it awakens the broken, anguished memories of the countless souls that the target daemons have consumed. All daemons targeted by <i>Awaken the Devoured</i> must be within 30 feet of each other. The fragmented memories haunt and afflict the daemons, dealing 1d8 points of damage per caster level (maximum 15d8) and making the daemons confused for 1 round per level. A daemon that succeeds at a Will save halves the damage and negates the confusion effect.</p>\n</div>\n"
    },
    "tags": [],
    "activation": {
      "type": "standard"
    },
    "unchainedAction": {
      "activation": {
        "cost": 2,
        "type": "action"
      }
    },
    "target": {
      "value": "one daemon per 4 caster levels"
    },
    "range": {
      "units": "medium"
    },
    "uses": {
      "per": ""
    },
    "measureTemplate": {
      "size": "0"
    },
    "actionType": "spellsave",
    "damage": {
      "parts": [],
      "critParts": [],
      "nonCritParts": []
    },
    "attackParts": [],
    "ability": {
      "attack": "",
      "damage": ""
    },
    "save": {
      "dc": "0",
      "type": "will",
      "description": "Will partial (see text)"
    },
    "effectNotes": [],
    "attackNotes": [],
    "links": {
      "children": []
    },
    "flags": {
      "boolean": [],
      "dictionary": []
    },
    "scriptCalls": [],
    "learnedAt": {
      "class": [
        [
          "sorcerer/wizard",
          5
        ],
        [
          "cleric/oracle",
          5
        ],
        [
          "witch",
          5
        ],
        [
          "inquisitor",
          4
        ],
        [
          "shaman",
          5
        ],
        [
          "psychic",
          5
        ],
        [
          "spiritualist",
          5
        ]
      ],
      "domain": [],
      "subDomain": [],
      "elementalSchool": [],
      "bloodline": []
    },
    "level": 5,
    "school": "div",
    "types": "pain",
    "conditionals": [],
    "components": {
      "verbal": true,
      "somatic": true
    },
    "shortDescription": "<p>This spell is often used by conjurers as a method to torment daemons and force compliance, for it awakens the broken, anguished memories of the countless souls that the target daemons have consumed. All daemons targeted by <i>Awaken the Devoured</i> must be within 30 feet of each other. The fragmented memories haunt and afflict the daemons, dealing 1d8 points of damage per caster level (maximum 15d8) and making the daemons confused for 1 round per level. A daemon that succeeds at a Will save halves the damage and negates the confusion effect.</p>",
    "spellDuration": "instantaneous and 1 round/level"
  },
  "effects": [],
  "folder": null,
  "sort": 0,
  "permission": {
    "default": 0
  },
  "flags": {}
}