{
  "_id": "5brzibsbbixku992",
  "name": "Black Mark",
  "type": "spell",
  "img": "systems/pf1/icons/misc/magic-swirl.png",
  "data": {
    "description": {
      "value": "<div class=\"spell-description\">\n  <p>\n    <strong>School</strong>&nbsp;necromancy&nbsp;[curse, fear];\n    <strong>Level</strong>&nbsp;druid 7, witch 7;\n    \n    \n    \n    \n  </p>\n  <p>\n    <strong>Casting Time</strong>&nbsp;1 standard<br>\n    <strong>Components</strong>&nbsp;V, S, M (a flask of seawater)<br>\n  </p>\n  <p>\n    <strong>Range</strong>&nbsp;touch<br>\n    \n    <strong>Targets</strong>&nbsp;one creature<br>\n    \n    <strong>Duration</strong>&nbsp;permanent<br>\n      <strong>Saving Throw</strong>&nbsp;Will negates;&nbsp;\n      <strong>Spell Resistance</strong>&nbsp;yes<br>\n  </p>\n  <h2>Description</h2>\n  <p>You mark the target with a <i>black mark</i>ing on its skin; the mark's exact appearance determined by you, but can be no larger than your hand. The <i>black mark</i> functions as a <i>mark of justice</i>, and when the mark is activated, the target becomes shaken anytime it is on or in the water more than a 5 feet from shore. In addition, as long as the <i>black mark</i> is active, the target is affected as if subject to nature's exile (Advanced Player's Guide 233), but all creatures with the aquatic or water subtype or with a swim speed are made hostile, even those not of the animal type, though non-aquatic animals are not.</p>\n</div>\n"
    },
    "tags": [],
    "activation": {
      "type": "standard"
    },
    "unchainedAction": {
      "activation": {
        "cost": 2,
        "type": "action"
      }
    },
    "target": {
      "value": "one creature"
    },
    "range": {
      "units": "touch"
    },
    "uses": {
      "per": ""
    },
    "measureTemplate": {
      "size": "0"
    },
    "actionType": "spellsave",
    "damage": {
      "parts": [],
      "critParts": [],
      "nonCritParts": []
    },
    "attackParts": [],
    "ability": {
      "attack": "",
      "damage": ""
    },
    "save": {
      "dc": "0",
      "type": "will",
      "description": "Will negates"
    },
    "effectNotes": [],
    "attackNotes": [],
    "links": {
      "children": []
    },
    "flags": {
      "boolean": [],
      "dictionary": []
    },
    "scriptCalls": [],
    "learnedAt": {
      "class": [
        [
          "druid",
          7
        ],
        [
          "witch",
          7
        ]
      ],
      "domain": [],
      "subDomain": [],
      "elementalSchool": [],
      "bloodline": []
    },
    "level": 7,
    "school": "nec",
    "types": "curse, fear",
    "conditionals": [],
    "components": {
      "verbal": true,
      "somatic": true,
      "material": true
    },
    "materials": {
      "value": "a flask of seawater"
    },
    "shortDescription": "<p>You mark the target with a <i>black mark</i>ing on its skin; the mark's exact appearance determined by you, but can be no larger than your hand. The <i>black mark</i> functions as a <i>mark of justice</i>, and when the mark is activated, the target becomes shaken anytime it is on or in the water more than a 5 feet from shore. In addition, as long as the <i>black mark</i> is active, the target is affected as if subject to nature's exile (Advanced Player's Guide 233), but all creatures with the aquatic or water subtype or with a swim speed are made hostile, even those not of the animal type, though non-aquatic animals are not.</p>",
    "spellDuration": "permanent"
  },
  "effects": [],
  "folder": null,
  "sort": 0,
  "permission": {
    "default": 0
  },
  "flags": {}
}