{
  "_id": "mq9qi89kwf8ecub3",
  "name": "Blade of Dark Triumph",
  "type": "spell",
  "img": "systems/pf1/icons/misc/magic-swirl.png",
  "data": {
    "description": {
      "value": "<div class=\"spell-description\">\n  <p>\n    <strong>School</strong>&nbsp;transmutation&nbsp;[evil];\n    <strong>Level</strong>&nbsp;antipaladin 3;\n    \n    \n    \n    \n  </p>\n  <p>\n    <strong>Casting Time</strong>&nbsp;1 standard<br>\n    <strong>Components</strong>&nbsp;V, S<br>\n  </p>\n  <p>\n    <strong>Range</strong>&nbsp;touch<br>\n    \n    <strong>Targets</strong>&nbsp;your fiendish boon weapon<br>\n    \n    <strong>Duration</strong>&nbsp;1 minute/level<br>\n      <strong>Saving Throw</strong>&nbsp;Will negates (harmless);&nbsp;\n      <strong>Spell Resistance</strong>&nbsp;no<br>\n  </p>\n  <h2>Description</h2>\n  <p>You strengthen the bond between your fiendish boon weapon and its unholy spirit. The weapon gains the <i>ghost touch</i> property.</p><p>You may change your weapon's damage type (bludgeoning, piercing, slashing) as a swift action. You gain a profane bonus to your CMD against disarm and sunder attacks directed at your boon weapon; this bonus is equal to half your caster level.</p>\n</div>\n"
    },
    "tags": [],
    "activation": {
      "type": "standard"
    },
    "unchainedAction": {
      "activation": {
        "cost": 2,
        "type": "action"
      }
    },
    "target": {
      "value": "your fiendish boon weapon"
    },
    "range": {
      "units": "touch"
    },
    "uses": {
      "per": ""
    },
    "measureTemplate": {
      "size": "0"
    },
    "actionType": "spellsave",
    "damage": {
      "parts": [],
      "critParts": [],
      "nonCritParts": []
    },
    "attackParts": [],
    "ability": {
      "attack": "",
      "damage": ""
    },
    "save": {
      "dc": "0",
      "type": "will",
      "description": "Will negates (harmless)"
    },
    "effectNotes": [],
    "attackNotes": [],
    "links": {
      "children": []
    },
    "flags": {
      "boolean": [],
      "dictionary": []
    },
    "scriptCalls": [],
    "learnedAt": {
      "class": [
        [
          "antipaladin",
          3
        ]
      ],
      "domain": [],
      "subDomain": [],
      "elementalSchool": [],
      "bloodline": []
    },
    "level": 3,
    "school": "trs",
    "types": "evil",
    "conditionals": [],
    "components": {
      "verbal": true,
      "somatic": true
    },
    "sr": false,
    "shortDescription": "<p>You strengthen the bond between your fiendish boon weapon and its unholy spirit. The weapon gains the <i>ghost touch</i> property.</p><p>You may change your weapon's damage type (bludgeoning, piercing, slashing) as a swift action. You gain a profane bonus to your CMD against disarm and sunder attacks directed at your boon weapon; this bonus is equal to half your caster level.</p>",
    "spellDuration": "1 minute/level"
  },
  "effects": [],
  "folder": null,
  "sort": 0,
  "permission": {
    "default": 0
  },
  "flags": {}
}