{
  "_id": "hxgnuvkeh18untb4",
  "name": "Blazing Rainbow",
  "type": "spell",
  "img": "systems/pf1/icons/misc/magic-swirl.png",
  "data": {
    "description": {
      "value": "<div class=\"spell-description\">\n  <p>\n    <strong>School</strong>&nbsp;evocation&nbsp;[light];\n    <strong>Level</strong>&nbsp;druid 6, hunter 6;\n    \n    \n    \n    \n  </p>\n  <p>\n    <strong>Casting Time</strong>&nbsp;1 round<br>\n    <strong>Components</strong>&nbsp;V, S, M (a drop of rainwater)<br>\n  </p>\n  <p>\n    \n    \n    \n    <strong>Effect</strong>&nbsp;bow or bridge of light<br>\n    <strong>Duration</strong>&nbsp;1 minute/level or until discharged (see text)<br>\n      <strong>Saving Throw</strong>&nbsp;none;&nbsp;\n      <strong>Spell Resistance</strong>&nbsp;no<br>\n  </p>\n  <h2>Description</h2>\n  <p>You create a spectrum of multicolored solid light that can be used for one of two effects.</p><p><i>Bow</i>: The spell creates a longbow or shortbow appropriate for your size, and you are proficient in the use of this weapon. When drawn, the bow automatically creates a <i>+1 seeking brilliant energy arrow</i>; it cannot fire any other arrows. A creature struck by one of these arrows is surrounded by <i>faerie fire</i> and dazzled for 1 minute. This version of the spell ends when you have fired a number of arrows equal to your caster level.</p><p><i>Bridge</i>: The light forms a bridge or ramp 5 feet wide and up to 10 feet long per caster level. Creatures on the bridge are dazzled. Allies gain a bonus equal to your Wisdom modifier (minimum 1) on checks, saves, and to their CMD to resist being moved from the bridge against their will.</p><p>Enemies take a penalty equal to your Wisdom modifier (minimum 1) checks, saves, and to their CMD to resist being moved from the bridge against their will.</p>\n</div>\n"
    },
    "tags": [],
    "activation": {
      "type": "round"
    },
    "unchainedAction": {
      "activation": {
        "cost": 3,
        "type": "action"
      }
    },
    "range": {
      "value": 0,
      "units": "ft"
    },
    "uses": {
      "per": ""
    },
    "measureTemplate": {
      "size": "0"
    },
    "actionType": "other",
    "damage": {
      "parts": [],
      "critParts": [],
      "nonCritParts": []
    },
    "attackParts": [],
    "ability": {
      "attack": "",
      "damage": ""
    },
    "save": {
      "dc": "0"
    },
    "effectNotes": [],
    "attackNotes": [],
    "links": {
      "children": []
    },
    "flags": {
      "boolean": [],
      "dictionary": []
    },
    "scriptCalls": [],
    "learnedAt": {
      "class": [
        [
          "druid",
          6
        ],
        [
          "hunter",
          6
        ]
      ],
      "domain": [],
      "subDomain": [],
      "elementalSchool": [],
      "bloodline": []
    },
    "level": 6,
    "school": "evo",
    "types": "light",
    "conditionals": [],
    "components": {
      "verbal": true,
      "somatic": true,
      "material": true
    },
    "materials": {
      "value": "a drop of rainwater"
    },
    "sr": false,
    "shortDescription": "<p>You create a spectrum of multicolored solid light that can be used for one of two effects.</p><p><i>Bow</i>: The spell creates a longbow or shortbow appropriate for your size, and you are proficient in the use of this weapon. When drawn, the bow automatically creates a <i>+1 seeking brilliant energy arrow</i>; it cannot fire any other arrows. A creature struck by one of these arrows is surrounded by <i>faerie fire</i> and dazzled for 1 minute. This version of the spell ends when you have fired a number of arrows equal to your caster level.</p><p><i>Bridge</i>: The light forms a bridge or ramp 5 feet wide and up to 10 feet long per caster level. Creatures on the bridge are dazzled. Allies gain a bonus equal to your Wisdom modifier (minimum 1) on checks, saves, and to their CMD to resist being moved from the bridge against their will.</p><p>Enemies take a penalty equal to your Wisdom modifier (minimum 1) checks, saves, and to their CMD to resist being moved from the bridge against their will.</p>",
    "spellDuration": "1 minute/level or until discharged (see text)",
    "spellEffect": "bow or bridge of light"
  },
  "effects": [],
  "folder": null,
  "sort": 0,
  "permission": {
    "default": 0
  },
  "flags": {}
}