{
  "_id": "p8guuisr2o3butpj",
  "name": "Blood Transcription",
  "type": "spell",
  "img": "systems/pf1/icons/misc/magic-swirl.png",
  "data": {
    "description": {
      "value": "<div class=\"spell-description\">\n  <p>\n    <strong>School</strong>&nbsp;divination&nbsp;[evil];\n    <strong>Level</strong>&nbsp;alchemist 2, magus 2, sorcerer/wizard 2, witch 2;\n    \n    \n    \n    \n  </p>\n  <p>\n    <strong>Casting Time</strong>&nbsp;1 standard<br>\n    <strong>Components</strong>&nbsp;V, S<br>\n  </p>\n  <p>\n    <strong>Range</strong>&nbsp;touch<br>\n    \n    <strong>Targets</strong>&nbsp;one dead spellcaster<br>\n    \n    <strong>Duration</strong>&nbsp;24 hours<br>\n      <strong>Saving Throw</strong>&nbsp;none;&nbsp;\n      <strong>Spell Resistance</strong>&nbsp;no<br>\n  </p>\n  <h2>Description</h2>\n  <p>By consuming 1 pint of blood from a spellcaster killed within the last 24 hours, you can attempt to learn a spell that spellcaster knew. Select one spell available to the dead  spellcaster (this must be a spell on your spell list); you gain the knowledge of this spell for 24 hours. During this time, you may write it down (or teach it to your familiar, if you are a witch) using the normal rules for copying a spell from another source. Once you have learned it, you may prepare the spell normally.</p>\n</div>\n"
    },
    "tags": [],
    "activation": {
      "type": "standard"
    },
    "unchainedAction": {
      "activation": {
        "cost": 2,
        "type": "action"
      }
    },
    "target": {
      "value": "one dead spellcaster"
    },
    "range": {
      "units": "touch"
    },
    "uses": {
      "per": ""
    },
    "measureTemplate": {
      "size": "0"
    },
    "actionType": "",
    "damage": {
      "parts": [],
      "critParts": [],
      "nonCritParts": []
    },
    "attackParts": [],
    "ability": {
      "attack": "",
      "damage": ""
    },
    "save": {
      "dc": "0"
    },
    "effectNotes": [],
    "attackNotes": [],
    "links": {
      "children": []
    },
    "flags": {
      "boolean": [],
      "dictionary": []
    },
    "scriptCalls": [],
    "learnedAt": {
      "class": [
        [
          "alchemist",
          2
        ],
        [
          "witch",
          2
        ],
        [
          "magus",
          2
        ],
        [
          "sorcerer/wizard",
          2
        ]
      ],
      "domain": [],
      "subDomain": [],
      "elementalSchool": [],
      "bloodline": []
    },
    "level": 2,
    "school": "div",
    "types": "evil",
    "conditionals": [],
    "components": {
      "verbal": true,
      "somatic": true
    },
    "sr": false,
    "shortDescription": "<p>By consuming 1 pint of blood from a spellcaster killed within the last 24 hours, you can attempt to learn a spell that spellcaster knew. Select one spell available to the dead  spellcaster (this must be a spell on your spell list); you gain the knowledge of this spell for 24 hours. During this time, you may write it down (or teach it to your familiar, if you are a witch) using the normal rules for copying a spell from another source. Once you have learned it, you may prepare the spell normally.</p>",
    "spellDuration": "24 hours"
  },
  "effects": [],
  "folder": null,
  "sort": 0,
  "permission": {
    "default": 0
  },
  "flags": {}
}