{
  "_id": "184d4mq7yubz2qnq",
  "name": "Campfire Wall",
  "type": "spell",
  "img": "systems/pf1/icons/spells/shielding-fire-3.jpg",
  "data": {
    "description": {
      "value": "<div class=\"spell-description\">\n  <p>\n    <strong>School</strong>&nbsp;evocation&nbsp;[fire, light];\n    <strong>Level</strong>&nbsp;bard 3, druid 2, hunter 2, occultist 2, ranger 2, sorcerer/wizard 3;\n    \n    \n    \n    \n  </p>\n  <p>\n    <strong>Casting Time</strong>&nbsp;1 standard<br>\n    <strong>Components</strong>&nbsp;V, S, M/DF (ash made from burnt thorns)<br>\n  </p>\n  <p>\n    <strong>Range</strong>&nbsp;close (25 ft. + 5 ft./2 levels)<br>\n    \n    \n    <strong>Effect</strong>&nbsp;20-ft.-radius sphere centered on fire source<br>\n    <strong>Duration</strong>&nbsp;2 hours/level; see below (D)<br>\n      <strong>Saving Throw</strong>&nbsp;none;&nbsp;\n      <strong>Spell Resistance</strong>&nbsp;yes<br>\n  </p>\n  <h2>Description</h2>\n  <p>You can create a barrier around a fire of at least campfire size that shelters everyone inside so long as the fire continues to burn. The barrier appears as a crackling sphere of light and fire that is clearly visible, providing as much illumination as a torch.</p><p>The barrier bocks line of sight, granting creatures on either side of the barrier total concealment from creatures on the other side. Any object or creature passing through the barrier from outside takes 1d6 points of fire damage and is also outlined with light equivalent to that of a torch, for 1d6 minutes. Creatures outlined in this way are plainly visible regardless of the light conditions and do not benefit from any sort of concealment, magical or otherwise. The light is not bright enough to have any special effect on undead or creatures vulnerable to light.</p><p>Creatures inside the barrier can leave without penalty, but if they try to return they suffer the same consequences as anyone else. If the fire source at the barrier's center is extinguished or moved, the spell ends.</p>\n</div>\n"
    },
    "tags": [],
    "activation": {
      "type": "standard"
    },
    "unchainedAction": {
      "activation": {
        "cost": 2,
        "type": "action"
      }
    },
    "range": {
      "units": "close"
    },
    "uses": {
      "per": ""
    },
    "measureTemplate": {
      "type": "circle",
      "size": "20"
    },
    "actionType": "other",
    "damage": {
      "parts": [],
      "critParts": [],
      "nonCritParts": []
    },
    "attackParts": [],
    "ability": {
      "attack": "",
      "damage": ""
    },
    "save": {
      "dc": "0"
    },
    "effectNotes": [],
    "attackNotes": [],
    "links": {
      "children": []
    },
    "flags": {
      "boolean": [],
      "dictionary": []
    },
    "scriptCalls": [],
    "learnedAt": {
      "class": [
        [
          "sorcerer/wizard",
          3
        ],
        [
          "druid",
          2
        ],
        [
          "ranger",
          2
        ],
        [
          "bard",
          3
        ],
        [
          "occultist",
          2
        ],
        [
          "hunter",
          2
        ]
      ],
      "domain": [],
      "subDomain": [],
      "elementalSchool": [],
      "bloodline": []
    },
    "level": 2,
    "school": "evo",
    "types": "fire, light",
    "conditionals": [],
    "components": {
      "verbal": true,
      "somatic": true,
      "material": true,
      "divineFocus": 2
    },
    "materials": {
      "value": "ash made from burnt thorns"
    },
    "spellbook": "",
    "shortDescription": "<p>You can create a barrier around a fire of at least campfire size that shelters everyone inside so long as the fire continues to burn. The barrier appears as a crackling sphere of light and fire that is clearly visible, providing as much illumination as a torch.</p><p>The barrier bocks line of sight, granting creatures on either side of the barrier total concealment from creatures on the other side. Any object or creature passing through the barrier from outside takes 1d6 points of fire damage and is also outlined with light equivalent to that of a torch, for 1d6 minutes. Creatures outlined in this way are plainly visible regardless of the light conditions and do not benefit from any sort of concealment, magical or otherwise. The light is not bright enough to have any special effect on undead or creatures vulnerable to light.</p><p>Creatures inside the barrier can leave without penalty, but if they try to return they suffer the same consequences as anyone else. If the fire source at the barrier's center is extinguished or moved, the spell ends.</p>",
    "spellDuration": "2 hours/level; see below (D)",
    "spellEffect": "20-ft.-radius sphere centered on fire source"
  },
  "effects": [],
  "folder": null,
  "sort": 0,
  "permission": {
    "default": 0
  },
  "flags": {}
}