{
  "_id": "klfx6jehu3vhie33",
  "name": "Cape of Wasps",
  "type": "spell",
  "img": "systems/pf1/icons/misc/magic-swirl.png",
  "data": {
    "description": {
      "value": "<div class=\"spell-description\">\n  <p>\n    <strong>School</strong>&nbsp;conjuration&nbsp;(summoning);\n    <strong>Level</strong>&nbsp;druid 4, hunter 4, witch 4;\n    \n    \n    \n    \n  </p>\n  <p>\n    <strong>Casting Time</strong>&nbsp;1 standard<br>\n    <strong>Components</strong>&nbsp;V, S<br>\n  </p>\n  <p>\n    <strong>Range</strong>&nbsp;personal<br>\n    \n    <strong>Targets</strong>&nbsp;you<br>\n    \n    <strong>Duration</strong>&nbsp;1 round/level (D)<br>\n  </p>\n  <h2>Description</h2>\n  <p>You summon a wasp swarm (<i>Bestiary</i> 275), which fills your space (up to 5 feet by 5 feet) but does not attack you. The dense cloud of vermin gives you partial concealment against ranged attacks. Any creature that makes a successful melee attack against you takes 2d6 points of swarm damage and poison from the wasp swarm, but is not affected by the swarm's distraction ability. As a free action on your turn, you may have the swarm cling to you tightly, giving you a fly speed of 20 feet (poor maneuverability); when using the swarm to fly, it does not provide concealment or harm creatures that strike you. You can return the swarm to its protective shape as a free action on your turn.</p>\n</div>\n"
    },
    "tags": [],
    "activation": {
      "type": "standard"
    },
    "unchainedAction": {
      "activation": {
        "cost": 2,
        "type": "action"
      }
    },
    "target": {
      "value": "you"
    },
    "range": {
      "units": "personal"
    },
    "uses": {
      "per": ""
    },
    "measureTemplate": {
      "size": "0"
    },
    "actionType": "",
    "damage": {
      "parts": [],
      "critParts": [],
      "nonCritParts": []
    },
    "attackParts": [],
    "ability": {
      "attack": "",
      "damage": ""
    },
    "save": {
      "dc": "0"
    },
    "effectNotes": [],
    "attackNotes": [],
    "links": {
      "children": []
    },
    "flags": {
      "boolean": [],
      "dictionary": []
    },
    "scriptCalls": [],
    "learnedAt": {
      "class": [
        [
          "druid",
          4
        ],
        [
          "witch",
          4
        ],
        [
          "hunter",
          4
        ]
      ],
      "domain": [],
      "subDomain": [],
      "elementalSchool": [],
      "bloodline": []
    },
    "level": 4,
    "school": "con",
    "subschool": "summoning",
    "conditionals": [],
    "components": {
      "verbal": true,
      "somatic": true
    },
    "sr": false,
    "shortDescription": "<p>You summon a wasp swarm (<i>Bestiary</i> 275), which fills your space (up to 5 feet by 5 feet) but does not attack you. The dense cloud of vermin gives you partial concealment against ranged attacks. Any creature that makes a successful melee attack against you takes 2d6 points of swarm damage and poison from the wasp swarm, but is not affected by the swarm's distraction ability. As a free action on your turn, you may have the swarm cling to you tightly, giving you a fly speed of 20 feet (poor maneuverability); when using the swarm to fly, it does not provide concealment or harm creatures that strike you. You can return the swarm to its protective shape as a free action on your turn.</p>",
    "spellDuration": "1 round/level (D)"
  },
  "effects": [],
  "folder": null,
  "sort": 0,
  "permission": {
    "default": 0
  },
  "flags": {}
}