{
  "_id": "pg7dbmuuaksxhp3v",
  "name": "Charm Animal",
  "type": "spell",
  "img": "systems/pf1/icons/misc/magic-swirl.png",
  "data": {
    "description": {
      "value": "<div class=\"spell-description\">\n  <p>\n    <strong>School</strong>&nbsp;enchantment&nbsp;(charm)&nbsp;[mind-affecting];\n    <strong>Level</strong>&nbsp;druid 1, hunter 1, psychic 1, ranger 1, shaman 1;\n    \n    \n    \n    <strong>Bloodline</strong>&nbsp;Pestilence 1;\n  </p>\n  <p>\n    <strong>Casting Time</strong>&nbsp;1 standard<br>\n    <strong>Components</strong>&nbsp;V, S<br>\n  </p>\n  <p>\n    <strong>Range</strong>&nbsp;close (25 ft. + 5 ft./2 levels)<br>\n    \n    <strong>Targets</strong>&nbsp;one animal<br>\n    \n    <strong>Duration</strong>&nbsp;1 hour/level<br>\n      <strong>Saving Throw</strong>&nbsp;Will negates;&nbsp;\n      <strong>Spell Resistance</strong>&nbsp;yes<br>\n  </p>\n  <h2>Description</h2>\n  <p>This spell functions like <i>charm person</i>, except that it affects a creature of the animal type.</p>\n</div>\n"
    },
    "tags": [],
    "activation": {
      "type": "standard"
    },
    "unchainedAction": {
      "activation": {
        "cost": 2,
        "type": "action"
      }
    },
    "target": {
      "value": "one animal"
    },
    "range": {
      "units": "close"
    },
    "uses": {
      "per": ""
    },
    "measureTemplate": {
      "size": "0"
    },
    "actionType": "spellsave",
    "damage": {
      "parts": [],
      "critParts": [],
      "nonCritParts": []
    },
    "attackParts": [],
    "ability": {
      "attack": "",
      "damage": ""
    },
    "save": {
      "dc": "0",
      "type": "will",
      "description": "Will negates"
    },
    "effectNotes": [],
    "attackNotes": [],
    "links": {
      "children": []
    },
    "flags": {
      "boolean": [],
      "dictionary": []
    },
    "scriptCalls": [],
    "learnedAt": {
      "class": [
        [
          "druid",
          1
        ],
        [
          "ranger",
          1
        ],
        [
          "shaman",
          1
        ],
        [
          "psychic",
          1
        ],
        [
          "hunter",
          1
        ]
      ],
      "domain": [],
      "subDomain": [],
      "elementalSchool": [],
      "bloodline": [
        [
          "Pestilence",
          1
        ]
      ]
    },
    "school": "enc",
    "subschool": "charm",
    "types": "mind-affecting",
    "conditionals": [],
    "components": {
      "verbal": true,
      "somatic": true
    },
    "shortDescription": "<p>This spell functions like <i>charm person</i>, except that it affects a creature of the animal type.</p>",
    "spellDuration": "1 hour/level"
  },
  "effects": [],
  "folder": null,
  "sort": 0,
  "permission": {
    "default": 0
  },
  "flags": {}
}