{
  "_id": "3a162m66toj22fpa",
  "name": "Circle of Death",
  "type": "spell",
  "img": "systems/pf1/icons/misc/magic-swirl.png",
  "data": {
    "description": {
      "value": "<div class=\"spell-description\">\n  <p>\n    <strong>School</strong>&nbsp;necromancy&nbsp;[death];\n    <strong>Level</strong>&nbsp;inquisitor 6, sorcerer/wizard 6, spiritualist 6;\n    \n    \n    \n    <strong>Bloodline</strong>&nbsp;Daemon 6;\n  </p>\n  <p>\n    <strong>Casting Time</strong>&nbsp;1 standard<br>\n    <strong>Components</strong>&nbsp;V, S, M (a crushed black pearl worth 500 gp)<br>\n  </p>\n  <p>\n    <strong>Range</strong>&nbsp;medium (100 ft. + 10 ft./level)<br>\n    <strong>Area</strong>&nbsp;several living creatures within a 40-ft.-radius burst<br>\n    \n    \n    <strong>Duration</strong>&nbsp;instantaneous<br>\n      <strong>Saving Throw</strong>&nbsp;Fortitude negates;&nbsp;\n      <strong>Spell Resistance</strong>&nbsp;yes<br>\n  </p>\n  <h2>Description</h2>\n  <p><i>Circle of Death</i> snuffs out the life force of living creatures, killing them instantly. The spell slays 1d4 HD worth of living creatures per caster level (maximum 20d4). Creatures with the fewest HD are affected first; among creatures with equal HD, those who are closest to the burst's point of origin are affected first. No creature of 9 or more HD can be affected, and HD that are not sufficient to affect a creature are wasted.</p>\n</div>\n"
    },
    "tags": [],
    "activation": {
      "type": "standard"
    },
    "unchainedAction": {
      "activation": {
        "cost": 2,
        "type": "action"
      }
    },
    "range": {
      "units": "medium"
    },
    "uses": {
      "per": ""
    },
    "measureTemplate": {
      "type": "circle",
      "size": "40"
    },
    "actionType": "spellsave",
    "damage": {
      "parts": [],
      "critParts": [],
      "nonCritParts": []
    },
    "attackParts": [],
    "ability": {
      "attack": "",
      "damage": ""
    },
    "save": {
      "dc": "0",
      "type": "fort",
      "description": "Fortitude negates"
    },
    "effectNotes": [
      "Slays [[(min(20, @cl))d4]] HD worth of creatures"
    ],
    "attackNotes": [],
    "links": {
      "children": []
    },
    "flags": {
      "boolean": [],
      "dictionary": []
    },
    "scriptCalls": [],
    "learnedAt": {
      "class": [
        [
          "sorcerer/wizard",
          6
        ],
        [
          "inquisitor",
          6
        ],
        [
          "spiritualist",
          6
        ]
      ],
      "domain": [],
      "subDomain": [],
      "elementalSchool": [],
      "bloodline": [
        [
          "Daemon",
          6
        ]
      ]
    },
    "level": 6,
    "school": "nec",
    "types": "death",
    "conditionals": [],
    "components": {
      "verbal": true,
      "somatic": true,
      "material": true
    },
    "materials": {
      "value": "a crushed black pearl worth 500 gp",
      "gpValue": 500
    },
    "spellbook": "",
    "preparation": {
      "autoDeductCharges": false,
      "spontaneousPrepared": false
    },
    "shortDescription": "<p><i>Circle of Death</i> snuffs out the life force of living creatures, killing them instantly. The spell slays 1d4 HD worth of living creatures per caster level (maximum 20d4). Creatures with the fewest HD are affected first; among creatures with equal HD, those who are closest to the burst's point of origin are affected first. No creature of 9 or more HD can be affected, and HD that are not sufficient to affect a creature are wasted.</p>",
    "spellDuration": "instantaneous",
    "spellArea": "several living creatures within a 40-ft.-radius burst",
    "spellPoints": {
      "cost": ""
    }
  },
  "effects": [],
  "folder": null,
  "sort": 0,
  "permission": {
    "default": 0
  },
  "flags": {}
}