{
  "_id": "qplo1mqvwu7yi8z3",
  "name": "Cleansing Fire",
  "type": "spell",
  "img": "systems/pf1/icons/misc/magic-swirl.png",
  "data": {
    "description": {
      "value": "<div class=\"spell-description\">\n  <p>\n    <strong>School</strong>&nbsp;evocation&nbsp;[good, fire];\n    <strong>Level</strong>&nbsp;cleric/oracle 5, inquisitor 4, paladin 4;\n    \n    \n    \n    \n  </p>\n  <p>\n    <strong>Casting Time</strong>&nbsp;1 standard<br>\n    <strong>Components</strong>&nbsp;V, S, DF<br>\n  </p>\n  <p>\n    <strong>Range</strong>&nbsp;touch<br>\n    <strong>Area</strong>&nbsp;30-ft. radius emanating from the touched point<br>\n    \n    \n    <strong>Duration</strong>&nbsp;concentration, up to 1 round/level<br>\n      <strong>Saving Throw</strong>&nbsp;none;&nbsp;\n      <strong>Spell Resistance</strong>&nbsp;yes<br>\n  </p>\n  <h2>Description</h2>\n  <p>A ring of fire surrounds the area affected by the spell. The flames radiate heat, but not enough to damage adjacent creatures. The flames deal 2d6 points of fire damage to any creatures that pass through them (or 4d6 points of damage to undead creatures). If you manifest a portion of the ring in a square that contains a creature, that creature takes damage as if it passed through the ring. The ring of flames attempts to dispel all ongoing spell effects with the evil descriptor within it, targeting each spell effect once per round as per <i>dispel magic</i>. Any attempt to cast a spell with the evil descriptor inside the ring of flames is targeted by a</p>\n</div>\n"
    },
    "tags": [],
    "activation": {
      "type": "standard"
    },
    "unchainedAction": {
      "activation": {
        "cost": 2,
        "type": "action"
      }
    },
    "range": {
      "units": "touch"
    },
    "uses": {
      "per": ""
    },
    "measureTemplate": {
      "size": "0"
    },
    "actionType": "",
    "damage": {
      "parts": [],
      "critParts": [],
      "nonCritParts": []
    },
    "attackParts": [],
    "ability": {
      "attack": "",
      "damage": ""
    },
    "save": {
      "dc": "0"
    },
    "effectNotes": [],
    "attackNotes": [],
    "links": {
      "children": []
    },
    "flags": {
      "boolean": [],
      "dictionary": []
    },
    "scriptCalls": [],
    "learnedAt": {
      "class": [
        [
          "cleric/oracle",
          5
        ],
        [
          "paladin",
          4
        ],
        [
          "inquisitor",
          4
        ]
      ],
      "domain": [],
      "subDomain": [],
      "elementalSchool": [],
      "bloodline": []
    },
    "level": 5,
    "school": "evo",
    "types": "good, fire",
    "conditionals": [],
    "components": {
      "verbal": true,
      "somatic": true,
      "divineFocus": 1
    },
    "shortDescription": "<p>A ring of fire surrounds the area affected by the spell. The flames radiate heat, but not enough to damage adjacent creatures. The flames deal 2d6 points of fire damage to any creatures that pass through them (or 4d6 points of damage to undead creatures). If you manifest a portion of the ring in a square that contains a creature, that creature takes damage as if it passed through the ring. The ring of flames attempts to dispel all ongoing spell effects with the evil descriptor within it, targeting each spell effect once per round as per <i>dispel magic</i>. Any attempt to cast a spell with the evil descriptor inside the ring of flames is targeted by a</p>",
    "spellDuration": "concentration, up to 1 round/level",
    "spellArea": "30-ft. radius emanating from the touched point"
  },
  "effects": [],
  "folder": null,
  "sort": 0,
  "permission": {
    "default": 0
  },
  "flags": {}
}