{
  "_id": "pbrzdcx0iwdws1pq",
  "name": "Climbing Beanstalk",
  "type": "spell",
  "img": "systems/pf1/icons/misc/magic-swirl.png",
  "data": {
    "description": {
      "value": "<div class=\"spell-description\">\n  <p>\n    <strong>School</strong>&nbsp;conjuration&nbsp;(creation);\n    <strong>Level</strong>&nbsp;druid 2, hunter 2, witch 2;\n    \n    \n    \n    \n  </p>\n  <p>\n    <strong>Casting Time</strong>&nbsp;1 standard<br>\n    <strong>Components</strong>&nbsp;V, S, DF<br>\n  </p>\n  <p>\n    <strong>Range</strong>&nbsp;close (25 ft. + 5 ft./2 levels)<br>\n    \n    \n    <strong>Effect</strong>&nbsp;5-ft. square of climbable beanstalks<br>\n    <strong>Duration</strong>&nbsp;instantaneous<br>\n      <strong>Saving Throw</strong>&nbsp;none;&nbsp;\n      <strong>Spell Resistance</strong>&nbsp;no<br>\n  </p>\n  <h2>Description</h2>\n  <p>You cause a thick, sturdy beanstalk to sprout from the ground and grow upward to a height of 10 feet + 5 feet per 2 caster levels. The growing stalk anchors itself to sturdy objects such as walls or ceilings, and grows around objects that do not fully obstruct its square (such as tree branches), but is stopped by solid obstacles. The beanstalk provides numerous hand- and footholds; its climb DC 5. The beanstalk can support up to 200 pounds plus 50 pounds per caster level, or double that amount if anchored on its upper end. If it anchors itself to a sturdy mobile object (such as a ship or a siege engine), breaking the object free requires a DC 23 Strength check or cutting through the beanstalk (hardness 2, 40 hp).</p><p>If the ground is capable of supporting plant life, the beanstalk continues to live as a normal plant, and it produces nutritious (if unappetizing) beans. Otherwise, the plant dies after 1d6 hours; its husk remains as durable as a small tree.</p>\n</div>\n"
    },
    "tags": [],
    "activation": {
      "type": "standard"
    },
    "unchainedAction": {
      "activation": {
        "cost": 2,
        "type": "action"
      }
    },
    "range": {
      "units": "close"
    },
    "uses": {
      "per": ""
    },
    "measureTemplate": {
      "size": "0"
    },
    "actionType": "other",
    "damage": {
      "parts": [],
      "critParts": [],
      "nonCritParts": []
    },
    "attackParts": [],
    "ability": {
      "attack": "",
      "damage": ""
    },
    "save": {
      "dc": "0"
    },
    "effectNotes": [],
    "attackNotes": [],
    "links": {
      "children": []
    },
    "flags": {
      "boolean": [],
      "dictionary": []
    },
    "scriptCalls": [],
    "learnedAt": {
      "class": [
        [
          "druid",
          2
        ],
        [
          "witch",
          2
        ],
        [
          "hunter",
          2
        ]
      ],
      "domain": [],
      "subDomain": [],
      "elementalSchool": [],
      "bloodline": []
    },
    "level": 2,
    "school": "con",
    "subschool": "creation",
    "conditionals": [],
    "components": {
      "verbal": true,
      "somatic": true,
      "divineFocus": 1
    },
    "sr": false,
    "shortDescription": "<p>You cause a thick, sturdy beanstalk to sprout from the ground and grow upward to a height of 10 feet + 5 feet per 2 caster levels. The growing stalk anchors itself to sturdy objects such as walls or ceilings, and grows around objects that do not fully obstruct its square (such as tree branches), but is stopped by solid obstacles. The beanstalk provides numerous hand- and footholds; its climb DC 5. The beanstalk can support up to 200 pounds plus 50 pounds per caster level, or double that amount if anchored on its upper end. If it anchors itself to a sturdy mobile object (such as a ship or a siege engine), breaking the object free requires a DC 23 Strength check or cutting through the beanstalk (hardness 2, 40 hp).</p><p>If the ground is capable of supporting plant life, the beanstalk continues to live as a normal plant, and it produces nutritious (if unappetizing) beans. Otherwise, the plant dies after 1d6 hours; its husk remains as durable as a small tree.</p>",
    "spellDuration": "instantaneous",
    "spellEffect": "5-ft. square of climbable beanstalks"
  },
  "effects": [],
  "folder": null,
  "sort": 0,
  "permission": {
    "default": 0
  },
  "flags": {}
}