{
  "_id": "kjw6oazi96eg90z8",
  "name": "Contagious Suggestion",
  "type": "spell",
  "img": "systems/pf1/icons/misc/magic-swirl.png",
  "data": {
    "description": {
      "value": "<div class=\"spell-description\">\n  <p>\n    <strong>School</strong>&nbsp;enchantment&nbsp;(compulsion)&nbsp;[language-dependent, mind-affecting];\n    <strong>Level</strong>&nbsp;bard 4, medium 4, mesmerist 4, occultist 5, psychic 5, sorcerer/wizard 5, witch 5;\n    \n    \n    \n    \n  </p>\n  <p>\n    <strong>Casting Time</strong>&nbsp;1 standard<br>\n    <strong>Components</strong>&nbsp;V, S<br>\n  </p>\n  <p>\n    <strong>Range</strong>&nbsp;close (25 ft. + 5 ft./2 levels)<br>\n    \n    <strong>Targets</strong>&nbsp;one living creature<br>\n    \n    <strong>Duration</strong>&nbsp;1 hour/level or until completed (D)<br>\n      <strong>Saving Throw</strong>&nbsp;none;&nbsp;\n      <strong>Spell Resistance</strong>&nbsp;no<br>\n  </p>\n  <h2>Description</h2>\n  <p>This spell functions as per <i>suggestion</i>, except the target can pass on the enchantment to other targets. The target is compelled to communicate your <i>suggestion</i> to another creature, forcing the new target to attempt a saving throw as if it were the initial target. If a secondary target successfully saves, the <i>suggestion</i> effect on the initial target isn't negated. If a secondary target fails, it is placed under the same compulsion as the initial target and can further spread the <i>suggestion</i>. This spell can affect a total number of Hit Dice of creatures equal to your caster level. Creatures that save against this spell cannot be affected by that particular casting of contagious <i>suggestion</i> for 24 hours.</p>\n</div>\n"
    },
    "tags": [],
    "activation": {
      "type": "standard"
    },
    "unchainedAction": {
      "activation": {
        "cost": 2,
        "type": "action"
      }
    },
    "target": {
      "value": "one living creature"
    },
    "range": {
      "units": "close"
    },
    "uses": {
      "per": ""
    },
    "measureTemplate": {
      "size": "0"
    },
    "actionType": "",
    "damage": {
      "parts": [],
      "critParts": [],
      "nonCritParts": []
    },
    "attackParts": [],
    "ability": {
      "attack": "",
      "damage": ""
    },
    "save": {
      "dc": "0"
    },
    "effectNotes": [],
    "attackNotes": [],
    "links": {
      "children": []
    },
    "flags": {
      "boolean": [],
      "dictionary": []
    },
    "scriptCalls": [],
    "learnedAt": {
      "class": [
        [
          "sorcerer/wizard",
          5
        ],
        [
          "bard",
          4
        ],
        [
          "witch",
          5
        ],
        [
          "psychic",
          5
        ],
        [
          "medium",
          4
        ],
        [
          "mesmerist",
          4
        ],
        [
          "occultist",
          5
        ]
      ],
      "domain": [],
      "subDomain": [],
      "elementalSchool": [],
      "bloodline": []
    },
    "level": 5,
    "school": "enc",
    "subschool": "compulsion",
    "types": "language-dependent, mind-affecting",
    "conditionals": [],
    "components": {
      "verbal": true,
      "somatic": true
    },
    "sr": false,
    "shortDescription": "<p>This spell functions as per <i>suggestion</i>, except the target can pass on the enchantment to other targets. The target is compelled to communicate your <i>suggestion</i> to another creature, forcing the new target to attempt a saving throw as if it were the initial target. If a secondary target successfully saves, the <i>suggestion</i> effect on the initial target isn't negated. If a secondary target fails, it is placed under the same compulsion as the initial target and can further spread the <i>suggestion</i>. This spell can affect a total number of Hit Dice of creatures equal to your caster level. Creatures that save against this spell cannot be affected by that particular casting of contagious <i>suggestion</i> for 24 hours.</p>",
    "spellDuration": "1 hour/level or until completed (D)"
  },
  "effects": [],
  "folder": null,
  "sort": 0,
  "permission": {
    "default": 0
  },
  "flags": {}
}