{
  "_id": "0rhghy2ft8l9buyt",
  "name": "Cursed Earth",
  "type": "spell",
  "img": "systems/pf1/icons/misc/magic-swirl.png",
  "data": {
    "description": {
      "value": "<div class=\"spell-description\">\n  <p>\n    <strong>School</strong>&nbsp;necromancy&nbsp;[curse, evil, see text];\n    <strong>Level</strong>&nbsp;cleric/oracle 9, sorcerer/wizard 9, witch 9;\n    \n    \n    \n    \n  </p>\n  <p>\n    <strong>Casting Time</strong>&nbsp;10 minutes<br>\n    <strong>Components</strong>&nbsp;V, S, M (powdered onyx 10,000 gp), DF<br>\n  </p>\n  <p>\n    <strong>Range</strong>&nbsp;touch<br>\n    <strong>Area</strong>&nbsp;1-mile radius emanating from the touched point<br>\n    \n    \n    <strong>Duration</strong>&nbsp;permanent<br>\n      <strong>Saving Throw</strong>&nbsp;none (see text);&nbsp;\n      <strong>Spell Resistance</strong>&nbsp;no<br>\n  </p>\n  <h2>Description</h2>\n  <p>You lay a terrible curse upon the land, blighting those who live and die there. Choose one of the following effects.</p><p>Famine: All normal plants in the area reduce their growth and food production by half, as if affected by the stunt growth effect of <i>diminish plants</i>.</p><p><i>Living</i> Death: Any creatures of Small size or larger killed in the area rise as uncontrolled zombies 24 hours after their death, as do corpses buried in the area. Burning or dismembering the corpses prevents them from rising as zombies.</p><p>Plague: Every day at sundown, all creatures in the area must make a Fortitude save or catch one of the following diseases (your choice, decided at the time of casting): blinding sickness, bubonic plague, cackle fever, filth fever, leprosy, mindfire, red ache, shakes, or slimy doom. The disease is contracted immediately (the onset period does not apply). Use the disease's listed frequency and save DC to determine further effects. This is a disease effect.</p>\n</div>\n"
    },
    "tags": [],
    "activation": {
      "cost": 10,
      "type": "minute"
    },
    "unchainedAction": {
      "activation": {
        "cost": 10,
        "type": "minute"
      }
    },
    "range": {
      "units": "touch"
    },
    "uses": {
      "per": ""
    },
    "measureTemplate": {
      "size": "0"
    },
    "actionType": "spellsave",
    "damage": {
      "parts": [],
      "critParts": [],
      "nonCritParts": []
    },
    "attackParts": [],
    "ability": {
      "attack": "",
      "damage": ""
    },
    "save": {
      "dc": "0",
      "description": "none (see text)"
    },
    "effectNotes": [],
    "attackNotes": [],
    "links": {
      "children": []
    },
    "flags": {
      "boolean": [],
      "dictionary": []
    },
    "scriptCalls": [],
    "learnedAt": {
      "class": [
        [
          "sorcerer/wizard",
          9
        ],
        [
          "cleric/oracle",
          9
        ],
        [
          "witch",
          9
        ]
      ],
      "domain": [],
      "subDomain": [],
      "elementalSchool": [],
      "bloodline": []
    },
    "level": 9,
    "school": "nec",
    "types": "curse, evil, see text",
    "conditionals": [],
    "components": {
      "verbal": true,
      "somatic": true,
      "material": true,
      "divineFocus": 1
    },
    "materials": {
      "value": "powdered onyx 10,000 gp",
      "gpValue": 10000
    },
    "spellbook": "",
    "preparation": {
      "autoDeductCharges": false,
      "spontaneousPrepared": false
    },
    "sr": false,
    "shortDescription": "<p>You lay a terrible curse upon the land, blighting those who live and die there. Choose one of the following effects.</p><p>Famine: All normal plants in the area reduce their growth and food production by half, as if affected by the stunt growth effect of <i>diminish plants</i>.</p><p><i>Living</i> Death: Any creatures of Small size or larger killed in the area rise as uncontrolled zombies 24 hours after their death, as do corpses buried in the area. Burning or dismembering the corpses prevents them from rising as zombies.</p><p>Plague: Every day at sundown, all creatures in the area must make a Fortitude save or catch one of the following diseases (your choice, decided at the time of casting): blinding sickness, bubonic plague, cackle fever, filth fever, leprosy, mindfire, red ache, shakes, or slimy doom. The disease is contracted immediately (the onset period does not apply). Use the disease's listed frequency and save DC to determine further effects. This is a disease effect.</p>",
    "spellDuration": "permanent",
    "spellArea": "1-mile radius emanating from the touched point",
    "spellPoints": {
      "cost": ""
    }
  },
  "effects": [],
  "folder": null,
  "sort": 0,
  "permission": {
    "default": 0
  },
  "flags": {}
}