{
  "_id": "zyzlq7sbjvozd6mb",
  "name": "Curse of the Outcast",
  "type": "spell",
  "img": "systems/pf1/icons/misc/magic-swirl.png",
  "data": {
    "description": {
      "value": "<div class=\"spell-description\">\n  <p>\n    <strong>School</strong>&nbsp;enchantment&nbsp;(compulsion)&nbsp;[curse, emotion, mind-affecting];\n    <strong>Level</strong>&nbsp;bard 4, cleric/oracle 6, inquisitor 4, mesmerist 4, shaman 6, witch 6;\n    \n    \n    \n    \n  </p>\n  <p>\n    <strong>Casting Time</strong>&nbsp;1 standard<br>\n    <strong>Components</strong>&nbsp;V, S, M (a handful of earthworms)<br>\n  </p>\n  <p>\n    <strong>Range</strong>&nbsp;close (25 ft. + 5 ft./2 levels)<br>\n    \n    <strong>Targets</strong>&nbsp;one creature<br>\n    \n    <strong>Duration</strong>&nbsp;permanent<br>\n      <strong>Saving Throw</strong>&nbsp;Will negates;&nbsp;\n      <strong>Spell Resistance</strong>&nbsp;yes<br>\n  </p>\n  <h2>Description</h2>\n  <p>Everything about the target seems off-putting and grating, and everyone he meets is compelled to see the worst in him.  Whenever the target attempts a Bluff, Diplomacy, Intimidate, or Perform check, he must roll twice and take the lower result. Additionally, each creature he encounters has its initial attitude toward him reduced by one step (helpful becomes friendly, friendly becomes indifferent, and so on).</p>\n</div>\n"
    },
    "tags": [],
    "activation": {
      "type": "standard"
    },
    "unchainedAction": {
      "activation": {
        "cost": 2,
        "type": "action"
      }
    },
    "target": {
      "value": "one creature"
    },
    "range": {
      "units": "close"
    },
    "uses": {
      "per": ""
    },
    "measureTemplate": {
      "size": "0"
    },
    "actionType": "spellsave",
    "damage": {
      "parts": [],
      "critParts": [],
      "nonCritParts": []
    },
    "attackParts": [],
    "ability": {
      "attack": "",
      "damage": ""
    },
    "save": {
      "dc": "0",
      "type": "will",
      "description": "Will negates"
    },
    "effectNotes": [],
    "attackNotes": [],
    "links": {
      "children": []
    },
    "flags": {
      "boolean": [],
      "dictionary": []
    },
    "scriptCalls": [],
    "learnedAt": {
      "class": [
        [
          "cleric/oracle",
          6
        ],
        [
          "bard",
          4
        ],
        [
          "witch",
          6
        ],
        [
          "inquisitor",
          4
        ],
        [
          "shaman",
          6
        ],
        [
          "mesmerist",
          4
        ]
      ],
      "domain": [],
      "subDomain": [],
      "elementalSchool": [],
      "bloodline": []
    },
    "level": 6,
    "school": "enc",
    "subschool": "compulsion",
    "types": "curse, emotion, mind-affecting",
    "conditionals": [],
    "components": {
      "verbal": true,
      "somatic": true,
      "material": true
    },
    "materials": {
      "value": "a handful of earthworms"
    },
    "shortDescription": "<p>Everything about the target seems off-putting and grating, and everyone he meets is compelled to see the worst in him.  Whenever the target attempts a Bluff, Diplomacy, Intimidate, or Perform check, he must roll twice and take the lower result. Additionally, each creature he encounters has its initial attitude toward him reduced by one step (helpful becomes friendly, friendly becomes indifferent, and so on).</p>",
    "spellDuration": "permanent"
  },
  "effects": [],
  "folder": null,
  "sort": 0,
  "permission": {
    "default": 0
  },
  "flags": {}
}