{
  "_id": "jdsvncnna6oy189a",
  "name": "Deeper Darkness",
  "type": "spell",
  "img": "systems/pf1/icons/misc/magic-swirl.png",
  "data": {
    "description": {
      "value": "<div class=\"spell-description\">\n  <p>\n    <strong>School</strong>&nbsp;evocation&nbsp;[darkness];\n    <strong>Level</strong>&nbsp;adept 3, cleric/oracle 3, occultist 3, shaman 3;\n    <strong>Domain</strong>&nbsp;Darkness 3;\n    \n    \n    <strong>Bloodline</strong>&nbsp;Div 3, Shadow 3;\n  </p>\n  <p>\n    <strong>Casting Time</strong>&nbsp;1 standard<br>\n    <strong>Components</strong>&nbsp;V, M/DF (bat fur and a piece of coal)<br>\n  </p>\n  <p>\n    <strong>Range</strong>&nbsp;touch<br>\n    \n    <strong>Targets</strong>&nbsp;object touched<br>\n    \n    <strong>Duration</strong>&nbsp;10 min./level (D)<br>\n      <strong>Saving Throw</strong>&nbsp;none;&nbsp;\n      <strong>Spell Resistance</strong>&nbsp;no<br>\n  </p>\n  <h2>Description</h2>\n  <p>This spell functions as <i>darkness</i>, except that objects radiate <i>darkness</i> in a 60-foot radius and the light level is lowered by two steps. Bright light becomes dim light and normal light becomes <i>darkness</i>. Areas of dim light and <i>darkness</i> become supernaturally dark. This functions like <i>darkness</i>, but even creatures with darkvision cannot see within the spell's confines.</p><p>This spell does not stack with itself. <b>Deeper</b> <i>darkness</i> can be used to counter or dispel any light spell of equal or lower spell level.</p>\n</div>\n"
    },
    "tags": [],
    "activation": {
      "type": "standard"
    },
    "unchainedAction": {
      "activation": {
        "cost": 2,
        "type": "action"
      }
    },
    "target": {
      "value": "object touched"
    },
    "range": {
      "units": "touch"
    },
    "uses": {
      "per": ""
    },
    "measureTemplate": {
      "type": "circle",
      "size": "60"
    },
    "actionType": "",
    "damage": {
      "parts": [],
      "critParts": [],
      "nonCritParts": []
    },
    "attackParts": [],
    "ability": {
      "attack": "",
      "damage": ""
    },
    "save": {
      "dc": "0"
    },
    "effectNotes": [],
    "attackNotes": [],
    "links": {
      "children": []
    },
    "flags": {
      "boolean": [],
      "dictionary": []
    },
    "scriptCalls": [],
    "learnedAt": {
      "class": [
        [
          "cleric/oracle",
          3
        ],
        [
          "adept",
          3
        ],
        [
          "shaman",
          3
        ],
        [
          "occultist",
          3
        ]
      ],
      "domain": [
        [
          "Darkness",
          3
        ]
      ],
      "subDomain": [],
      "elementalSchool": [],
      "bloodline": [
        [
          "Shadow",
          3
        ],
        [
          "Div",
          3
        ]
      ]
    },
    "level": 3,
    "school": "evo",
    "types": "darkness",
    "conditionals": [],
    "components": {
      "verbal": true,
      "material": true,
      "divineFocus": 2
    },
    "materials": {
      "value": "bat fur and a piece of coal"
    },
    "sr": false,
    "shortDescription": "<p>This spell functions as <i>darkness</i>, except that objects radiate <i>darkness</i> in a 60-foot radius and the light level is lowered by two steps. Bright light becomes dim light and normal light becomes <i>darkness</i>. Areas of dim light and <i>darkness</i> become supernaturally dark. This functions like <i>darkness</i>, but even creatures with darkvision cannot see within the spell's confines.</p><p>This spell does not stack with itself. <b>Deeper</b> <i>darkness</i> can be used to counter or dispel any light spell of equal or lower spell level.</p>",
    "spellDuration": "10 min./level (D)"
  },
  "effects": [],
  "folder": null,
  "sort": 0,
  "permission": {
    "default": 0
  },
  "flags": {}
}