{
  "_id": "sq5lzym6a8mmfl7l",
  "name": "Defoliate",
  "type": "spell",
  "img": "systems/pf1/icons/misc/magic-swirl.png",
  "data": {
    "description": {
      "value": "<div class=\"spell-description\">\n  <p>\n    <strong>School</strong>&nbsp;necromancy;\n    <strong>Level</strong>&nbsp;druid 2, hunter 1, ranger 1, sorcerer/wizard 2;\n    \n    <strong>Subdomain</strong>&nbsp;Radiation 8;\n    \n    \n  </p>\n  <p>\n    <strong>Casting Time</strong>&nbsp;1 standard<br>\n    <strong>Components</strong>&nbsp;V, S, M (a locust)<br>\n  </p>\n  <p>\n    <strong>Range</strong>&nbsp;close (25 ft. + 5 ft./2 levels)<br>\n    <strong>Area</strong>&nbsp;see text<br>\n    <strong>Targets</strong>&nbsp;see text<br>\n    \n    <strong>Duration</strong>&nbsp;instantaneous<br>\n      <strong>Saving Throw</strong>&nbsp;none;&nbsp;\n      <strong>Spell Resistance</strong>&nbsp;yes<br>\n  </p>\n  <h2>Description</h2>\n  <p>You hurl a tiny ball of negative energy, destroying plant life either in a line 60 feet long or a 10-foot-radius spread. This effect removes the cover and concealment provided by trees and undergrowth, eliminates the movement penalties associated with undergrowth, and so forth.</p><p>You may also target a single plant creature with this spell.</p><p>You must succeed on a ranged touch attack to hit your target.</p><p>An affected plant creature takes 2d8 points of damage.</p>\n</div>\n"
    },
    "tags": [],
    "activation": {
      "type": "standard"
    },
    "unchainedAction": {
      "activation": {
        "cost": 2,
        "type": "action"
      }
    },
    "target": {
      "value": "see text"
    },
    "range": {
      "units": "close"
    },
    "uses": {
      "per": ""
    },
    "measureTemplate": {
      "size": "0"
    },
    "actionType": "",
    "damage": {
      "parts": [],
      "critParts": [],
      "nonCritParts": []
    },
    "attackParts": [],
    "ability": {
      "attack": "",
      "damage": ""
    },
    "save": {
      "dc": "0"
    },
    "effectNotes": [],
    "attackNotes": [],
    "links": {
      "children": []
    },
    "flags": {
      "boolean": [],
      "dictionary": []
    },
    "scriptCalls": [],
    "learnedAt": {
      "class": [
        [
          "sorcerer/wizard",
          2
        ],
        [
          "druid",
          2
        ],
        [
          "ranger",
          1
        ],
        [
          "hunter",
          1
        ]
      ],
      "domain": [],
      "subDomain": [
        [
          "Radiation",
          8
        ]
      ],
      "elementalSchool": [],
      "bloodline": []
    },
    "level": 2,
    "school": "nec",
    "conditionals": [],
    "components": {
      "verbal": true,
      "somatic": true,
      "material": true
    },
    "materials": {
      "value": "a locust"
    },
    "shortDescription": "<p>You hurl a tiny ball of negative energy, destroying plant life either in a line 60 feet long or a 10-foot-radius spread. This effect removes the cover and concealment provided by trees and undergrowth, eliminates the movement penalties associated with undergrowth, and so forth.</p><p>You may also target a single plant creature with this spell.</p><p>You must succeed on a ranged touch attack to hit your target.</p><p>An affected plant creature takes 2d8 points of damage.</p>",
    "spellDuration": "instantaneous",
    "spellArea": "see text"
  },
  "effects": [],
  "folder": null,
  "sort": 0,
  "permission": {
    "default": 0
  },
  "flags": {}
}