{
  "_id": "aa0w7tk852iqn3ni",
  "name": "Detect Undead",
  "type": "spell",
  "img": "systems/pf1/icons/misc/magic-swirl.png",
  "data": {
    "description": {
      "value": "<div class=\"spell-description\">\n  <p>\n    <strong>School</strong>&nbsp;divination;\n    <strong>Level</strong>&nbsp;alchemist 1, cleric/oracle 1, inquisitor 1, medium 1, mesmerist 1, paladin 1, psychic 1, shaman 1, sorcerer/wizard 1, spiritualist 1;\n    \n    \n    \n    \n  </p>\n  <p>\n    <strong>Casting Time</strong>&nbsp;1 standard<br>\n    <strong>Components</strong>&nbsp;V, S, M/DF (earth from a grave)<br>\n  </p>\n  <p>\n    <strong>Range</strong>&nbsp;60 feet<br>\n    <strong>Area</strong>&nbsp;cone-shaped emanation<br>\n    \n    \n    <strong>Duration</strong>&nbsp;concentration, up to 1 minute/level<br>\n      <strong>Saving Throw</strong>&nbsp;none;&nbsp;\n      <strong>Spell Resistance</strong>&nbsp;no<br>\n  </p>\n  <h2>Description</h2>\n  <p>You can detect the aura that surrounds undead creatures. The amount of information revealed depends on how long you study a particular area.</p><p><i>1st Round</i>: Presence or absence of undead auras.</p><p><i>2nd Round</i>: Number of undead auras in the area and the strength of the strongest undead aura present. If you are of good alignment, and the strongest undead aura's strength is overwhelming (see below), and the creature has HD of at least twice your character level, you are stunned for 1 round and the spell ends.</p><p><i>3rd Round</i>: The strength and location of each undead aura. If an aura is outside your line of sight, then you discern its direction but not its exact location.</p><p><i>Aura Strength</i>: The strength of an undead aura is determined by the HD of the undead creature, as given on the table below.</p><p><i>Lingering Aura</i>: An undead aura lingers after its original source is destroyed. If detect undead is cast and directed at such a location, the spell indicates an aura strength of dim (even weaker than a faint aura). How long the aura lingers at this dim level depends on its original power, as given on the table below.</p><p><table><tr><th>HD</th><th>Strength</th><th>Lingering Aura Duration</th></tr> <tr><td>1 or lower</td><td>Faint</td><td>1d6 rounds</td></tr> <tr><td>2-4</td><td>Moderate</td><td>1d6 minutes</td></tr> <tr><td>5-10</td><td>Strong</td><td>1d6 x 10 minutes</td></tr> <tr><td>11 or higher</td><td>Overwhelming</td><td>1d6 days</td></tr></table>  Each round, you can turn to detect undead in a new area. The spell can penetrate barriers, but 1 foot of stone, 1 inch of common metal, a thin sheet of lead, or 3 feet of wood or dirt blocks it.</p>\n</div>\n"
    },
    "tags": [],
    "activation": {
      "type": "standard"
    },
    "unchainedAction": {
      "activation": {
        "cost": 2,
        "type": "action"
      }
    },
    "range": {
      "value": 60,
      "units": "ft"
    },
    "uses": {
      "per": ""
    },
    "measureTemplate": {
      "size": "0"
    },
    "actionType": "",
    "damage": {
      "parts": [],
      "critParts": [],
      "nonCritParts": []
    },
    "attackParts": [],
    "ability": {
      "attack": "",
      "damage": ""
    },
    "save": {
      "dc": "0"
    },
    "effectNotes": [],
    "attackNotes": [],
    "links": {
      "children": []
    },
    "flags": {
      "boolean": [],
      "dictionary": []
    },
    "scriptCalls": [],
    "learnedAt": {
      "class": [
        [
          "sorcerer/wizard",
          1
        ],
        [
          "cleric/oracle",
          1
        ],
        [
          "paladin",
          1
        ],
        [
          "alchemist",
          1
        ],
        [
          "inquisitor",
          1
        ],
        [
          "shaman",
          1
        ],
        [
          "psychic",
          1
        ],
        [
          "medium",
          1
        ],
        [
          "mesmerist",
          1
        ],
        [
          "spiritualist",
          1
        ]
      ],
      "domain": [],
      "subDomain": [],
      "elementalSchool": [],
      "bloodline": []
    },
    "school": "div",
    "conditionals": [],
    "components": {
      "verbal": true,
      "somatic": true,
      "material": true,
      "divineFocus": 2
    },
    "materials": {
      "value": "earth from a grave"
    },
    "sr": false,
    "shortDescription": "<p>You can detect the aura that surrounds undead creatures. The amount of information revealed depends on how long you study a particular area.</p><p><i>1st Round</i>: Presence or absence of undead auras.</p><p><i>2nd Round</i>: Number of undead auras in the area and the strength of the strongest undead aura present. If you are of good alignment, and the strongest undead aura's strength is overwhelming (see below), and the creature has HD of at least twice your character level, you are stunned for 1 round and the spell ends.</p><p><i>3rd Round</i>: The strength and location of each undead aura. If an aura is outside your line of sight, then you discern its direction but not its exact location.</p><p><i>Aura Strength</i>: The strength of an undead aura is determined by the HD of the undead creature, as given on the table below.</p><p><i>Lingering Aura</i>: An undead aura lingers after its original source is destroyed. If detect undead is cast and directed at such a location, the spell indicates an aura strength of dim (even weaker than a faint aura). How long the aura lingers at this dim level depends on its original power, as given on the table below.</p><p><table><tr><th>HD</th><th>Strength</th><th>Lingering Aura Duration</th></tr> <tr><td>1 or lower</td><td>Faint</td><td>1d6 rounds</td></tr> <tr><td>2-4</td><td>Moderate</td><td>1d6 minutes</td></tr> <tr><td>5-10</td><td>Strong</td><td>1d6 x 10 minutes</td></tr> <tr><td>11 or higher</td><td>Overwhelming</td><td>1d6 days</td></tr></table>  Each round, you can turn to detect undead in a new area. The spell can penetrate barriers, but 1 foot of stone, 1 inch of common metal, a thin sheet of lead, or 3 feet of wood or dirt blocks it.</p>",
    "spellDuration": "concentration, up to 1 minute/level",
    "spellArea": "cone-shaped emanation"
  },
  "effects": [],
  "folder": null,
  "sort": 0,
  "permission": {
    "default": 0
  },
  "flags": {}
}