{
  "_id": "0vmz2klcfvkc3h0v",
  "name": "Dimensional Anchor",
  "type": "spell",
  "img": "systems/pf1/icons/misc/magic-swirl.png",
  "data": {
    "description": {
      "value": "<div class=\"spell-description\">\n  <p>\n    <strong>School</strong>&nbsp;abjuration;\n    <strong>Level</strong>&nbsp;cleric/oracle 4, inquisitor 3, medium 3, occultist 4, psychic 4, sorcerer/wizard 4, spiritualist 4, summoner 3, unchained Summoner 4;\n    \n    <strong>Subdomain</strong>&nbsp;Wards 4;\n    \n    \n  </p>\n  <p>\n    <strong>Casting Time</strong>&nbsp;1 standard<br>\n    <strong>Components</strong>&nbsp;V, S<br>\n  </p>\n  <p>\n    <strong>Range</strong>&nbsp;medium (100 ft. + 10 ft./level)<br>\n    \n    \n    <strong>Effect</strong>&nbsp;ray<br>\n    <strong>Duration</strong>&nbsp;1 min./level<br>\n      <strong>Saving Throw</strong>&nbsp;none;&nbsp;\n      <strong>Spell Resistance</strong>&nbsp;yes<br>\n  </p>\n  <h2>Description</h2>\n  <p>A green ray springs from your hand. You must make a ranged touch attack to hit the target. Any creature or object struck by the ray is covered with a shimmering emerald field that completely blocks extradimensional travel. Forms of movement barred by a <i>dimensional anchor</i> include <i>astral projection</i>, <i>blink</i>, <i>dimension door</i>, <i>ethereal jaunt</i>, <i>etherealness</i>, <i>gate</i>, <i>maze</i>, <i>plane shift</i>, <i>shadow walk</i>, <i>teleport</i>, and similar spell-like abilities. The spell also prevents the use of a <i>gate</i> or <i>teleportation circle</i> for the duration of the spell.</p><p>A <i>dimensional anchor</i> does not interfere with the movement of creatures already in ethereal or astral form when the spell is cast, nor does it block extradimensional perception or attack forms. Also, <i>dimensional anchor</i> does not prevent summoned creatures from disappearing at the end of a summoning spell.</p>\n</div>\n"
    },
    "tags": [],
    "activation": {
      "type": "standard"
    },
    "unchainedAction": {
      "activation": {
        "cost": 2,
        "type": "action"
      }
    },
    "range": {
      "units": "medium"
    },
    "uses": {
      "per": ""
    },
    "measureTemplate": {
      "size": "0"
    },
    "actionType": "rsak",
    "damage": {
      "parts": [],
      "critParts": [],
      "nonCritParts": []
    },
    "attackParts": [],
    "ability": {
      "attack": "dex",
      "damage": ""
    },
    "save": {
      "dc": "0"
    },
    "effectNotes": [],
    "attackNotes": [],
    "links": {
      "children": []
    },
    "flags": {
      "boolean": [],
      "dictionary": []
    },
    "scriptCalls": [],
    "learnedAt": {
      "class": [
        [
          "sorcerer/wizard",
          4
        ],
        [
          "cleric/oracle",
          4
        ],
        [
          "summoner",
          3
        ],
        [
          "inquisitor",
          3
        ],
        [
          "psychic",
          4
        ],
        [
          "medium",
          3
        ],
        [
          "occultist",
          4
        ],
        [
          "spiritualist",
          4
        ],
        [
          "unchained Summoner",
          4
        ]
      ],
      "domain": [],
      "subDomain": [
        [
          "Wards",
          4
        ]
      ],
      "elementalSchool": [],
      "bloodline": []
    },
    "level": 4,
    "school": "abj",
    "conditionals": [],
    "components": {
      "verbal": true,
      "somatic": true
    },
    "shortDescription": "<p>A green ray springs from your hand. You must make a ranged touch attack to hit the target. Any creature or object struck by the ray is covered with a shimmering emerald field that completely blocks extradimensional travel. Forms of movement barred by a <i>dimensional anchor</i> include <i>astral projection</i>, <i>blink</i>, <i>dimension door</i>, <i>ethereal jaunt</i>, <i>etherealness</i>, <i>gate</i>, <i>maze</i>, <i>plane shift</i>, <i>shadow walk</i>, <i>teleport</i>, and similar spell-like abilities. The spell also prevents the use of a <i>gate</i> or <i>teleportation circle</i> for the duration of the spell.</p><p>A <i>dimensional anchor</i> does not interfere with the movement of creatures already in ethereal or astral form when the spell is cast, nor does it block extradimensional perception or attack forms. Also, <i>dimensional anchor</i> does not prevent summoned creatures from disappearing at the end of a summoning spell.</p>",
    "spellDuration": "1 min./level",
    "spellEffect": "ray"
  },
  "effects": [],
  "folder": null,
  "sort": 0,
  "permission": {
    "default": 0
  },
  "flags": {}
}