{
  "_id": "1wzevbmg7e87sc3p",
  "name": "Diminished Detection",
  "type": "spell",
  "img": "systems/pf1/icons/misc/magic-swirl.png",
  "data": {
    "description": {
      "value": "<div class=\"spell-description\">\n  <p>\n    <strong>School</strong>&nbsp;abjuration;\n    <strong>Level</strong>&nbsp;alchemist 2, bard 2, sorcerer/wizard 2, witch 2;\n    \n    \n    \n    \n  </p>\n  <p>\n    <strong>Casting Time</strong>&nbsp;1 standard<br>\n    <strong>Components</strong>&nbsp;V, S, M (a piece of wool)<br>\n  </p>\n  <p>\n    <strong>Range</strong>&nbsp;personal<br>\n    \n    <strong>Targets</strong>&nbsp;you<br>\n    \n    <strong>Duration</strong>&nbsp;1 hour/level<br>\n  </p>\n  <h2>Description</h2>\n  <p>You can avoid being <i>detect</i>ed when you are on the edges of some divination spells' ranges. Whenever you would normally be within the area of effect of a <i>detect</i>ion spell (such as <i><i>detect</i> magic</i>, <i><i>detect</i> evil</i>, or <i>detect</i> undead), the area of effect is reduced by half for the purposes of the spell's caster <i>detect</i>ing you or your possessions. The caster of the <i>detect</i> spell is unaware of this reduction in her spell's range; she simply does not <i>detect</i> you.</p>\n</div>\n"
    },
    "tags": [],
    "activation": {
      "type": "standard"
    },
    "unchainedAction": {
      "activation": {
        "cost": 2,
        "type": "action"
      }
    },
    "target": {
      "value": "you"
    },
    "range": {
      "units": "personal"
    },
    "uses": {
      "per": ""
    },
    "measureTemplate": {
      "size": "0"
    },
    "actionType": "",
    "damage": {
      "parts": [],
      "critParts": [],
      "nonCritParts": []
    },
    "attackParts": [],
    "ability": {
      "attack": "",
      "damage": ""
    },
    "save": {
      "dc": "0"
    },
    "effectNotes": [],
    "attackNotes": [],
    "links": {
      "children": []
    },
    "flags": {
      "boolean": [],
      "dictionary": []
    },
    "scriptCalls": [],
    "learnedAt": {
      "class": [
        [
          "sorcerer/wizard",
          2
        ],
        [
          "bard",
          2
        ],
        [
          "alchemist",
          2
        ],
        [
          "witch",
          2
        ]
      ],
      "domain": [],
      "subDomain": [],
      "elementalSchool": [],
      "bloodline": []
    },
    "level": 2,
    "school": "abj",
    "conditionals": [],
    "components": {
      "verbal": true,
      "somatic": true,
      "material": true
    },
    "materials": {
      "value": "a piece of wool"
    },
    "sr": false,
    "shortDescription": "<p>You can avoid being <i>detect</i>ed when you are on the edges of some divination spells' ranges. Whenever you would normally be within the area of effect of a <i>detect</i>ion spell (such as <i><i>detect</i> magic</i>, <i><i>detect</i> evil</i>, or <i>detect</i> undead), the area of effect is reduced by half for the purposes of the spell's caster <i>detect</i>ing you or your possessions. The caster of the <i>detect</i> spell is unaware of this reduction in her spell's range; she simply does not <i>detect</i> you.</p>",
    "spellDuration": "1 hour/level"
  },
  "effects": [],
  "folder": null,
  "sort": 0,
  "permission": {
    "default": 0
  },
  "flags": {}
}