{
  "_id": "0yvwyclhkf76veo1",
  "name": "Divine Power",
  "type": "spell",
  "img": "systems/pf1/icons/misc/magic-swirl.png",
  "data": {
    "description": {
      "value": "<div class=\"spell-description\">\n  <p>\n    <strong>School</strong>&nbsp;evocation;\n    <strong>Level</strong>&nbsp;cleric/oracle 4, inquisitor 4, shaman 4;\n    <strong>Domain</strong>&nbsp;War 4;\n    \n    \n    \n  </p>\n  <p>\n    <strong>Casting Time</strong>&nbsp;1 standard<br>\n    <strong>Components</strong>&nbsp;V, S, DF<br>\n  </p>\n  <p>\n    <strong>Range</strong>&nbsp;personal<br>\n    \n    <strong>Targets</strong>&nbsp;you<br>\n    \n    <strong>Duration</strong>&nbsp;1 round/level<br>\n  </p>\n  <h2>Description</h2>\n  <p>Calling upon the divine power of your patron, you imbue yourself with strength and skill in combat. You gain a +1 luck bonus on attack rolls, weapon damage rolls, Strength checks, and Strength-based skill checks for every three caster levels you have (maximum +6). You also gain 1 temporary hit point per caster level. Whenever you make a full-attack action, you can make an additional attack at your full base attack bonus, plus any appropriate modifiers. This additional attack is not cumulative with similar effects, such as <i>haste</i> or weapons with the speed special ability.</p>\n</div>\n"
    },
    "tags": [],
    "activation": {
      "type": "standard"
    },
    "unchainedAction": {
      "activation": {
        "cost": 2,
        "type": "action"
      }
    },
    "target": {
      "value": "you"
    },
    "range": {
      "units": "personal"
    },
    "uses": {
      "per": ""
    },
    "measureTemplate": {
      "size": "0"
    },
    "actionType": "",
    "damage": {
      "parts": [],
      "critParts": [],
      "nonCritParts": []
    },
    "attackParts": [],
    "ability": {
      "attack": "",
      "damage": ""
    },
    "save": {
      "dc": "0"
    },
    "effectNotes": [],
    "attackNotes": [],
    "links": {
      "children": []
    },
    "flags": {
      "boolean": [],
      "dictionary": []
    },
    "scriptCalls": [],
    "learnedAt": {
      "class": [
        [
          "cleric/oracle",
          4
        ],
        [
          "inquisitor",
          4
        ],
        [
          "shaman",
          4
        ]
      ],
      "domain": [
        [
          "War",
          4
        ]
      ],
      "subDomain": [],
      "elementalSchool": [],
      "bloodline": []
    },
    "level": 4,
    "school": "evo",
    "conditionals": [],
    "components": {
      "verbal": true,
      "somatic": true,
      "divineFocus": 1
    },
    "sr": false,
    "shortDescription": "<p>Calling upon the divine power of your patron, you imbue yourself with strength and skill in combat. You gain a +1 luck bonus on attack rolls, weapon damage rolls, Strength checks, and Strength-based skill checks for every three caster levels you have (maximum +6). You also gain 1 temporary hit point per caster level. Whenever you make a full-attack action, you can make an additional attack at your full base attack bonus, plus any appropriate modifiers. This additional attack is not cumulative with similar effects, such as <i>haste</i> or weapons with the speed special ability.</p>",
    "spellDuration": "1 round/level"
  },
  "effects": [],
  "folder": null,
  "sort": 0,
  "permission": {
    "default": 0
  },
  "flags": {}
}