{
  "_id": "c7gyna89uiqg5mue",
  "name": "Ears of the City",
  "type": "spell",
  "img": "systems/pf1/icons/misc/magic-swirl.png",
  "data": {
    "description": {
      "value": "<div class=\"spell-description\">\n  <p>\n    <strong>School</strong>&nbsp;divination;\n    <strong>Level</strong>&nbsp;bard 1, cleric/oracle 1, inquisitor 1, shaman 1, sorcerer/wizard 1, witch 1;\n    \n    \n    \n    \n  </p>\n  <p>\n    <strong>Casting Time</strong>&nbsp;1 standard<br>\n    <strong>Components</strong>&nbsp;V, S, M/DF (a small piece of a brick)<br>\n  </p>\n  <p>\n    <strong>Range</strong>&nbsp;touch<br>\n    \n    <strong>Targets</strong>&nbsp;one creature<br>\n    \n    <strong>Duration</strong>&nbsp;1 round/level<br>\n      <strong>Saving Throw</strong>&nbsp;Will negates (harmless);&nbsp;\n      <strong>Spell Resistance</strong>&nbsp;yes<br>\n  </p>\n  <h2>Description</h2>\n  <p>The target of this spell sees and hears a stream of past scenes and pieces of conversations related to local people and events. The flashes are so brief that it is impossible to identify individual people or places, but when the target concentrates on a particular topic or individual, she can piece together a coherent narrative told in a multitude of changing voices in her mind.  Each round for the duration of the spell, the target can attempt a Diplomacy check to gather information as though she had spent 1d4 hours talking to local people. Since the information gathering doesn't involve actual interaction with people, only observation, the target can use her Perception skill instead of her Diplomacy skill. While thus concentrating, the target is effectively blind and deaf.</p>\n</div>\n"
    },
    "tags": [],
    "activation": {
      "type": "standard"
    },
    "unchainedAction": {
      "activation": {
        "cost": 2,
        "type": "action"
      }
    },
    "target": {
      "value": "one creature"
    },
    "range": {
      "units": "touch"
    },
    "uses": {
      "per": ""
    },
    "measureTemplate": {
      "size": "0"
    },
    "actionType": "spellsave",
    "damage": {
      "parts": [],
      "critParts": [],
      "nonCritParts": []
    },
    "attackParts": [],
    "ability": {
      "attack": "",
      "damage": ""
    },
    "save": {
      "dc": "0",
      "type": "will",
      "description": "Will negates (harmless)"
    },
    "effectNotes": [],
    "attackNotes": [],
    "links": {
      "children": []
    },
    "flags": {
      "boolean": [],
      "dictionary": []
    },
    "scriptCalls": [],
    "learnedAt": {
      "class": [
        [
          "sorcerer/wizard",
          1
        ],
        [
          "cleric/oracle",
          1
        ],
        [
          "bard",
          1
        ],
        [
          "witch",
          1
        ],
        [
          "inquisitor",
          1
        ],
        [
          "shaman",
          1
        ]
      ],
      "domain": [],
      "subDomain": [],
      "elementalSchool": [],
      "bloodline": []
    },
    "school": "div",
    "conditionals": [],
    "components": {
      "verbal": true,
      "somatic": true,
      "material": true,
      "divineFocus": 2
    },
    "materials": {
      "value": "a small piece of a brick"
    },
    "shortDescription": "<p>The target of this spell sees and hears a stream of past scenes and pieces of conversations related to local people and events. The flashes are so brief that it is impossible to identify individual people or places, but when the target concentrates on a particular topic or individual, she can piece together a coherent narrative told in a multitude of changing voices in her mind.  Each round for the duration of the spell, the target can attempt a Diplomacy check to gather information as though she had spent 1d4 hours talking to local people. Since the information gathering doesn't involve actual interaction with people, only observation, the target can use her Perception skill instead of her Diplomacy skill. While thus concentrating, the target is effectively blind and deaf.</p>",
    "spellDuration": "1 round/level"
  },
  "effects": [],
  "folder": null,
  "sort": 0,
  "permission": {
    "default": 0
  },
  "flags": {}
}