{
  "_id": "ot28i48h4ghmangq",
  "name": "Emergency Force Sphere",
  "type": "spell",
  "img": "systems/pf1/icons/misc/magic-swirl.png",
  "data": {
    "description": {
      "value": "<div class=\"spell-description\">\n  <p>\n    <strong>School</strong>&nbsp;evocation&nbsp;[force];\n    <strong>Level</strong>&nbsp;sorcerer/wizard 4;\n    \n    \n    \n    \n  </p>\n  <p>\n    <strong>Casting Time</strong>&nbsp;1 immediate<br>\n    <strong>Components</strong>&nbsp;V<br>\n  </p>\n  <p>\n    <strong>Range</strong>&nbsp;5 feet<br>\n    \n    \n    <strong>Effect</strong>&nbsp;5-ft.-radius hemisphere of force centered on you<br>\n    <strong>Duration</strong>&nbsp;1 round/level<br>\n      <strong>Saving Throw</strong>&nbsp;none;&nbsp;\n      <strong>Spell Resistance</strong>&nbsp;no<br>\n  </p>\n  <h2>Description</h2>\n  <p>As <i>Wall of Force</i>, except you create a hemispherical dome of force with hardness 20 and a number of hit points equal to 10 per caster level. The bottom edge of the dome forms a relatively watertight space if you are standing on a reasonably flat surface. The dome shape means that falling debris (such as rocks from a collapsing ceiling) tend to tumble to the side and pile up around the base of the dome. If you make a DC 20 Craft (stonemasonry), Knowledge (engineering), or Profession (architect or engineer) check, the debris is stable enough that it retains its dome-like configuration when the spell ends, otherwise it collapses.</p><p>Normally this spell is used to buy time for dealing with avalanches, floods, and rockslides, though it is also handy in dealing with ambushes.</p>\n</div>\n"
    },
    "tags": [],
    "activation": {
      "type": "immediate"
    },
    "unchainedAction": {
      "activation": {
        "type": "reaction"
      }
    },
    "range": {
      "value": 5,
      "units": "ft"
    },
    "uses": {
      "per": ""
    },
    "measureTemplate": {
      "size": "0"
    },
    "actionType": "other",
    "damage": {
      "parts": [],
      "critParts": [],
      "nonCritParts": []
    },
    "attackParts": [],
    "ability": {
      "attack": "",
      "damage": ""
    },
    "save": {
      "dc": "0"
    },
    "effectNotes": [],
    "attackNotes": [],
    "links": {
      "children": []
    },
    "flags": {
      "boolean": [],
      "dictionary": []
    },
    "scriptCalls": [],
    "learnedAt": {
      "class": [
        [
          "sorcerer/wizard",
          4
        ]
      ],
      "domain": [],
      "subDomain": [],
      "elementalSchool": [],
      "bloodline": []
    },
    "level": 4,
    "school": "evo",
    "types": "force",
    "conditionals": [],
    "components": {
      "verbal": true
    },
    "sr": false,
    "shortDescription": "<p>As <i>Wall of Force</i>, except you create a hemispherical dome of force with hardness 20 and a number of hit points equal to 10 per caster level. The bottom edge of the dome forms a relatively watertight space if you are standing on a reasonably flat surface. The dome shape means that falling debris (such as rocks from a collapsing ceiling) tend to tumble to the side and pile up around the base of the dome. If you make a DC 20 Craft (stonemasonry), Knowledge (engineering), or Profession (architect or engineer) check, the debris is stable enough that it retains its dome-like configuration when the spell ends, otherwise it collapses.</p><p>Normally this spell is used to buy time for dealing with avalanches, floods, and rockslides, though it is also handy in dealing with ambushes.</p>",
    "spellDuration": "1 round/level",
    "spellEffect": "5-ft.-radius hemisphere of force centered on you"
  },
  "effects": [],
  "folder": null,
  "sort": 0,
  "permission": {
    "default": 0
  },
  "flags": {}
}