{
  "_id": "be88e90guqbi1q1z",
  "name": "Fear",
  "type": "spell",
  "img": "systems/pf1/icons/misc/magic-swirl.png",
  "data": {
    "description": {
      "value": "<div class=\"spell-description\">\n  <p>\n    <strong>School</strong>&nbsp;necromancy&nbsp;[fear, mind-affecting, emotion];\n    <strong>Level</strong>&nbsp;antipaladin 4, bard 3, bloodrager 4, inquisitor 4, medium 4, mesmerist 3, occultist 4, psychic 4, shaman 4, sorcerer/wizard 4, spiritualist 4, witch 4;\n    \n    <strong>Subdomain</strong>&nbsp;Fear 4;\n    \n    <strong>Bloodline</strong>&nbsp;Draconic 4, Ghoul 4;\n  </p>\n  <p>\n    <strong>Casting Time</strong>&nbsp;1 standard<br>\n    <strong>Components</strong>&nbsp;V, S, M (the heart of a hen or a white feather)<br>\n  </p>\n  <p>\n    <strong>Range</strong>&nbsp;30 feet<br>\n    <strong>Area</strong>&nbsp;cone-shaped burst<br>\n    \n    \n    <strong>Duration</strong>&nbsp;1 round/level or 1 round; see text<br>\n      <strong>Saving Throw</strong>&nbsp;Will partial;&nbsp;\n      <strong>Spell Resistance</strong>&nbsp;yes<br>\n  </p>\n  <h2>Description</h2>\n  <p>An invisible cone of terror causes each living creature in the area to become panicked unless it succeeds on a Will save. If cornered, a panicked creature begins cowering. If the Will save succeeds, the creature is shaken for 1 round.</p>\n</div>\n"
    },
    "tags": [],
    "activation": {
      "type": "standard"
    },
    "unchainedAction": {
      "activation": {
        "cost": 2,
        "type": "action"
      }
    },
    "range": {
      "value": 30,
      "units": "ft"
    },
    "uses": {
      "per": ""
    },
    "measureTemplate": {
      "size": "0"
    },
    "actionType": "spellsave",
    "damage": {
      "parts": [],
      "critParts": [],
      "nonCritParts": []
    },
    "attackParts": [],
    "ability": {
      "attack": "",
      "damage": ""
    },
    "save": {
      "dc": "0",
      "type": "will",
      "description": "Will partial"
    },
    "effectNotes": [],
    "attackNotes": [],
    "links": {
      "children": []
    },
    "flags": {
      "boolean": [],
      "dictionary": []
    },
    "scriptCalls": [],
    "learnedAt": {
      "class": [
        [
          "sorcerer/wizard",
          4
        ],
        [
          "bard",
          3
        ],
        [
          "witch",
          4
        ],
        [
          "inquisitor",
          4
        ],
        [
          "antipaladin",
          4
        ],
        [
          "bloodrager",
          4
        ],
        [
          "shaman",
          4
        ],
        [
          "psychic",
          4
        ],
        [
          "medium",
          4
        ],
        [
          "mesmerist",
          3
        ],
        [
          "occultist",
          4
        ],
        [
          "spiritualist",
          4
        ]
      ],
      "domain": [],
      "subDomain": [
        [
          "Fear",
          4
        ]
      ],
      "elementalSchool": [],
      "bloodline": [
        [
          "Draconic",
          4
        ],
        [
          "Ghoul",
          4
        ]
      ]
    },
    "level": 4,
    "school": "nec",
    "types": "fear, mind-affecting, emotion",
    "conditionals": [],
    "components": {
      "verbal": true,
      "somatic": true,
      "material": true
    },
    "materials": {
      "value": "the heart of a hen or a white feather"
    },
    "shortDescription": "<p>An invisible cone of terror causes each living creature in the area to become panicked unless it succeeds on a Will save. If cornered, a panicked creature begins cowering. If the Will save succeeds, the creature is shaken for 1 round.</p>",
    "spellDuration": "1 round/level or 1 round; see text",
    "spellArea": "cone-shaped burst"
  },
  "effects": [],
  "folder": null,
  "sort": 0,
  "permission": {
    "default": 0
  },
  "flags": {}
}