{
  "_id": "swyxrwt6hhfh1a0p",
  "name": "Fiery Runes",
  "type": "spell",
  "img": "systems/pf1/icons/misc/magic-swirl.png",
  "data": {
    "description": {
      "value": "<div class=\"spell-description\">\n  <p>\n    <strong>School</strong>&nbsp;evocation&nbsp;[fire];\n    <strong>Level</strong>&nbsp;alchemist 2, bloodrager 2, druid 2, hunter 2, magus 2, sorcerer/wizard 2;\n    \n    \n    \n    \n  </p>\n  <p>\n    <strong>Casting Time</strong>&nbsp;1 standard<br>\n    <strong>Components</strong>&nbsp;V, S<br>\n  </p>\n  <p>\n    <strong>Range</strong>&nbsp;touch<br>\n    \n    <strong>Targets</strong>&nbsp;melee weapon touched<br>\n    \n    <strong>Duration</strong>&nbsp;1 minute/level or until discharged (see text)<br>\n      <strong>Saving Throw</strong>&nbsp;none;&nbsp;\n      <strong>Spell Resistance</strong>&nbsp;yes<br>\n  </p>\n  <h2>Description</h2>\n  <p>You charge a weapon with a magic rune of fire. When the wielder of the weapon successfully strikes a foe in melee with the weapon, the wielder can discharge the rune as a swift action to deal 1d4+1 points of fire damage to the target. This damage isn't multiplied on a critical hit. If the target has spell resistance, you attempt a caster level check (1d20 + caster level) against that spell resistance when the rune is discharged. If the rune is successfully resisted, the spell is dispelled; otherwise, the rune deals damage normally.  For every 2 caster levels beyond 3rd the caster possesses, the rune deals an additional 1d4+1 points of fire damage (2d4+2 at caster level 5th, 3d4+3 at 7th, and so on) to a maximum of 5d4+5 points of fire damage at caster level 11th.</p>\n</div>\n"
    },
    "tags": [],
    "activation": {
      "type": "standard"
    },
    "unchainedAction": {
      "activation": {
        "cost": 2,
        "type": "action"
      }
    },
    "target": {
      "value": "melee weapon touched"
    },
    "range": {
      "units": "touch"
    },
    "uses": {
      "per": ""
    },
    "measureTemplate": {
      "size": "0"
    },
    "actionType": "",
    "damage": {
      "parts": [],
      "critParts": [],
      "nonCritParts": []
    },
    "attackParts": [],
    "ability": {
      "attack": "",
      "damage": ""
    },
    "save": {
      "dc": "0"
    },
    "effectNotes": [],
    "attackNotes": [],
    "links": {
      "children": []
    },
    "flags": {
      "boolean": [],
      "dictionary": []
    },
    "scriptCalls": [],
    "learnedAt": {
      "class": [
        [
          "sorcerer/wizard",
          2
        ],
        [
          "druid",
          2
        ],
        [
          "alchemist",
          2
        ],
        [
          "magus",
          2
        ],
        [
          "bloodrager",
          2
        ],
        [
          "hunter",
          2
        ]
      ],
      "domain": [],
      "subDomain": [],
      "elementalSchool": [],
      "bloodline": []
    },
    "level": 2,
    "school": "evo",
    "types": "fire",
    "conditionals": [],
    "components": {
      "verbal": true,
      "somatic": true
    },
    "shortDescription": "<p>You charge a weapon with a magic rune of fire. When the wielder of the weapon successfully strikes a foe in melee with the weapon, the wielder can discharge the rune as a swift action to deal 1d4+1 points of fire damage to the target. This damage isn't multiplied on a critical hit. If the target has spell resistance, you attempt a caster level check (1d20 + caster level) against that spell resistance when the rune is discharged. If the rune is successfully resisted, the spell is dispelled; otherwise, the rune deals damage normally.  For every 2 caster levels beyond 3rd the caster possesses, the rune deals an additional 1d4+1 points of fire damage (2d4+2 at caster level 5th, 3d4+3 at 7th, and so on) to a maximum of 5d4+5 points of fire damage at caster level 11th.</p>",
    "spellDuration": "1 minute/level or until discharged (see text)"
  },
  "effects": [],
  "folder": null,
  "sort": 0,
  "permission": {
    "default": 0
  },
  "flags": {}
}