{
  "_id": "743rtkqu21azdhah",
  "name": "Fins to Feet",
  "type": "spell",
  "img": "systems/pf1/icons/misc/magic-swirl.png",
  "data": {
    "description": {
      "value": "<div class=\"spell-description\">\n  <p>\n    <strong>School</strong>&nbsp;transmutation&nbsp;(polymorph);\n    <strong>Level</strong>&nbsp;druid 3, hunter 3, shaman 3, sorcerer/wizard 3, witch 3;\n    \n    \n    \n    \n  </p>\n  <p>\n    <strong>Casting Time</strong>&nbsp;1 standard<br>\n    <strong>Components</strong>&nbsp;V, S<br>\n  </p>\n  <p>\n    <strong>Range</strong>&nbsp;touch<br>\n    \n    <strong>Targets</strong>&nbsp;willing creature touched<br>\n    \n    <strong>Duration</strong>&nbsp;1 hour/level (D)<br>\n      <strong>Saving Throw</strong>&nbsp;none;&nbsp;\n      <strong>Spell Resistance</strong>&nbsp;yes<br>\n  </p>\n  <h2>Description</h2>\n  <p>You transform the target's fins, flippers, or tail into legs and feet, allowing it to walk on land. The target loses its swim speed but gains a base speed appropriate for a humanoid of its size (speed 30 if a Medium or larger creature, speed 20 if Small). If the creature is immersed in water for 1 round, the transformation reverts, allowing it to swim normally. One round after leaving the water, the transformation occurs again, allowing it to walk.  This spell only works on merfolk, tritons, seals, fish, and other creatures whose bodies or limbs are used mainly for swimming and are not suitable for walking. It does not give the target the ability to breathe air.</p>\n</div>\n"
    },
    "tags": [],
    "activation": {
      "type": "standard"
    },
    "unchainedAction": {
      "activation": {
        "cost": 2,
        "type": "action"
      }
    },
    "target": {
      "value": "willing creature touched"
    },
    "range": {
      "units": "touch"
    },
    "uses": {
      "per": ""
    },
    "measureTemplate": {
      "size": "0"
    },
    "actionType": "",
    "damage": {
      "parts": [],
      "critParts": [],
      "nonCritParts": []
    },
    "attackParts": [],
    "ability": {
      "attack": "",
      "damage": ""
    },
    "save": {
      "dc": "0"
    },
    "effectNotes": [],
    "attackNotes": [],
    "links": {
      "children": []
    },
    "flags": {
      "boolean": [],
      "dictionary": []
    },
    "scriptCalls": [],
    "learnedAt": {
      "class": [
        [
          "sorcerer/wizard",
          3
        ],
        [
          "druid",
          3
        ],
        [
          "witch",
          3
        ],
        [
          "shaman",
          3
        ],
        [
          "hunter",
          3
        ]
      ],
      "domain": [],
      "subDomain": [],
      "elementalSchool": [],
      "bloodline": []
    },
    "level": 3,
    "school": "trs",
    "subschool": "polymorph",
    "conditionals": [],
    "components": {
      "verbal": true,
      "somatic": true
    },
    "shortDescription": "<p>You transform the target's fins, flippers, or tail into legs and feet, allowing it to walk on land. The target loses its swim speed but gains a base speed appropriate for a humanoid of its size (speed 30 if a Medium or larger creature, speed 20 if Small). If the creature is immersed in water for 1 round, the transformation reverts, allowing it to swim normally. One round after leaving the water, the transformation occurs again, allowing it to walk.  This spell only works on merfolk, tritons, seals, fish, and other creatures whose bodies or limbs are used mainly for swimming and are not suitable for walking. It does not give the target the ability to breathe air.</p>",
    "spellDuration": "1 hour/level (D)"
  },
  "effects": [],
  "folder": null,
  "sort": 0,
  "permission": {
    "default": 0
  },
  "flags": {}
}