{
  "_id": "kdzx88z16gs8l392",
  "name": "Freedom",
  "type": "spell",
  "img": "systems/pf1/icons/misc/magic-swirl.png",
  "data": {
    "description": {
      "value": "<div class=\"spell-description\">\n  <p>\n    <strong>School</strong>&nbsp;abjuration;\n    <strong>Level</strong>&nbsp;psychic 9, sorcerer/wizard 9;\n    <strong>Domain</strong>&nbsp;Liberation 9;\n    \n    \n    \n  </p>\n  <p>\n    <strong>Casting Time</strong>&nbsp;1 standard<br>\n    <strong>Components</strong>&nbsp;V, S<br>\n  </p>\n  <p>\n    <strong>Range</strong>&nbsp;close (25 ft. + 5 ft./2 levels)<br>\n    \n    <strong>Targets</strong>&nbsp;one creature<br>\n    \n    <strong>Duration</strong>&nbsp;instantaneous<br>\n      <strong>Saving Throw</strong>&nbsp;Will negates (harmless);&nbsp;\n      <strong>Spell Resistance</strong>&nbsp;yes<br>\n  </p>\n  <h2>Description</h2>\n  <p>The subject is freed from spells and effects that restrict movement, including <i>binding, entangle</i>, grappling, <i><i>imprisonment</i>, maze</i>, paralysis, petrification, pinning, <i>sleep, slow</i>, stunning, <i>temporal stasis</i>, and <i>web.</i> To free a creature from <i>imprisonment</i> or <i>maze,</i> you must know its name and background, and you must cast this spell at the spot where it was entombed or banished into the maze.</p>\n</div>\n"
    },
    "tags": [],
    "activation": {
      "type": "standard"
    },
    "unchainedAction": {
      "activation": {
        "cost": 2,
        "type": "action"
      }
    },
    "target": {
      "value": "one creature"
    },
    "range": {
      "units": "close"
    },
    "uses": {
      "per": ""
    },
    "measureTemplate": {
      "size": "0"
    },
    "actionType": "spellsave",
    "damage": {
      "parts": [],
      "critParts": [],
      "nonCritParts": []
    },
    "attackParts": [],
    "ability": {
      "attack": "",
      "damage": ""
    },
    "save": {
      "dc": "0",
      "type": "will",
      "description": "Will negates (harmless)"
    },
    "effectNotes": [],
    "attackNotes": [],
    "links": {
      "children": []
    },
    "flags": {
      "boolean": [],
      "dictionary": []
    },
    "scriptCalls": [],
    "learnedAt": {
      "class": [
        [
          "sorcerer/wizard",
          9
        ],
        [
          "psychic",
          9
        ]
      ],
      "domain": [
        [
          "Liberation",
          9
        ]
      ],
      "subDomain": [],
      "elementalSchool": [],
      "bloodline": []
    },
    "level": 9,
    "school": "abj",
    "conditionals": [],
    "components": {
      "verbal": true,
      "somatic": true
    },
    "shortDescription": "<p>The subject is freed from spells and effects that restrict movement, including <i>binding, entangle</i>, grappling, <i><i>imprisonment</i>, maze</i>, paralysis, petrification, pinning, <i>sleep, slow</i>, stunning, <i>temporal stasis</i>, and <i>web.</i> To free a creature from <i>imprisonment</i> or <i>maze,</i> you must know its name and background, and you must cast this spell at the spot where it was entombed or banished into the maze.</p>",
    "spellDuration": "instantaneous"
  },
  "effects": [],
  "folder": null,
  "sort": 0,
  "permission": {
    "default": 0
  },
  "flags": {}
}