{
  "_id": "vdmsaodgnbo8wjfx",
  "name": "Gentle Repose",
  "type": "spell",
  "img": "systems/pf1/icons/misc/magic-swirl.png",
  "data": {
    "description": {
      "value": "<div class=\"spell-description\">\n  <p>\n    <strong>School</strong>&nbsp;necromancy;\n    <strong>Level</strong>&nbsp;cleric/oracle 2, medium 2, occultist 3, shaman 2, sorcerer/wizard 3, spiritualist 2, witch 2;\n    <strong>Domain</strong>&nbsp;Repose 2;\n    \n    \n    \n  </p>\n  <p>\n    <strong>Casting Time</strong>&nbsp;1 standard<br>\n    <strong>Components</strong>&nbsp;V, S, M/DF (salt and a copper piece for each of the corpse&#x27;s eyes)<br>\n  </p>\n  <p>\n    <strong>Range</strong>&nbsp;touch<br>\n    \n    <strong>Targets</strong>&nbsp;corpse touched<br>\n    \n    <strong>Duration</strong>&nbsp;1 day/level<br>\n      <strong>Saving Throw</strong>&nbsp;Will negates (object);&nbsp;\n      <strong>Spell Resistance</strong>&nbsp;yes<br>\n  </p>\n  <h2>Description</h2>\n  <p>You preserve the remains of a dead creature so that they do not decay. Doing so effectively extends the time limit on raising that creature from the dead (see <i>raise dead</i>). Days spent under the influence of this spell don't count against the time limit.</p><p>Additionally, this spell makes transporting a slain (and thus decaying) comrade less unpleasant.</p><p>The spell also works on severed body parts and the like.</p>\n</div>\n"
    },
    "tags": [],
    "activation": {
      "type": "standard"
    },
    "unchainedAction": {
      "activation": {
        "cost": 2,
        "type": "action"
      }
    },
    "target": {
      "value": "corpse touched"
    },
    "range": {
      "units": "touch"
    },
    "uses": {
      "per": ""
    },
    "measureTemplate": {
      "size": "0"
    },
    "actionType": "spellsave",
    "damage": {
      "parts": [],
      "critParts": [],
      "nonCritParts": []
    },
    "attackParts": [],
    "ability": {
      "attack": "",
      "damage": ""
    },
    "save": {
      "dc": "0",
      "type": "will",
      "description": "Will negates (object)"
    },
    "effectNotes": [],
    "attackNotes": [],
    "links": {
      "children": []
    },
    "flags": {
      "boolean": [],
      "dictionary": []
    },
    "scriptCalls": [],
    "learnedAt": {
      "class": [
        [
          "sorcerer/wizard",
          3
        ],
        [
          "cleric/oracle",
          2
        ],
        [
          "witch",
          2
        ],
        [
          "shaman",
          2
        ],
        [
          "medium",
          2
        ],
        [
          "occultist",
          3
        ],
        [
          "spiritualist",
          2
        ]
      ],
      "domain": [
        [
          "Repose",
          2
        ]
      ],
      "subDomain": [],
      "elementalSchool": [],
      "bloodline": []
    },
    "level": 3,
    "school": "nec",
    "conditionals": [],
    "components": {
      "verbal": true,
      "somatic": true,
      "material": true,
      "divineFocus": 2
    },
    "materials": {
      "value": "salt and a copper piece for each of the corpse's eyes"
    },
    "shortDescription": "<p>You preserve the remains of a dead creature so that they do not decay. Doing so effectively extends the time limit on raising that creature from the dead (see <i>raise dead</i>). Days spent under the influence of this spell don't count against the time limit.</p><p>Additionally, this spell makes transporting a slain (and thus decaying) comrade less unpleasant.</p><p>The spell also works on severed body parts and the like.</p>",
    "spellDuration": "1 day/level"
  },
  "effects": [],
  "folder": null,
  "sort": 0,
  "permission": {
    "default": 0
  },
  "flags": {}
}