{
  "_id": "2js46u3c4e2oxvyl",
  "name": "Halfling Vengeance",
  "type": "spell",
  "img": "systems/pf1/icons/misc/magic-swirl.png",
  "data": {
    "description": {
      "value": "<div class=\"spell-description\">\n  <p>\n    <strong>School</strong>&nbsp;divination;\n    <strong>Level</strong>&nbsp;antipaladin 1, cleric/oracle 2, inquisitor 2;\n    \n    \n    \n    \n  </p>\n  <p>\n    <strong>Casting Time</strong>&nbsp;1 standard<br>\n    <strong>Components</strong>&nbsp;V, S<br>\n  </p>\n  <p>\n    <strong>Range</strong>&nbsp;touch<br>\n    \n    <strong>Targets</strong>&nbsp;one Small or smaller creature touched<br>\n    \n    <strong>Duration</strong>&nbsp;1 round/level<br>\n      <strong>Saving Throw</strong>&nbsp;Will negates (harmless);&nbsp;\n      <strong>Spell Resistance</strong>&nbsp;yes<br>\n  </p>\n  <h2>Description</h2>\n  <p>You grant the touched target the ability to ascertain the weaknesses of foes. The target deals an additional 1d6 points of precision damage on successful attacks with daggers or slings against foes within 30 feet, as long as the attacked foe is denied its Dexterity bonus to Armor Class or is flanked by the target. This additional damage increases by 1d6 for every 4 caster levels you have beyond 3rd, to a maximum of 5d6 at 19th level. This bonus damage is precision damage and stacks with other sources of precision damage, such as sneak attack. This bonus damage is not multiplied on a critical hit.  Once per round on a successful attack that deals this precision damage, the target can choose to forgo 2d6 points of precision damage (either granted by this spell or from other sources of precision damage, such as sneak attack) to inflict one of the following conditions on the attacked foe for 1 round:  <ul><li> The attacked foe can't make attacks of opportunity against creatures smaller than it.  <li> The attacked foe is denied its Dexterity bonus to Armor Class against attacks made with daggers or slings.  <li> The attacked foe takes a -2 penalty on attacks against creatures smaller than it.  <li> The attacked foe can't take 5-foot steps.  A creature can benefit from only one <i>halfling vengeance</i> spell at a time.</ul></p>\n</div>\n"
    },
    "tags": [],
    "activation": {
      "type": "standard"
    },
    "unchainedAction": {
      "activation": {
        "cost": 2,
        "type": "action"
      }
    },
    "target": {
      "value": "one Small or smaller creature touched"
    },
    "range": {
      "units": "touch"
    },
    "uses": {
      "per": ""
    },
    "measureTemplate": {
      "size": "0"
    },
    "actionType": "spellsave",
    "damage": {
      "parts": [],
      "critParts": [],
      "nonCritParts": []
    },
    "attackParts": [],
    "ability": {
      "attack": "",
      "damage": ""
    },
    "save": {
      "dc": "0",
      "type": "will",
      "description": "Will negates (harmless)"
    },
    "effectNotes": [],
    "attackNotes": [],
    "links": {
      "children": []
    },
    "flags": {
      "boolean": [],
      "dictionary": []
    },
    "scriptCalls": [],
    "learnedAt": {
      "class": [
        [
          "cleric/oracle",
          2
        ],
        [
          "inquisitor",
          2
        ],
        [
          "antipaladin",
          1
        ]
      ],
      "domain": [],
      "subDomain": [],
      "elementalSchool": [],
      "bloodline": []
    },
    "level": 2,
    "school": "div",
    "conditionals": [],
    "components": {
      "verbal": true,
      "somatic": true
    },
    "shortDescription": "<p>You grant the touched target the ability to ascertain the weaknesses of foes. The target deals an additional 1d6 points of precision damage on successful attacks with daggers or slings against foes within 30 feet, as long as the attacked foe is denied its Dexterity bonus to Armor Class or is flanked by the target. This additional damage increases by 1d6 for every 4 caster levels you have beyond 3rd, to a maximum of 5d6 at 19th level. This bonus damage is precision damage and stacks with other sources of precision damage, such as sneak attack. This bonus damage is not multiplied on a critical hit.  Once per round on a successful attack that deals this precision damage, the target can choose to forgo 2d6 points of precision damage (either granted by this spell or from other sources of precision damage, such as sneak attack) to inflict one of the following conditions on the attacked foe for 1 round:  <ul><li> The attacked foe can't make attacks of opportunity against creatures smaller than it.  <li> The attacked foe is denied its Dexterity bonus to Armor Class against attacks made with daggers or slings.  <li> The attacked foe takes a -2 penalty on attacks against creatures smaller than it.  <li> The attacked foe can't take 5-foot steps.  A creature can benefit from only one <i>halfling vengeance</i> spell at a time.</ul></p>",
    "spellDuration": "1 round/level"
  },
  "effects": [],
  "folder": null,
  "sort": 0,
  "permission": {
    "default": 0
  },
  "flags": {}
}