{
  "_id": "1n5lzg61yjkv64wa",
  "name": "Handy Grapnel",
  "type": "spell",
  "img": "systems/pf1/icons/misc/magic-swirl.png",
  "data": {
    "description": {
      "value": "<div class=\"spell-description\">\n  <p>\n    <strong>School</strong>&nbsp;transmutation;\n    <strong>Level</strong>&nbsp;hunter 1, inquisitor 1, ranger 1, sorcerer/wizard 1;\n    \n    \n    \n    \n  </p>\n  <p>\n    <strong>Casting Time</strong>&nbsp;1 standard<br>\n    <strong>Components</strong>&nbsp;V, S, M (an arrowhead)<br>\n  </p>\n  <p>\n    <strong>Range</strong>&nbsp;touch<br>\n    \n    <strong>Targets</strong>&nbsp;one ropelike object, length up to 50 ft. + 5 ft./level<br>\n    \n    <strong>Duration</strong>&nbsp;1 minute/level (D)<br>\n      <strong>Saving Throw</strong>&nbsp;Fortitude negates (object);&nbsp;\n      <strong>Spell Resistance</strong>&nbsp;no<br>\n  </p>\n  <h2>Description</h2>\n  <p>You cause the target rope to shrink and reshape itself into an arrow, bolt, or similar piece of ammunition, which you can shoot at any Medium or larger object. With a successful attack roll against an AC equal to 5 plus the hardness of the target object, the <i>handy grapnel</i> strikes and embeds itself in that object with the strength of an iron grappling hook.  As a move action, you can command the rope to extend from the arrow. If you are within a distance equal to the length of the rope and have a hand free, the end of the rope swings directly into your hand. With another move action, you can command the <i>handy grapnel</i> to retract itself up to the grappling hook, pulling up any creature or object supported by the rope at a speed of 50 feet per round.  Once embedded, the rope can be used for climbing or any other purpose a rope could serve, and it can bear up to 200 pounds per level of the caster at a time (maximum 1,000 pounds). If this weight limit is exceeded, the <i>handy grapnel</i> comes loose and any creature or object supported by the rope falls.</p>\n</div>\n"
    },
    "tags": [],
    "activation": {
      "type": "standard"
    },
    "unchainedAction": {
      "activation": {
        "cost": 2,
        "type": "action"
      }
    },
    "target": {
      "value": "one ropelike object, length up to 50 ft. + 5 ft./level"
    },
    "range": {
      "units": "touch"
    },
    "uses": {
      "per": ""
    },
    "measureTemplate": {
      "size": "0"
    },
    "actionType": "spellsave",
    "damage": {
      "parts": [],
      "critParts": [],
      "nonCritParts": []
    },
    "attackParts": [],
    "ability": {
      "attack": "",
      "damage": ""
    },
    "save": {
      "dc": "0",
      "type": "fort",
      "description": "Fortitude negates (object)"
    },
    "effectNotes": [],
    "attackNotes": [],
    "links": {
      "children": []
    },
    "flags": {
      "boolean": [],
      "dictionary": []
    },
    "scriptCalls": [],
    "learnedAt": {
      "class": [
        [
          "sorcerer/wizard",
          1
        ],
        [
          "ranger",
          1
        ],
        [
          "inquisitor",
          1
        ],
        [
          "hunter",
          1
        ]
      ],
      "domain": [],
      "subDomain": [],
      "elementalSchool": [],
      "bloodline": []
    },
    "school": "trs",
    "conditionals": [],
    "components": {
      "verbal": true,
      "somatic": true,
      "material": true
    },
    "materials": {
      "value": "an arrowhead"
    },
    "sr": false,
    "shortDescription": "<p>You cause the target rope to shrink and reshape itself into an arrow, bolt, or similar piece of ammunition, which you can shoot at any Medium or larger object. With a successful attack roll against an AC equal to 5 plus the hardness of the target object, the <i>handy grapnel</i> strikes and embeds itself in that object with the strength of an iron grappling hook.  As a move action, you can command the rope to extend from the arrow. If you are within a distance equal to the length of the rope and have a hand free, the end of the rope swings directly into your hand. With another move action, you can command the <i>handy grapnel</i> to retract itself up to the grappling hook, pulling up any creature or object supported by the rope at a speed of 50 feet per round.  Once embedded, the rope can be used for climbing or any other purpose a rope could serve, and it can bear up to 200 pounds per level of the caster at a time (maximum 1,000 pounds). If this weight limit is exceeded, the <i>handy grapnel</i> comes loose and any creature or object supported by the rope falls.</p>",
    "spellDuration": "1 minute/level (D)"
  },
  "effects": [],
  "folder": null,
  "sort": 0,
  "permission": {
    "default": 0
  },
  "flags": {}
}