{
  "_id": "3b1x69kfhnsa2d54",
  "name": "Heat Metal",
  "type": "spell",
  "img": "systems/pf1/icons/misc/magic-swirl.png",
  "data": {
    "description": {
      "value": "<div class=\"spell-description\">\n  <p>\n    <strong>School</strong>&nbsp;transmutation&nbsp;[fire];\n    <strong>Level</strong>&nbsp;druid 2, hunter 2, occultist 2, psychic 2;\n    <strong>Domain</strong>&nbsp;Sun 2;\n    <strong>Subdomain</strong>&nbsp;Metal 2;\n    \n    \n  </p>\n  <p>\n    <strong>Casting Time</strong>&nbsp;1 standard<br>\n    <strong>Components</strong>&nbsp;V, S, DF<br>\n  </p>\n  <p>\n    <strong>Range</strong>&nbsp;close (25 ft. + 5 ft./2 levels)<br>\n    \n    <strong>Targets</strong>&nbsp;metal equipment of one creature per two levels, no two of which can be more than 30 ft. apart; or 25 lbs. of metal/level, all of which must be within a 30-ft. circle<br>\n    \n    <strong>Duration</strong>&nbsp;7 rounds<br>\n      <strong>Saving Throw</strong>&nbsp;Will negates (object);&nbsp;\n      <strong>Spell Resistance</strong>&nbsp;yes<br>\n  </p>\n  <h2>Description</h2>\n  <p><i>Heat metal</i> causes metal objects to become red-hot.</p><p>Unattended, nonmagical metal gets no saving throw. Magical metal is allowed a saving throw against the spell. An item in a creature's possession uses the creature's saving throw bonus unless its own is higher.</p><p>A creature takes fire damage if its equipment is heated. It takes full damage if its armor, shield, or weapon is affected. The creature takes minimum damage (1 point or 2 points; see the table) if it's not wearing or wielding such an item.</p><p>On the first round of the spell, the metal becomes warm and uncomfortable to touch but deals no damage. The same effect also occurs on the last round of the spell's duration. During the second (and also the next-to-last) round, intense heat causes pain and damage. In the third, fourth, and fifth rounds, the metal is searing hot, and causes more damage, as shown on the table presented on the following page.</p>    <table border ='1'><tr><th>Round</th><th>Metal Temperature Damage</th></tr><tr><td>1</td><td>Warm None</td></tr><tr><td>2</td><td>Hot 1d4 points</td></tr><tr><td>3-5</td><td>Searing 2d4 points</td></tr><tr><td>6</td><td>Hot 1d4 points</td></tr><tr><td>7</td><td>Warm None</td></tr></table>     Any cold intense enough to damage the creature negates fire damage from the spell (and vice versa) on a point-for-point basis.</p><p>If cast underwater, <i>heat metal</i> deals half damage and boils the surrounding water.</p><p><i>Heat metal</i> counters and dispels <i>chill metal</i>.</p>\n</div>\n"
    },
    "tags": [],
    "activation": {
      "type": "standard"
    },
    "unchainedAction": {
      "activation": {
        "cost": 2,
        "type": "action"
      }
    },
    "target": {
      "value": "metal equipment of one creature per two levels, no two of which can be more than 30 ft. apart; or 25 lbs. of metal/level, all of which must be within a 30-ft. circle"
    },
    "range": {
      "units": "close"
    },
    "uses": {
      "per": ""
    },
    "measureTemplate": {
      "size": "0"
    },
    "actionType": "spellsave",
    "damage": {
      "parts": [],
      "critParts": [],
      "nonCritParts": []
    },
    "attackParts": [],
    "ability": {
      "attack": "",
      "damage": ""
    },
    "save": {
      "dc": "0",
      "type": "will",
      "description": "Will negates (object)"
    },
    "effectNotes": [],
    "attackNotes": [],
    "links": {
      "children": []
    },
    "flags": {
      "boolean": [],
      "dictionary": []
    },
    "scriptCalls": [],
    "learnedAt": {
      "class": [
        [
          "druid",
          2
        ],
        [
          "psychic",
          2
        ],
        [
          "occultist",
          2
        ],
        [
          "hunter",
          2
        ]
      ],
      "domain": [
        [
          "Sun",
          2
        ]
      ],
      "subDomain": [
        [
          "Metal",
          2
        ]
      ],
      "elementalSchool": [],
      "bloodline": []
    },
    "level": 2,
    "school": "trs",
    "types": "fire",
    "conditionals": [],
    "components": {
      "verbal": true,
      "somatic": true,
      "divineFocus": 1
    },
    "shortDescription": "<p><i>Heat metal</i> causes metal objects to become red-hot.</p><p>Unattended, nonmagical metal gets no saving throw. Magical metal is allowed a saving throw against the spell. An item in a creature's possession uses the creature's saving throw bonus unless its own is higher.</p><p>A creature takes fire damage if its equipment is heated. It takes full damage if its armor, shield, or weapon is affected. The creature takes minimum damage (1 point or 2 points; see the table) if it's not wearing or wielding such an item.</p><p>On the first round of the spell, the metal becomes warm and uncomfortable to touch but deals no damage. The same effect also occurs on the last round of the spell's duration. During the second (and also the next-to-last) round, intense heat causes pain and damage. In the third, fourth, and fifth rounds, the metal is searing hot, and causes more damage, as shown on the table presented on the following page.</p>    <table border ='1'><tr><th>Round</th><th>Metal Temperature Damage</th></tr><tr><td>1</td><td>Warm None</td></tr><tr><td>2</td><td>Hot 1d4 points</td></tr><tr><td>3-5</td><td>Searing 2d4 points</td></tr><tr><td>6</td><td>Hot 1d4 points</td></tr><tr><td>7</td><td>Warm None</td></tr></table>     Any cold intense enough to damage the creature negates fire damage from the spell (and vice versa) on a point-for-point basis.</p><p>If cast underwater, <i>heat metal</i> deals half damage and boils the surrounding water.</p><p><i>Heat metal</i> counters and dispels <i>chill metal</i>.</p>",
    "spellDuration": "7 rounds"
  },
  "effects": [],
  "folder": null,
  "sort": 0,
  "permission": {
    "default": 0
  },
  "flags": {}
}