{
  "_id": "nyafit6oz90jqakn",
  "name": "Hollow Heroism, Greater",
  "type": "spell",
  "img": "systems/pf1/icons/misc/magic-swirl.png",
  "data": {
    "description": {
      "value": "<div class=\"spell-description\">\n  <p>\n    <strong>School</strong>&nbsp;enchantment&nbsp;(compulsion)&nbsp;[mind-affecting, ruse];\n    <strong>Level</strong>&nbsp;bard 6, psychic 7, sorcerer/wizard 7, witch 7;\n    \n    \n    \n    \n  </p>\n  <p>\n    <strong>Casting Time</strong>&nbsp;1 standard<br>\n    <strong>Components</strong>&nbsp;V, S<br>\n  </p>\n  <p>\n    <strong>Range</strong>&nbsp;touch<br>\n    \n    <strong>Targets</strong>&nbsp;creature touched<br>\n    \n    <strong>Duration</strong>&nbsp;1 minute/level (D)<br>\n      <strong>Saving Throw</strong>&nbsp;Will negates (harmless);&nbsp;\n      <strong>Spell Resistance</strong>&nbsp;yes<br>\n  </p>\n  <h2>Description</h2>\n  <p>This spell functions as @Compendium[pf1.spells.z0duc2v2n3ioynta]{Greater Heroism}, except that you can reverse the spell by issuing a special command as a standard action if you are within medium range (100 feet + 10 feet per caster level) of the target. The target loses the bonuses and instead takes a -4 penalty on attack rolls, saving throws, and skill checks until the spell's duration ends (no save), increasing to a -8 penalty against fear effects. Additionally, she takes damage equal to your caster level when you reverse the spell. Attempts to identify <em>greater hollow heroism</em> with a skill check incorrectly identify it as <em>greater heroism</em> (see the ruse descriptor on page 192).</p>\n</div>\n"
    },
    "tags": [],
    "activation": {
      "type": "standard"
    },
    "unchainedAction": {
      "activation": {
        "cost": 2,
        "type": "action"
      }
    },
    "target": {
      "value": "creature touched"
    },
    "range": {
      "units": "touch"
    },
    "uses": {
      "per": ""
    },
    "measureTemplate": {
      "size": "0"
    },
    "actionType": "spellsave",
    "damage": {
      "parts": [],
      "critParts": [],
      "nonCritParts": []
    },
    "attackParts": [],
    "ability": {
      "attack": "",
      "damage": ""
    },
    "save": {
      "dc": "0",
      "type": "will",
      "description": "Will negates (harmless)"
    },
    "effectNotes": [],
    "attackNotes": [],
    "links": {
      "children": []
    },
    "flags": {
      "boolean": [],
      "dictionary": []
    },
    "scriptCalls": [],
    "learnedAt": {
      "class": [
        [
          "sorcerer/wizard",
          7
        ],
        [
          "bard",
          6
        ],
        [
          "witch",
          7
        ],
        [
          "psychic",
          7
        ]
      ],
      "domain": [],
      "subDomain": [],
      "elementalSchool": [],
      "bloodline": []
    },
    "level": 7,
    "school": "enc",
    "subschool": "compulsion",
    "types": "mind-affecting, ruse",
    "conditionals": [],
    "components": {
      "verbal": true,
      "somatic": true
    },
    "spellbook": "",
    "shortDescription": "<p>This spell functions as @Compendium[pf1.spells.z0duc2v2n3ioynta]{Greater Heroism}, except that you can reverse the spell by issuing a special command as a standard action if you are within medium range (100 feet + 10 feet per caster level) of the target. The target loses the bonuses and instead takes a -4 penalty on attack rolls, saving throws, and skill checks until the spell's duration ends (no save), increasing to a -8 penalty against fear effects. Additionally, she takes damage equal to your caster level when you reverse the spell. Attempts to identify <em>greater hollow heroism</em> with a skill check incorrectly identify it as <em>greater heroism</em> (see the ruse descriptor on page 192).</p>",
    "spellDuration": "1 minute/level (D)"
  },
  "effects": [],
  "folder": null,
  "sort": 0,
  "permission": {
    "default": 0
  },
  "flags": {}
}