{
  "_id": "e515c5tyi6hebyxl",
  "name": "Holy Javelin",
  "type": "spell",
  "img": "systems/pf1/icons/misc/magic-swirl.png",
  "data": {
    "description": {
      "value": "<div class=\"spell-description\">\n  <p>\n    <strong>School</strong>&nbsp;conjuration&nbsp;(creation)&nbsp;[good];\n    <strong>Level</strong>&nbsp;cleric/oracle 3, inquisitor 3, paladin 2;\n    \n    \n    \n    \n  </p>\n  <p>\n    <strong>Casting Time</strong>&nbsp;1 standard<br>\n    <strong>Components</strong>&nbsp;V, S, DF<br>\n  </p>\n  <p>\n    <strong>Range</strong>&nbsp;medium (100 ft. + 10 ft./level)<br>\n    \n    \n    <strong>Effect</strong>&nbsp;javelin of divine energy<br>\n    <strong>Duration</strong>&nbsp;1 round + 1 round/4 levels<br>\n      <strong>Saving Throw</strong>&nbsp;none;&nbsp;\n      <strong>Spell Resistance</strong>&nbsp;yes<br>\n  </p>\n  <h2>Description</h2>\n  <p>You create a shimmering javelin of holy energy to hurl at an enemy as a ranged touched attack. The javelin deals 1d6 points of damage to an evil creature on a successful attack; it dissipates harmlessly against creatures of any other alignment. Each time a creature starts its turn while impaled by the javelin, it takes another 1d6 points of damage. For every 4 caster levels you have, the javelin remains in the creature for an additional round (to a maximum of 5 rounds at 18th level). While the creature remains impaled, it takes a -2 penalty on attack rolls and skill checks. As a move action, the creature (or another adjacent creature)  can attempt to pull the javelin out (causing it to immediately disappear) with a DC 12 Strength check.  The <i>holy javelin</i> glows like a torch, and this light clearly indicates the impaled creature's location, even if it turns invisible. Since this light is not a light effect, just the glow of a conjured javelin, darkness spells always suppress it, even if they are lower level.</p>\n</div>\n"
    },
    "tags": [],
    "activation": {
      "type": "standard"
    },
    "unchainedAction": {
      "activation": {
        "cost": 2,
        "type": "action"
      }
    },
    "range": {
      "units": "medium"
    },
    "uses": {
      "per": ""
    },
    "measureTemplate": {
      "size": "0"
    },
    "actionType": "other",
    "damage": {
      "parts": [],
      "critParts": [],
      "nonCritParts": []
    },
    "attackParts": [],
    "ability": {
      "attack": "",
      "damage": ""
    },
    "save": {
      "dc": "0"
    },
    "effectNotes": [],
    "attackNotes": [],
    "links": {
      "children": []
    },
    "flags": {
      "boolean": [],
      "dictionary": []
    },
    "scriptCalls": [],
    "learnedAt": {
      "class": [
        [
          "cleric/oracle",
          3
        ],
        [
          "paladin",
          2
        ],
        [
          "inquisitor",
          3
        ]
      ],
      "domain": [],
      "subDomain": [],
      "elementalSchool": [],
      "bloodline": []
    },
    "level": 3,
    "school": "con",
    "subschool": "creation",
    "types": "good",
    "conditionals": [],
    "components": {
      "verbal": true,
      "somatic": true,
      "divineFocus": 1
    },
    "shortDescription": "<p>You create a shimmering javelin of holy energy to hurl at an enemy as a ranged touched attack. The javelin deals 1d6 points of damage to an evil creature on a successful attack; it dissipates harmlessly against creatures of any other alignment. Each time a creature starts its turn while impaled by the javelin, it takes another 1d6 points of damage. For every 4 caster levels you have, the javelin remains in the creature for an additional round (to a maximum of 5 rounds at 18th level). While the creature remains impaled, it takes a -2 penalty on attack rolls and skill checks. As a move action, the creature (or another adjacent creature)  can attempt to pull the javelin out (causing it to immediately disappear) with a DC 12 Strength check.  The <i>holy javelin</i> glows like a torch, and this light clearly indicates the impaled creature's location, even if it turns invisible. Since this light is not a light effect, just the glow of a conjured javelin, darkness spells always suppress it, even if they are lower level.</p>",
    "spellDuration": "1 round + 1 round/4 levels",
    "spellEffect": "javelin of divine energy"
  },
  "effects": [],
  "folder": null,
  "sort": 0,
  "permission": {
    "default": 0
  },
  "flags": {}
}