{
  "_id": "zyfm6dq35i4hip4u",
  "name": "Hypnotic Pattern",
  "type": "spell",
  "img": "systems/pf1/icons/misc/magic-swirl.png",
  "data": {
    "description": {
      "value": "<div class=\"spell-description\">\n  <p>\n    <strong>School</strong>&nbsp;illusion&nbsp;(pattern)&nbsp;[mind-affecting];\n    <strong>Level</strong>&nbsp;bard 2, mesmerist 2, psychic 2, sorcerer/wizard 2;\n    \n    <strong>Subdomain</strong>&nbsp;Stars 2;\n    \n    \n  </p>\n  <p>\n    <strong>Casting Time</strong>&nbsp;1 standard<br>\n    <strong>Components</strong>&nbsp;S, M (a stick of incense or a crystal rod)<br>\n  </p>\n  <p>\n    <strong>Range</strong>&nbsp;medium (100 ft. + 10 ft./level)<br>\n    \n    \n    <strong>Effect</strong>&nbsp;colorful lights in a 10-ft.-radius spread<br>\n    <strong>Duration</strong>&nbsp;concentration + 2 rounds<br>\n      <strong>Saving Throw</strong>&nbsp;Will negates;&nbsp;\n      <strong>Spell Resistance</strong>&nbsp;yes<br>\n  </p>\n  <h2>Description</h2>\n  <p>A twisting pattern of subtle, shifting colors weaves through the air, fascinating creatures within it. Roll 2d4 and add your caster level (maximum 10) to determine the total number of HD of creatures affected. Creatures with the fewest HD are affected first; and, among creatures with equal HD, those who are closest to the spell's point of origin are affected first. HD that are not sufficient to affect a creature are wasted. Affected creatures become fascinated by the pattern of colors. Sightless creatures are not affected.</p><p>A wizard or sorcerer need not utter a sound to cast this spell, but a bard must perform as a verbal component.</p>\n</div>\n"
    },
    "tags": [],
    "activation": {
      "type": "standard"
    },
    "unchainedAction": {
      "activation": {
        "cost": 2,
        "type": "action"
      }
    },
    "range": {
      "units": "medium"
    },
    "uses": {
      "per": ""
    },
    "measureTemplate": {
      "size": "0"
    },
    "actionType": "spellsave",
    "damage": {
      "parts": [],
      "critParts": [],
      "nonCritParts": []
    },
    "attackParts": [],
    "ability": {
      "attack": "",
      "damage": ""
    },
    "save": {
      "dc": "0",
      "type": "will",
      "description": "Will negates"
    },
    "effectNotes": [],
    "attackNotes": [],
    "links": {
      "children": []
    },
    "flags": {
      "boolean": [],
      "dictionary": []
    },
    "scriptCalls": [],
    "learnedAt": {
      "class": [
        [
          "sorcerer/wizard",
          2
        ],
        [
          "bard",
          2
        ],
        [
          "psychic",
          2
        ],
        [
          "mesmerist",
          2
        ]
      ],
      "domain": [],
      "subDomain": [
        [
          "Stars",
          2
        ]
      ],
      "elementalSchool": [],
      "bloodline": []
    },
    "level": 2,
    "school": "ill",
    "subschool": "pattern",
    "types": "mind-affecting",
    "conditionals": [],
    "components": {
      "somatic": true,
      "material": true
    },
    "materials": {
      "value": "a stick of incense or a crystal rod"
    },
    "shortDescription": "<p>A twisting pattern of subtle, shifting colors weaves through the air, fascinating creatures within it. Roll 2d4 and add your caster level (maximum 10) to determine the total number of HD of creatures affected. Creatures with the fewest HD are affected first; and, among creatures with equal HD, those who are closest to the spell's point of origin are affected first. HD that are not sufficient to affect a creature are wasted. Affected creatures become fascinated by the pattern of colors. Sightless creatures are not affected.</p><p>A wizard or sorcerer need not utter a sound to cast this spell, but a bard must perform as a verbal component.</p>",
    "spellDuration": "concentration + 2 rounds",
    "spellEffect": "colorful lights in a 10-ft.-radius spread"
  },
  "effects": [],
  "folder": null,
  "sort": 0,
  "permission": {
    "default": 0
  },
  "flags": {}
}