{
  "_id": "j7xfcxbi5gbziz4o",
  "name": "Illusory Script",
  "type": "spell",
  "img": "systems/pf1/icons/misc/magic-swirl.png",
  "data": {
    "description": {
      "value": "<div class=\"spell-description\">\n  <p>\n    <strong>School</strong>&nbsp;illusion&nbsp;(phantasm)&nbsp;[mind-affecting];\n    <strong>Level</strong>&nbsp;bard 3, mesmerist 3, occultist 3, psychic 3, sorcerer/wizard 3;\n    \n    \n    \n    \n  </p>\n  <p>\n    <strong>Casting Time</strong>&nbsp;1 minute<br>\n    <strong>Components</strong>&nbsp;V, S, M (lead-based ink worth 50 gp)<br>\n  </p>\n  <p>\n    <strong>Range</strong>&nbsp;touch<br>\n    \n    <strong>Targets</strong>&nbsp;one touched object weighing no more than 10 lbs.<br>\n    \n    <strong>Duration</strong>&nbsp;one day/level<br>\n      <strong>Saving Throw</strong>&nbsp;Will negates; see text;&nbsp;\n      <strong>Spell Resistance</strong>&nbsp;yes<br>\n  </p>\n  <h2>Description</h2>\n  <p>You write instructions or other information on parchment, paper, or any suitable writing material. The <i>illusory script</i> appears to be some form of foreign or magical writing. Only the person (or people) designated by you at the time of the casting can read the writing; it's unintelligible to any other character.</p><p>Any unauthorized creature attempting to read the script triggers a potent illusory effect and must make a saving throw. A successful saving throw means the creature can look away with only a mild sense of disorientation. Failure means the creature is subject to a <i>suggestion</i> implanted in the script by you at the time the <i>illusory script</i> spell was cast. The <i>suggestion</i> lasts only 30 minutes. Typical <i>suggestion</i>s include \"Close the book and leave,\" \"Forget the existence of this note,\" and so forth. If successfully dispelled by <i>dispel magic,</i> the <i>illusory script</i> and its secret message disappear.</p><p>The hidden message can be read by a combination of the <i>true seeing</i> spell with the <i>read magic</i> or <i>comprehend languages</i> spell.</p>\n</div>\n"
    },
    "tags": [],
    "activation": {
      "type": "minute"
    },
    "unchainedAction": {
      "activation": {
        "type": "minute"
      }
    },
    "target": {
      "value": "one touched object weighing no more than 10 lbs."
    },
    "range": {
      "units": "touch"
    },
    "uses": {
      "per": ""
    },
    "measureTemplate": {
      "size": "0"
    },
    "actionType": "spellsave",
    "damage": {
      "parts": [],
      "critParts": [],
      "nonCritParts": []
    },
    "attackParts": [],
    "ability": {
      "attack": "",
      "damage": ""
    },
    "save": {
      "dc": "0",
      "type": "will",
      "description": "Will negates; see text"
    },
    "effectNotes": [],
    "attackNotes": [],
    "links": {
      "children": []
    },
    "flags": {
      "boolean": [],
      "dictionary": []
    },
    "scriptCalls": [],
    "learnedAt": {
      "class": [
        [
          "sorcerer/wizard",
          3
        ],
        [
          "bard",
          3
        ],
        [
          "psychic",
          3
        ],
        [
          "mesmerist",
          3
        ],
        [
          "occultist",
          3
        ]
      ],
      "domain": [],
      "subDomain": [],
      "elementalSchool": [],
      "bloodline": []
    },
    "level": 3,
    "school": "ill",
    "subschool": "phantasm",
    "types": "mind-affecting",
    "conditionals": [],
    "components": {
      "verbal": true,
      "somatic": true,
      "material": true
    },
    "materials": {
      "value": "lead-based ink worth 50 gp",
      "gpValue": 50
    },
    "spellbook": "",
    "preparation": {
      "autoDeductCharges": false,
      "spontaneousPrepared": false
    },
    "shortDescription": "<p>You write instructions or other information on parchment, paper, or any suitable writing material. The <i>illusory script</i> appears to be some form of foreign or magical writing. Only the person (or people) designated by you at the time of the casting can read the writing; it's unintelligible to any other character.</p><p>Any unauthorized creature attempting to read the script triggers a potent illusory effect and must make a saving throw. A successful saving throw means the creature can look away with only a mild sense of disorientation. Failure means the creature is subject to a <i>suggestion</i> implanted in the script by you at the time the <i>illusory script</i> spell was cast. The <i>suggestion</i> lasts only 30 minutes. Typical <i>suggestion</i>s include \"Close the book and leave,\" \"Forget the existence of this note,\" and so forth. If successfully dispelled by <i>dispel magic,</i> the <i>illusory script</i> and its secret message disappear.</p><p>The hidden message can be read by a combination of the <i>true seeing</i> spell with the <i>read magic</i> or <i>comprehend languages</i> spell.</p>",
    "spellDuration": "one day/level",
    "spellPoints": {
      "cost": ""
    }
  },
  "effects": [],
  "folder": null,
  "sort": 0,
  "permission": {
    "default": 0
  },
  "flags": {}
}