{
  "_id": "wu4y1ilg6iq28cr6",
  "name": "Interposing Hand",
  "type": "spell",
  "img": "systems/pf1/icons/misc/magic-swirl.png",
  "data": {
    "description": {
      "value": "<div class=\"spell-description\">\n  <p>\n    <strong>School</strong>&nbsp;evocation&nbsp;[force];\n    <strong>Level</strong>&nbsp;magus 5, occultist 5, psychic 5, sorcerer/wizard 5;\n    \n    \n    \n    \n  </p>\n  <p>\n    <strong>Casting Time</strong>&nbsp;1 standard<br>\n    <strong>Components</strong>&nbsp;V, S, F (a soft glove)<br>\n  </p>\n  <p>\n    <strong>Range</strong>&nbsp;medium (100 ft. + 10 ft./level)<br>\n    \n    \n    <strong>Effect</strong>&nbsp;10-ft. hand<br>\n    <strong>Duration</strong>&nbsp;1 round/level<br>\n      <strong>Saving Throw</strong>&nbsp;none;&nbsp;\n      <strong>Spell Resistance</strong>&nbsp;yes<br>\n  </p>\n  <h2>Description</h2>\n  <p><i>Interposing hand</i> creates a Large magic hand that appears between you and one opponent. This floating, disembodied hand then moves to remain between the two of you, regardless of where you move or how the opponent tries to get around it, providing cover (+4 AC) for you against that opponent. Nothing can fool the hand-it sticks with the selected opponent in spite of <i>darkness,</i> invisibility, polymorphing, or any other attempt at hiding or disguise. The hand does not pursue an opponent, however.</p><p>An <i>interposing hand</i> is 10 feet long and about that wide with its fingers outstretched. It has as many hit points as you do when you're undamaged, and is AC 20 (-1 size, +11 natural). It takes damage as a normal creature, but most magical effects that don't cause damage do not affect it.</p><p>The hand never provokes attacks of opportunity from opponents.</p><p>It cannot push through a <i>Wall of Force or</i> enter an <i>antimagic field</i>, but it suffers the full effect of a <i>prismatic wall</i> or <i>prismatic sphere.</i> The hand makes saving throws as its caster.</p><p><i>Disintegrate</i> or a successful <i>dispel magic</i> destroys it.</p><p>Any creature weighing 2,000 pounds or less that tries to push past the hand is slowed to half its normal speed. The hand cannot reduce the speed of a creature weighing more than 2,000 pounds, but it still affects the creature's attacks.</p><p>Directing the spell to a new target is a move action.</p>\n</div>\n"
    },
    "tags": [],
    "activation": {
      "type": "standard"
    },
    "unchainedAction": {
      "activation": {
        "cost": 2,
        "type": "action"
      }
    },
    "range": {
      "units": "medium"
    },
    "uses": {
      "per": ""
    },
    "measureTemplate": {
      "size": "0"
    },
    "actionType": "other",
    "damage": {
      "parts": [],
      "critParts": [],
      "nonCritParts": []
    },
    "attackParts": [],
    "ability": {
      "attack": "",
      "damage": ""
    },
    "save": {
      "dc": "0"
    },
    "effectNotes": [],
    "attackNotes": [],
    "links": {
      "children": []
    },
    "flags": {
      "boolean": [],
      "dictionary": []
    },
    "scriptCalls": [],
    "learnedAt": {
      "class": [
        [
          "sorcerer/wizard",
          5
        ],
        [
          "magus",
          5
        ],
        [
          "psychic",
          5
        ],
        [
          "occultist",
          5
        ]
      ],
      "domain": [],
      "subDomain": [],
      "elementalSchool": [],
      "bloodline": []
    },
    "level": 5,
    "school": "evo",
    "types": "force",
    "conditionals": [],
    "components": {
      "verbal": true,
      "somatic": true,
      "focus": true
    },
    "materials": {
      "focus": "a soft glove"
    },
    "shortDescription": "<p><i>Interposing hand</i> creates a Large magic hand that appears between you and one opponent. This floating, disembodied hand then moves to remain between the two of you, regardless of where you move or how the opponent tries to get around it, providing cover (+4 AC) for you against that opponent. Nothing can fool the hand-it sticks with the selected opponent in spite of <i>darkness,</i> invisibility, polymorphing, or any other attempt at hiding or disguise. The hand does not pursue an opponent, however.</p><p>An <i>interposing hand</i> is 10 feet long and about that wide with its fingers outstretched. It has as many hit points as you do when you're undamaged, and is AC 20 (-1 size, +11 natural). It takes damage as a normal creature, but most magical effects that don't cause damage do not affect it.</p><p>The hand never provokes attacks of opportunity from opponents.</p><p>It cannot push through a <i>Wall of Force or</i> enter an <i>antimagic field</i>, but it suffers the full effect of a <i>prismatic wall</i> or <i>prismatic sphere.</i> The hand makes saving throws as its caster.</p><p><i>Disintegrate</i> or a successful <i>dispel magic</i> destroys it.</p><p>Any creature weighing 2,000 pounds or less that tries to push past the hand is slowed to half its normal speed. The hand cannot reduce the speed of a creature weighing more than 2,000 pounds, but it still affects the creature's attacks.</p><p>Directing the spell to a new target is a move action.</p>",
    "spellDuration": "1 round/level",
    "spellEffect": "10-ft. hand"
  },
  "effects": [],
  "folder": null,
  "sort": 0,
  "permission": {
    "default": 0
  },
  "flags": {}
}