{
  "_id": "xmacjpo6tgm1xhnv",
  "name": "Ironwood",
  "type": "spell",
  "img": "systems/pf1/icons/misc/magic-swirl.png",
  "data": {
    "description": {
      "value": "<div class=\"spell-description\">\n  <p>\n    <strong>School</strong>&nbsp;transmutation;\n    <strong>Level</strong>&nbsp;druid 6, hunter 6, occultist 6;\n    \n    \n    \n    \n  </p>\n  <p>\n    <strong>Casting Time</strong>&nbsp;1 minute<br>\n    <strong>Components</strong>&nbsp;V, S, F (wood to be transformed)<br>\n  </p>\n  <p>\n    \n    \n    \n    <strong>Effect</strong>&nbsp;an ironwood object weighing up to 5 lbs./level<br>\n    <strong>Duration</strong>&nbsp;1 day/level<br>\n      <strong>Saving Throw</strong>&nbsp;none;&nbsp;\n      <strong>Spell Resistance</strong>&nbsp;no<br>\n  </p>\n  <h2>Description</h2>\n  <p><i>Ironwood</i> is a magical substance created by druids from normal wood. While remaining natural wood in almost every way, <i>ironwood</i> is as strong, heavy, and resistant to fire as steel. Spells that affect metal or iron do not function on <i>ironwood</i>. Spells that affect wood do affect <i>ironwood</i>, although <i>ironwood</i> does not burn. Using this spell with <i>wood shape</i> or a wood-related Craft check, you can fashion wooden items that function as steel items. Thus, wooden plate armor and wooden swords can be created that are as durable as their normal steel counterparts. These items are freely usable by druids.</p><p>Further, if you make only half as much <i>ironwood</i> as the spell would normally allow, any weapon, shield, or suit of armor so created is treated as a magic item with a +1 enhancement bonus.</p>\n</div>\n"
    },
    "tags": [],
    "activation": {
      "type": "minute"
    },
    "unchainedAction": {
      "activation": {
        "type": "minute"
      }
    },
    "range": {
      "value": 0,
      "units": "ft"
    },
    "uses": {
      "per": ""
    },
    "measureTemplate": {
      "size": "0"
    },
    "actionType": "other",
    "damage": {
      "parts": [],
      "critParts": [],
      "nonCritParts": []
    },
    "attackParts": [],
    "ability": {
      "attack": "",
      "damage": ""
    },
    "save": {
      "dc": "0"
    },
    "effectNotes": [],
    "attackNotes": [],
    "links": {
      "children": []
    },
    "flags": {
      "boolean": [],
      "dictionary": []
    },
    "scriptCalls": [],
    "learnedAt": {
      "class": [
        [
          "druid",
          6
        ],
        [
          "occultist",
          6
        ],
        [
          "hunter",
          6
        ]
      ],
      "domain": [],
      "subDomain": [],
      "elementalSchool": [],
      "bloodline": []
    },
    "level": 6,
    "school": "trs",
    "conditionals": [],
    "components": {
      "verbal": true,
      "somatic": true,
      "focus": true
    },
    "materials": {
      "focus": "wood to be transformed"
    },
    "sr": false,
    "shortDescription": "<p><i>Ironwood</i> is a magical substance created by druids from normal wood. While remaining natural wood in almost every way, <i>ironwood</i> is as strong, heavy, and resistant to fire as steel. Spells that affect metal or iron do not function on <i>ironwood</i>. Spells that affect wood do affect <i>ironwood</i>, although <i>ironwood</i> does not burn. Using this spell with <i>wood shape</i> or a wood-related Craft check, you can fashion wooden items that function as steel items. Thus, wooden plate armor and wooden swords can be created that are as durable as their normal steel counterparts. These items are freely usable by druids.</p><p>Further, if you make only half as much <i>ironwood</i> as the spell would normally allow, any weapon, shield, or suit of armor so created is treated as a magic item with a +1 enhancement bonus.</p>",
    "spellDuration": "1 day/level",
    "spellEffect": "an ironwood object weighing up to 5 lbs./level"
  },
  "effects": [],
  "folder": null,
  "sort": 0,
  "permission": {
    "default": 0
  },
  "flags": {}
}