{
  "_id": "d0rd4z2kcln69xif",
  "name": "Lead Blades",
  "type": "spell",
  "img": "systems/pf1/icons/misc/magic-swirl.png",
  "data": {
    "description": {
      "value": "<div class=\"spell-description\">\n  <p>\n    <strong>School</strong>&nbsp;transmutation;\n    <strong>Level</strong>&nbsp;hunter 1, occultist 1, ranger 1;\n    \n    \n    \n    \n  </p>\n  <p>\n    <strong>Casting Time</strong>&nbsp;1 standard<br>\n    <strong>Components</strong>&nbsp;V, S<br>\n  </p>\n  <p>\n    <strong>Range</strong>&nbsp;personal<br>\n    \n    <strong>Targets</strong>&nbsp;touch<br>\n    \n    <strong>Duration</strong>&nbsp;1 minute/level (D)<br>\n  </p>\n  <h2>Description</h2>\n  <p><i>Lead blades</i> increases the momentum and density of your melee weapons just as they strike a foe. All melee weapons you are carrying when the spell is cast deal damage as if one size category larger than they actually are. For instance, a Medium longsword normally deals 1d8 points of damage, but it would instead deal 2d6 points of damage if benefiting from <i>lead blades</i> (see page 145 of the <i>Core Rulebook</i> for more information). Only you can benefit from this spell. If anyone else uses one of your weapons to make an attack it deals damage as normal for its size.</p>\n</div>\n"
    },
    "tags": [],
    "activation": {
      "type": "standard"
    },
    "unchainedAction": {
      "activation": {
        "cost": 2,
        "type": "action"
      }
    },
    "target": {
      "value": "touch"
    },
    "range": {
      "units": "personal"
    },
    "uses": {
      "per": ""
    },
    "measureTemplate": {
      "size": "0"
    },
    "actionType": "",
    "damage": {
      "parts": [],
      "critParts": [],
      "nonCritParts": []
    },
    "attackParts": [],
    "ability": {
      "attack": "",
      "damage": ""
    },
    "save": {
      "dc": "0"
    },
    "effectNotes": [],
    "attackNotes": [],
    "links": {
      "children": []
    },
    "flags": {
      "boolean": [],
      "dictionary": []
    },
    "scriptCalls": [],
    "learnedAt": {
      "class": [
        [
          "ranger",
          1
        ],
        [
          "occultist",
          1
        ],
        [
          "hunter",
          1
        ]
      ],
      "domain": [],
      "subDomain": [],
      "elementalSchool": [],
      "bloodline": []
    },
    "school": "trs",
    "conditionals": [],
    "components": {
      "verbal": true,
      "somatic": true
    },
    "sr": false,
    "shortDescription": "<p><i>Lead blades</i> increases the momentum and density of your melee weapons just as they strike a foe. All melee weapons you are carrying when the spell is cast deal damage as if one size category larger than they actually are. For instance, a Medium longsword normally deals 1d8 points of damage, but it would instead deal 2d6 points of damage if benefiting from <i>lead blades</i> (see page 145 of the <i>Core Rulebook</i> for more information). Only you can benefit from this spell. If anyone else uses one of your weapons to make an attack it deals damage as normal for its size.</p>",
    "spellDuration": "1 minute/level (D)"
  },
  "effects": [],
  "folder": null,
  "sort": 0,
  "permission": {
    "default": 0
  },
  "flags": {}
}