{
  "_id": "l34wua4zw580fs39",
  "name": "Lightfingers",
  "type": "spell",
  "img": "systems/pf1/icons/misc/magic-swirl.png",
  "data": {
    "description": {
      "value": "<div class=\"spell-description\">\n  <p>\n    <strong>School</strong>&nbsp;transmutation;\n    <strong>Level</strong>&nbsp;psychic 1, spiritualist 1, witch 1;\n    \n    \n    \n    \n  </p>\n  <p>\n    <strong>Casting Time</strong>&nbsp;1 standard<br>\n    <strong>Components</strong>&nbsp;V, S<br>\n  </p>\n  <p>\n    <strong>Range</strong>&nbsp;close (25 ft. + 5 ft./2 levels)<br>\n    \n    <strong>Targets</strong>&nbsp;one creature<br>\n    \n    <strong>Duration</strong>&nbsp;instantaneous<br>\n      <strong>Saving Throw</strong>&nbsp;none;&nbsp;\n      <strong>Spell Resistance</strong>&nbsp;yes<br>\n  </p>\n  <h2>Description</h2>\n  <p>A flutter of subtle, telekinetic force causes your target to drop a single nonmagical carried item weighing no more than 1 pound per caster level, such as a coin purse, a key ring, or a loose object in its pocket. The target must succeed at a Perception check against the spell's save DC to notice the dropped item. You select what item the target drops as long as you can see both your target and the item you wish to affect. This use of the spell can't cause a target to lose a held item or anything it is wearing, including jewelry.  You can instead cast <i>lightfingers</i> to attempt a single disarm or stealAPG combat maneuver, using your caster level instead of your base attack bonus, and using your Charisma, Intelligence, or Wisdom modifier, whichever is highest, instead of your Strength modifier. This disarm or steal attempt does not provoke attacks of opportunity and cannot be affected by feats or other means of altering a combat maneuver's effects. This use of the spell is immediately obvious.</p>\n</div>\n"
    },
    "tags": [],
    "activation": {
      "type": "standard"
    },
    "unchainedAction": {
      "activation": {
        "cost": 2,
        "type": "action"
      }
    },
    "target": {
      "value": "one creature"
    },
    "range": {
      "units": "close"
    },
    "uses": {
      "per": ""
    },
    "measureTemplate": {
      "size": "0"
    },
    "actionType": "",
    "damage": {
      "parts": [],
      "critParts": [],
      "nonCritParts": []
    },
    "attackParts": [],
    "ability": {
      "attack": "",
      "damage": ""
    },
    "save": {
      "dc": "0"
    },
    "effectNotes": [],
    "attackNotes": [],
    "links": {
      "children": []
    },
    "flags": {
      "boolean": [],
      "dictionary": []
    },
    "scriptCalls": [],
    "learnedAt": {
      "class": [
        [
          "witch",
          1
        ],
        [
          "psychic",
          1
        ],
        [
          "spiritualist",
          1
        ]
      ],
      "domain": [],
      "subDomain": [],
      "elementalSchool": [],
      "bloodline": []
    },
    "school": "trs",
    "conditionals": [],
    "components": {
      "verbal": true,
      "somatic": true
    },
    "shortDescription": "<p>A flutter of subtle, telekinetic force causes your target to drop a single nonmagical carried item weighing no more than 1 pound per caster level, such as a coin purse, a key ring, or a loose object in its pocket. The target must succeed at a Perception check against the spell's save DC to notice the dropped item. You select what item the target drops as long as you can see both your target and the item you wish to affect. This use of the spell can't cause a target to lose a held item or anything it is wearing, including jewelry.  You can instead cast <i>lightfingers</i> to attempt a single disarm or stealAPG combat maneuver, using your caster level instead of your base attack bonus, and using your Charisma, Intelligence, or Wisdom modifier, whichever is highest, instead of your Strength modifier. This disarm or steal attempt does not provoke attacks of opportunity and cannot be affected by feats or other means of altering a combat maneuver's effects. This use of the spell is immediately obvious.</p>",
    "spellDuration": "instantaneous"
  },
  "effects": [],
  "folder": null,
  "sort": 0,
  "permission": {
    "default": 0
  },
  "flags": {}
}