{
  "_id": "cvv6oimqks9n62vy",
  "name": "Magic Weapon",
  "type": "spell",
  "img": "systems/pf1/icons/misc/magic-swirl.png",
  "data": {
    "description": {
      "value": "<div class=\"spell-description\">\n  <p>\n    <strong>School</strong>&nbsp;transmutation;\n    <strong>Level</strong>&nbsp;antipaladin 1, bloodrager 1, cleric/oracle 1, inquisitor 1, magus 1, occultist 1, paladin 1, shaman 1, sorcerer/wizard 1;\n    <strong>Domain</strong>&nbsp;War 1;\n    \n    \n    \n  </p>\n  <p>\n    <strong>Casting Time</strong>&nbsp;1 standard<br>\n    <strong>Components</strong>&nbsp;V, S, DF<br>\n  </p>\n  <p>\n    <strong>Range</strong>&nbsp;touch<br>\n    \n    <strong>Targets</strong>&nbsp;weapon touched<br>\n    \n    <strong>Duration</strong>&nbsp;1 min./level<br>\n      <strong>Saving Throw</strong>&nbsp;Will negates (harmless, object);&nbsp;\n      <strong>Spell Resistance</strong>&nbsp;yes<br>\n  </p>\n  <h2>Description</h2>\n  <p><i>Magic weapon</i> gives a weapon a +1 enhancement bonus on attack and damage rolls. An enhancement bonus does not stack with a masterwork weapon's +1 bonus on attack rolls.</p><p>You can't cast this spell on a natural weapon, such as an unarmed strike (instead, see magic fang). A monk's unarmed strike is considered a weapon, and thus it can be enhanced by this spell.</p>\n</div>\n"
    },
    "tags": [],
    "activation": {
      "type": "standard"
    },
    "unchainedAction": {
      "activation": {
        "cost": 2,
        "type": "action"
      }
    },
    "target": {
      "value": "weapon touched"
    },
    "range": {
      "units": "touch"
    },
    "uses": {
      "per": ""
    },
    "measureTemplate": {
      "size": "0"
    },
    "actionType": "spellsave",
    "damage": {
      "parts": [],
      "critParts": [],
      "nonCritParts": []
    },
    "attackParts": [],
    "ability": {
      "attack": "",
      "damage": ""
    },
    "save": {
      "dc": "0",
      "type": "will",
      "description": "Will negates (harmless, object)"
    },
    "effectNotes": [],
    "attackNotes": [],
    "links": {
      "children": []
    },
    "flags": {
      "boolean": [],
      "dictionary": []
    },
    "scriptCalls": [],
    "learnedAt": {
      "class": [
        [
          "sorcerer/wizard",
          1
        ],
        [
          "cleric/oracle",
          1
        ],
        [
          "paladin",
          1
        ],
        [
          "inquisitor",
          1
        ],
        [
          "antipaladin",
          1
        ],
        [
          "magus",
          1
        ],
        [
          "bloodrager",
          1
        ],
        [
          "shaman",
          1
        ],
        [
          "occultist",
          1
        ]
      ],
      "domain": [
        [
          "War",
          1
        ]
      ],
      "subDomain": [],
      "elementalSchool": [],
      "bloodline": []
    },
    "school": "trs",
    "conditionals": [],
    "components": {
      "verbal": true,
      "somatic": true,
      "divineFocus": 1
    },
    "shortDescription": "<p><i>Magic weapon</i> gives a weapon a +1 enhancement bonus on attack and damage rolls. An enhancement bonus does not stack with a masterwork weapon's +1 bonus on attack rolls.</p><p>You can't cast this spell on a natural weapon, such as an unarmed strike (instead, see magic fang). A monk's unarmed strike is considered a weapon, and thus it can be enhanced by this spell.</p>",
    "spellDuration": "1 min./level"
  },
  "effects": [],
  "folder": null,
  "sort": 0,
  "permission": {
    "default": 0
  },
  "flags": {}
}