{
  "_id": "dlmeq0hpxfbjtibb",
  "name": "Mind Fog",
  "type": "spell",
  "img": "systems/pf1/icons/misc/magic-swirl.png",
  "data": {
    "description": {
      "value": "<div class=\"spell-description\">\n  <p>\n    <strong>School</strong>&nbsp;enchantment&nbsp;(compulsion)&nbsp;[mind-affecting];\n    <strong>Level</strong>&nbsp;bard 5, mesmerist 5, occultist 5, psychic 5, sorcerer/wizard 5, spiritualist 5, witch 5;\n    \n    \n    \n    \n  </p>\n  <p>\n    <strong>Casting Time</strong>&nbsp;1 standard<br>\n    <strong>Components</strong>&nbsp;V, S<br>\n  </p>\n  <p>\n    <strong>Range</strong>&nbsp;medium (100 ft. + 10 ft./level)<br>\n    \n    \n    <strong>Effect</strong>&nbsp;fog spreads in 20-ft. radius, 20 ft. high<br>\n    <strong>Duration</strong>&nbsp;30 minutes and 2d6 rounds; see text<br>\n      <strong>Saving Throw</strong>&nbsp;Will negates;&nbsp;\n      <strong>Spell Resistance</strong>&nbsp;yes<br>\n  </p>\n  <h2>Description</h2>\n  <p><i>Mind fog</i> produces a bank of thin mist that weakens the mental resistance of those caught in it. Creatures in the <i>mind fog</i> take a -10 penalty on Wisdom checks and Will saves. (A creature that successfully saves against the fog is not affected and need not make further saves even if it remains in the fog.) Affected creatures take the penalty as long as they remain in the fog and for 2d6 rounds thereafter. The fog is stationary and lasts for 30 minutes (or until dispersed by wind).</p><p>A moderate wind (11+ mph) disperses the fog in 4 rounds; a strong wind (21+ mph) disperses the fog in 1 round.</p><p>The fog is thin and does not significantly hamper vision.</p>\n</div>\n"
    },
    "tags": [],
    "activation": {
      "type": "standard"
    },
    "unchainedAction": {
      "activation": {
        "cost": 2,
        "type": "action"
      }
    },
    "range": {
      "units": "medium"
    },
    "uses": {
      "per": ""
    },
    "measureTemplate": {
      "size": "0"
    },
    "actionType": "spellsave",
    "damage": {
      "parts": [],
      "critParts": [],
      "nonCritParts": []
    },
    "attackParts": [],
    "ability": {
      "attack": "",
      "damage": ""
    },
    "save": {
      "dc": "0",
      "type": "will",
      "description": "Will negates"
    },
    "effectNotes": [],
    "attackNotes": [],
    "links": {
      "children": []
    },
    "flags": {
      "boolean": [],
      "dictionary": []
    },
    "scriptCalls": [],
    "learnedAt": {
      "class": [
        [
          "sorcerer/wizard",
          5
        ],
        [
          "bard",
          5
        ],
        [
          "witch",
          5
        ],
        [
          "psychic",
          5
        ],
        [
          "mesmerist",
          5
        ],
        [
          "occultist",
          5
        ],
        [
          "spiritualist",
          5
        ]
      ],
      "domain": [],
      "subDomain": [],
      "elementalSchool": [],
      "bloodline": []
    },
    "level": 5,
    "school": "enc",
    "subschool": "compulsion",
    "types": "mind-affecting",
    "conditionals": [],
    "components": {
      "verbal": true,
      "somatic": true
    },
    "shortDescription": "<p><i>Mind fog</i> produces a bank of thin mist that weakens the mental resistance of those caught in it. Creatures in the <i>mind fog</i> take a -10 penalty on Wisdom checks and Will saves. (A creature that successfully saves against the fog is not affected and need not make further saves even if it remains in the fog.) Affected creatures take the penalty as long as they remain in the fog and for 2d6 rounds thereafter. The fog is stationary and lasts for 30 minutes (or until dispersed by wind).</p><p>A moderate wind (11+ mph) disperses the fog in 4 rounds; a strong wind (21+ mph) disperses the fog in 1 round.</p><p>The fog is thin and does not significantly hamper vision.</p>",
    "spellDuration": "30 minutes and 2d6 rounds; see text",
    "spellEffect": "fog spreads in 20-ft. radius, 20 ft. high"
  },
  "effects": [],
  "folder": null,
  "sort": 0,
  "permission": {
    "default": 0
  },
  "flags": {}
}