{
  "_id": "um0zanw53vf4m7sn",
  "name": "Oath of Justice",
  "type": "spell",
  "img": "systems/pf1/icons/misc/magic-swirl.png",
  "data": {
    "description": {
      "value": "<div class=\"spell-description\">\n  <p>\n    <strong>School</strong>&nbsp;necromancy;\n    <strong>Level</strong>&nbsp;cleric/oracle 3, paladin 2;\n    \n    \n    \n    \n  </p>\n  <p>\n    <strong>Casting Time</strong>&nbsp;1 standard<br>\n    <strong>Components</strong>&nbsp;V, S, DF<br>\n  </p>\n  <p>\n    <strong>Range</strong>&nbsp;touch<br>\n    \n    <strong>Targets</strong>&nbsp;two creatures touched<br>\n    \n    <strong>Duration</strong>&nbsp;permanent (see text)<br>\n      <strong>Saving Throw</strong>&nbsp;none;&nbsp;\n      <strong>Spell Resistance</strong>&nbsp;no<br>\n  </p>\n  <h2>Description</h2>\n  <p>This spell seals a solemn vow between two creatures. When this spell is cast, the targets must clasp hands and swear their oath in Kols's name. The spell functions like <i><i>mark of</i> justice</i>, except as noted above and rather than being cursed, the oath-breaker gains a mark on the face indicating to all dwarves who see it that the target has broken a sacred oath, which gives the oath-breaker a -4 penalty to influence dwarves. The mark can be removed as described in the <i><i>mark of</i> justice</i>spell, or the other target can forgive the oath- breaker, which causes the mark to vanish.</p>\n</div>\n"
    },
    "tags": [],
    "activation": {
      "type": "standard"
    },
    "unchainedAction": {
      "activation": {
        "cost": 2,
        "type": "action"
      }
    },
    "target": {
      "value": "two creatures touched"
    },
    "range": {
      "units": "touch"
    },
    "uses": {
      "per": ""
    },
    "measureTemplate": {
      "size": "0"
    },
    "actionType": "",
    "damage": {
      "parts": [],
      "critParts": [],
      "nonCritParts": []
    },
    "attackParts": [],
    "ability": {
      "attack": "",
      "damage": ""
    },
    "save": {
      "dc": "0"
    },
    "effectNotes": [],
    "attackNotes": [],
    "links": {
      "children": []
    },
    "flags": {
      "boolean": [],
      "dictionary": []
    },
    "scriptCalls": [],
    "learnedAt": {
      "class": [
        [
          "cleric/oracle",
          3
        ],
        [
          "paladin",
          2
        ]
      ],
      "domain": [],
      "subDomain": [],
      "elementalSchool": [],
      "bloodline": []
    },
    "level": 3,
    "school": "nec",
    "conditionals": [],
    "components": {
      "verbal": true,
      "somatic": true,
      "divineFocus": 1
    },
    "sr": false,
    "shortDescription": "<p>This spell seals a solemn vow between two creatures. When this spell is cast, the targets must clasp hands and swear their oath in Kols's name. The spell functions like <i><i>mark of</i> justice</i>, except as noted above and rather than being cursed, the oath-breaker gains a mark on the face indicating to all dwarves who see it that the target has broken a sacred oath, which gives the oath-breaker a -4 penalty to influence dwarves. The mark can be removed as described in the <i><i>mark of</i> justice</i>spell, or the other target can forgive the oath- breaker, which causes the mark to vanish.</p>",
    "spellDuration": "permanent (see text)"
  },
  "effects": [],
  "folder": null,
  "sort": 0,
  "permission": {
    "default": 0
  },
  "flags": {}
}