{
  "_id": "nb9ijjhie5l7x2ir",
  "name": "Out of Sight",
  "type": "spell",
  "img": "systems/pf1/icons/misc/magic-swirl.png",
  "data": {
    "description": {
      "value": "<div class=\"spell-description\">\n  <p>\n    <strong>School</strong>&nbsp;enchantment&nbsp;[mind-affecting];\n    <strong>Level</strong>&nbsp;medium 3, mesmerist 3, psychic 4;\n    \n    \n    \n    \n  </p>\n  <p>\n    <strong>Casting Time</strong>&nbsp;1 standard<br>\n    <strong>Components</strong>&nbsp;V, S, M (a strip of black cloth)<br>\n  </p>\n  <p>\n    <strong>Range</strong>&nbsp;personal<br>\n    \n    <strong>Targets</strong>&nbsp;you<br>\n    \n    <strong>Duration</strong>&nbsp;1 minute/level (D); see text<br>\n  </p>\n  <h2>Description</h2>\n  <p>The spell inhibits the memories of creatures that perceive you. While creatures can perceive you normally, when a creature stops observing you, it must attempt a Will save (spell resistance applies). If it fails, it loses all memory of its awareness of you and your actions while you were under the effects of this spell. The spell's duration listed above measures how long the <i>Out of Sight</i> effect lasts on you, but the memory alteration is instantaneous and can be reversed only by magic such as <i>modify memory</i>.  The creature is still aware of any other changes to itself or its environment. For instance, a guard will remember running, and may notice a newly unlocked door, but will not remember that he was chasing after you.</p>\n</div>\n"
    },
    "tags": [],
    "activation": {
      "type": "standard"
    },
    "unchainedAction": {
      "activation": {
        "cost": 2,
        "type": "action"
      }
    },
    "target": {
      "value": "you"
    },
    "range": {
      "units": "personal"
    },
    "uses": {
      "per": ""
    },
    "measureTemplate": {
      "size": "0"
    },
    "actionType": "spellsave",
    "damage": {
      "parts": [],
      "critParts": [],
      "nonCritParts": []
    },
    "attackParts": [],
    "ability": {
      "attack": "",
      "damage": ""
    },
    "save": {
      "dc": "0",
      "type": "will",
      "description": "Will negates; see text"
    },
    "effectNotes": [],
    "attackNotes": [],
    "links": {
      "children": []
    },
    "flags": {
      "boolean": [],
      "dictionary": []
    },
    "scriptCalls": [],
    "learnedAt": {
      "class": [
        [
          "psychic",
          4
        ],
        [
          "medium",
          3
        ],
        [
          "mesmerist",
          3
        ]
      ],
      "domain": [],
      "subDomain": [],
      "elementalSchool": [],
      "bloodline": []
    },
    "level": 4,
    "school": "enc",
    "types": "mind-affecting",
    "conditionals": [],
    "components": {
      "verbal": true,
      "somatic": true,
      "material": true
    },
    "materials": {
      "value": "a strip of black cloth"
    },
    "shortDescription": "<p>The spell inhibits the memories of creatures that perceive you. While creatures can perceive you normally, when a creature stops observing you, it must attempt a Will save (spell resistance applies). If it fails, it loses all memory of its awareness of you and your actions while you were under the effects of this spell. The spell's duration listed above measures how long the <i>Out of Sight</i> effect lasts on you, but the memory alteration is instantaneous and can be reversed only by magic such as <i>modify memory</i>.  The creature is still aware of any other changes to itself or its environment. For instance, a guard will remember running, and may notice a newly unlocked door, but will not remember that he was chasing after you.</p>",
    "spellDuration": "1 minute/level (D); see text"
  },
  "effects": [],
  "folder": null,
  "sort": 0,
  "permission": {
    "default": 0
  },
  "flags": {}
}