{
  "_id": "41d87ar2vzt2rnhv",
  "name": "Passing Fancy",
  "type": "spell",
  "img": "systems/pf1/icons/misc/magic-swirl.png",
  "data": {
    "description": {
      "value": "<div class=\"spell-description\">\n  <p>\n    <strong>School</strong>&nbsp;enchantment&nbsp;(compulsion)&nbsp;[mind-affecting];\n    <strong>Level</strong>&nbsp;bard 2, mesmerist 2, psychic 2, sorcerer/wizard 2, witch 2;\n    \n    \n    \n    \n  </p>\n  <p>\n    <strong>Casting Time</strong>&nbsp;1 standard<br>\n    <strong>Components</strong>&nbsp;V, S<br>\n  </p>\n  <p>\n    <strong>Range</strong>&nbsp;close (25 ft. + 5 ft./2 levels)<br>\n    \n    <strong>Targets</strong>&nbsp;one living creature<br>\n    \n    <strong>Duration</strong>&nbsp;4d4 rounds (D)<br>\n      <strong>Saving Throw</strong>&nbsp;Will negates;&nbsp;\n      <strong>Spell Resistance</strong>&nbsp;yes<br>\n  </p>\n  <h2>Description</h2>\n  <p>Taldor's infamous Lion Blades imported this spell from the ninja clans of Minkai, and both groups use it to great effect when maneuvering among the shallow upper classes. When you cast the spell, you dictate one specific topic or recent event and instill a magical obsession with that subject within the target. An affected creature becomes fascinated by the topic, and becomes  completely focused on discussing the event with anyone nearby, possibly wandering off or distracting unaffected creatures. <i>Passing fancy</i> has no effect on a creature with an Intelligence of 2 or less.  Because the target talks and interacts with its usual cadence, onlookers take a -10 penalty on Sense Motive checks to notice that anything is amiss with the target's behavior.</p>\n</div>\n"
    },
    "tags": [],
    "activation": {
      "type": "standard"
    },
    "unchainedAction": {
      "activation": {
        "cost": 2,
        "type": "action"
      }
    },
    "target": {
      "value": "one living creature"
    },
    "range": {
      "units": "close"
    },
    "uses": {
      "per": ""
    },
    "measureTemplate": {
      "size": "0"
    },
    "actionType": "spellsave",
    "damage": {
      "parts": [],
      "critParts": [],
      "nonCritParts": []
    },
    "attackParts": [],
    "ability": {
      "attack": "",
      "damage": ""
    },
    "save": {
      "dc": "0",
      "type": "will",
      "description": "Will negates"
    },
    "effectNotes": [],
    "attackNotes": [],
    "links": {
      "children": []
    },
    "flags": {
      "boolean": [],
      "dictionary": []
    },
    "scriptCalls": [],
    "learnedAt": {
      "class": [
        [
          "sorcerer/wizard",
          2
        ],
        [
          "bard",
          2
        ],
        [
          "witch",
          2
        ],
        [
          "psychic",
          2
        ],
        [
          "mesmerist",
          2
        ]
      ],
      "domain": [],
      "subDomain": [],
      "elementalSchool": [],
      "bloodline": []
    },
    "level": 2,
    "school": "enc",
    "subschool": "compulsion",
    "types": "mind-affecting",
    "conditionals": [],
    "components": {
      "verbal": true,
      "somatic": true
    },
    "shortDescription": "<p>Taldor's infamous Lion Blades imported this spell from the ninja clans of Minkai, and both groups use it to great effect when maneuvering among the shallow upper classes. When you cast the spell, you dictate one specific topic or recent event and instill a magical obsession with that subject within the target. An affected creature becomes fascinated by the topic, and becomes  completely focused on discussing the event with anyone nearby, possibly wandering off or distracting unaffected creatures. <i>Passing fancy</i> has no effect on a creature with an Intelligence of 2 or less.  Because the target talks and interacts with its usual cadence, onlookers take a -10 penalty on Sense Motive checks to notice that anything is amiss with the target's behavior.</p>",
    "spellDuration": "4d4 rounds (D)"
  },
  "effects": [],
  "folder": null,
  "sort": 0,
  "permission": {
    "default": 0
  },
  "flags": {}
}