{
  "_id": "su9t0un5iwifqbux",
  "name": "Peerless Integrity",
  "type": "spell",
  "img": "systems/pf1/icons/misc/magic-swirl.png",
  "data": {
    "description": {
      "value": "<div class=\"spell-description\">\n  <p>\n    <strong>School</strong>&nbsp;illusion&nbsp;(glamer);\n    <strong>Level</strong>&nbsp;antipaladin 2, bard 2, mesmerist 2, psychic 2, sorcerer/wizard 2;\n    \n    \n    \n    \n  </p>\n  <p>\n    <strong>Casting Time</strong>&nbsp;1 standard<br>\n    <strong>Components</strong>&nbsp;V, S, DF<br>\n  </p>\n  <p>\n    <strong>Range</strong>&nbsp;personal<br>\n    <strong>Area</strong>&nbsp;10-ft.-radius emanation centered on you<br>\n    \n    \n    <strong>Duration</strong>&nbsp;10 minutes/level<br>\n  </p>\n  <h2>Description</h2>\n  <p><i>Peerless integrity</i> conceals the alignment of creatures from divination magic. All creatures within the spell's area, including you, appear to have lawful good auras for the purposes of divination spells and effects that reveal alignments (such as <i>detect law</i> and <i>see</i> alignmentUC), instead of their actual alignments. If the caster of such divination magic succeeds at a Will save, the caster recognizes whether the readings are true or false. Any creature under the effects of this spell gains a +2 circumstance modifier on Bluff and Diplomacy checks.  This spell does not affect other types of divination magic (such as <i>detect thoughts</i> or <i>discern</i> lies) and does not protect against spells or effects that cause harm based on targeted creatures' alignments.</p>\n</div>\n"
    },
    "tags": [],
    "activation": {
      "type": "standard"
    },
    "unchainedAction": {
      "activation": {
        "cost": 2,
        "type": "action"
      }
    },
    "range": {
      "units": "personal"
    },
    "uses": {
      "per": ""
    },
    "measureTemplate": {
      "size": "0"
    },
    "actionType": "spellsave",
    "damage": {
      "parts": [],
      "critParts": [],
      "nonCritParts": []
    },
    "attackParts": [],
    "ability": {
      "attack": "",
      "damage": ""
    },
    "save": {
      "dc": "0",
      "type": "will",
      "description": "none or Will negates; see text"
    },
    "effectNotes": [],
    "attackNotes": [],
    "links": {
      "children": []
    },
    "flags": {
      "boolean": [],
      "dictionary": []
    },
    "scriptCalls": [],
    "learnedAt": {
      "class": [
        [
          "sorcerer/wizard",
          2
        ],
        [
          "bard",
          2
        ],
        [
          "antipaladin",
          2
        ],
        [
          "psychic",
          2
        ],
        [
          "mesmerist",
          2
        ]
      ],
      "domain": [],
      "subDomain": [],
      "elementalSchool": [],
      "bloodline": []
    },
    "level": 2,
    "school": "ill",
    "subschool": "glamer",
    "conditionals": [],
    "components": {
      "verbal": true,
      "somatic": true,
      "divineFocus": 1
    },
    "sr": false,
    "shortDescription": "<p><i>Peerless integrity</i> conceals the alignment of creatures from divination magic. All creatures within the spell's area, including you, appear to have lawful good auras for the purposes of divination spells and effects that reveal alignments (such as <i>detect law</i> and <i>see</i> alignmentUC), instead of their actual alignments. If the caster of such divination magic succeeds at a Will save, the caster recognizes whether the readings are true or false. Any creature under the effects of this spell gains a +2 circumstance modifier on Bluff and Diplomacy checks.  This spell does not affect other types of divination magic (such as <i>detect thoughts</i> or <i>discern</i> lies) and does not protect against spells or effects that cause harm based on targeted creatures' alignments.</p>",
    "spellDuration": "10 minutes/level",
    "spellArea": "10-ft.-radius emanation centered on you"
  },
  "effects": [],
  "folder": null,
  "sort": 0,
  "permission": {
    "default": 0
  },
  "flags": {}
}