{
  "_id": "sheso071mxbywlah",
  "name": "Plant Shape III",
  "type": "spell",
  "img": "systems/pf1/icons/misc/magic-swirl.png",
  "data": {
    "description": {
      "value": "<div class=\"spell-description\">\n  <p>\n    <strong>School</strong>&nbsp;transmutation&nbsp;(polymorph);\n    <strong>Level</strong>&nbsp;sorcerer/wizard 7;\n    \n    \n    \n    <strong>Bloodline</strong>&nbsp;Verdant 7;\n  </p>\n  <p>\n    <strong>Casting Time</strong>&nbsp;1 standard<br>\n    <strong>Components</strong>&nbsp;V, S, M (a piece of the creature whose form you plan to assume)<br>\n  </p>\n  <p>\n    <strong>Range</strong>&nbsp;personal<br>\n    \n    <strong>Targets</strong>&nbsp;you<br>\n    \n    <strong>Duration</strong>&nbsp;1 min./level<br>\n  </p>\n  <h2>Description</h2>\n  <p>This spell functions as <i>plant shape II</i> except that it also allows you to assume the form of a Huge creature of the plant type. If the form you assume has any of the following abilities, you gain the listed ability: DR, regeneration 5, and trample.</p><p><i>Huge plant</i>: If the form you take is that of a <i>Huge plant</i>, you gain a +8 size bonus to your Strength, a -2 penalty to your Dexterity, a +4 size bonus to your Constitution, and a +6 natural armor bonus.</p>\n</div>\n"
    },
    "tags": [],
    "activation": {
      "type": "standard"
    },
    "unchainedAction": {
      "activation": {
        "cost": 2,
        "type": "action"
      }
    },
    "target": {
      "value": "you"
    },
    "range": {
      "units": "personal"
    },
    "uses": {
      "per": ""
    },
    "measureTemplate": {
      "size": "0"
    },
    "actionType": "",
    "damage": {
      "parts": [],
      "critParts": [],
      "nonCritParts": []
    },
    "attackParts": [],
    "ability": {
      "attack": "",
      "damage": ""
    },
    "save": {
      "dc": "0"
    },
    "effectNotes": [],
    "attackNotes": [],
    "links": {
      "children": []
    },
    "flags": {
      "boolean": [],
      "dictionary": []
    },
    "scriptCalls": [],
    "learnedAt": {
      "class": [
        [
          "sorcerer/wizard",
          7
        ]
      ],
      "domain": [],
      "subDomain": [],
      "elementalSchool": [],
      "bloodline": [
        [
          "Verdant",
          7
        ]
      ]
    },
    "level": 7,
    "school": "trs",
    "subschool": "polymorph",
    "conditionals": [],
    "components": {
      "verbal": true,
      "somatic": true,
      "material": true
    },
    "materials": {
      "value": "a piece of the creature whose form you plan to assume"
    },
    "sr": false,
    "shortDescription": "<p>This spell functions as <i>plant shape II</i> except that it also allows you to assume the form of a Huge creature of the plant type. If the form you assume has any of the following abilities, you gain the listed ability: DR, regeneration 5, and trample.</p><p><i>Huge plant</i>: If the form you take is that of a <i>Huge plant</i>, you gain a +8 size bonus to your Strength, a -2 penalty to your Dexterity, a +4 size bonus to your Constitution, and a +6 natural armor bonus.</p>",
    "spellDuration": "1 min./level"
  },
  "effects": [],
  "folder": null,
  "sort": 0,
  "permission": {
    "default": 0
  },
  "flags": {}
}