{
  "_id": "qf4bqjgeff1q4hjt",
  "name": "Planar Binding",
  "type": "spell",
  "img": "systems/pf1/icons/misc/magic-swirl.png",
  "data": {
    "description": {
      "value": "<div class=\"spell-description\">\n  <p>\n    <strong>School</strong>&nbsp;conjuration&nbsp;(calling)&nbsp;[see text for lesser planar binding];\n    <strong>Level</strong>&nbsp;occultist 6, psychic 6, sorcerer/wizard 6, summoner 5, unchained Summoner 6;\n    <strong>Domain</strong>&nbsp;Void 6;\n    <strong>Subdomain</strong>&nbsp;Aeon 6, Daemon 6, Demon 6, Devil 6, Inevitable 6, Protean 6;\n    \n    <strong>Bloodline</strong>&nbsp;Efreeti 6, Infernal 6;\n  </p>\n  <p>\n    <strong>Casting Time</strong>&nbsp;10 minutes<br>\n    <strong>Components</strong>&nbsp;V, S<br>\n  </p>\n  <p>\n    <strong>Range</strong>&nbsp;close (25 ft. + 5 ft./2 levels)<br>\n    \n    <strong>Targets</strong>&nbsp;up to three elementals or outsiders, totaling no more than 12 HD, no two of which can be more than 30 ft. apart when they appear<br>\n    \n    <strong>Duration</strong>&nbsp;instantaneous<br>\n      <strong>Saving Throw</strong>&nbsp;Will negates;&nbsp;\n      <strong>Spell Resistance</strong>&nbsp;no<br>\n  </p>\n  <h2>Description</h2>\n  <p>This spell functions like @Compendium[pf1.spells.y4b1zmhmsa0gvf06]{Lesser Planar Binding}, except that you may call a single creature of 12 HD or less, or up to three creatures of the same kind whose Hit Dice total no more than 12. Each creature gets a saving throw, makes an independent attempt to escape, and must be individually persuaded to aid you.</p>\n</div>\n"
    },
    "tags": [],
    "activation": {
      "cost": 10,
      "type": "minute"
    },
    "unchainedAction": {
      "activation": {
        "cost": 10,
        "type": "minute"
      }
    },
    "target": {
      "value": "up to three elementals or outsiders, totaling no more than 12 HD, no two of which can be more than 30 ft. apart when they appear"
    },
    "range": {
      "units": "close"
    },
    "uses": {
      "per": ""
    },
    "measureTemplate": {
      "size": "0"
    },
    "actionType": "spellsave",
    "damage": {
      "parts": [],
      "critParts": [],
      "nonCritParts": []
    },
    "attackParts": [],
    "ability": {
      "attack": "",
      "damage": ""
    },
    "save": {
      "dc": "0",
      "type": "will",
      "description": "Will negates"
    },
    "effectNotes": [],
    "attackNotes": [],
    "links": {
      "children": []
    },
    "flags": {
      "boolean": [],
      "dictionary": []
    },
    "scriptCalls": [],
    "learnedAt": {
      "class": [
        [
          "sorcerer/wizard",
          6
        ],
        [
          "summoner",
          5
        ],
        [
          "psychic",
          6
        ],
        [
          "occultist",
          6
        ],
        [
          "unchained Summoner",
          6
        ]
      ],
      "domain": [
        [
          "Void",
          6
        ]
      ],
      "subDomain": [
        [
          "Daemon",
          6
        ],
        [
          "Demon",
          6
        ],
        [
          "Devil",
          6
        ],
        [
          "Inevitable",
          6
        ],
        [
          "Protean",
          6
        ],
        [
          "Aeon",
          6
        ]
      ],
      "elementalSchool": [],
      "bloodline": [
        [
          "Efreeti",
          6
        ],
        [
          "Infernal",
          6
        ]
      ]
    },
    "level": 6,
    "school": "con",
    "subschool": "calling",
    "types": "see text for lesser planar binding",
    "conditionals": [],
    "components": {
      "verbal": true,
      "somatic": true
    },
    "spellbook": "",
    "sr": false,
    "shortDescription": "<p>This spell functions like @Compendium[pf1.spells.y4b1zmhmsa0gvf06]{Lesser Planar Binding}, except that you may call a single creature of 12 HD or less, or up to three creatures of the same kind whose Hit Dice total no more than 12. Each creature gets a saving throw, makes an independent attempt to escape, and must be individually persuaded to aid you.</p>",
    "spellDuration": "instantaneous"
  },
  "effects": [],
  "folder": null,
  "sort": 0,
  "permission": {
    "default": 0
  },
  "flags": {}
}