{
  "_id": "dijesfaw4xmw0jqa",
  "name": "Poisonous Balm",
  "type": "spell",
  "img": "systems/pf1/icons/misc/magic-swirl.png",
  "data": {
    "description": {
      "value": "<div class=\"spell-description\">\n  <p>\n    <strong>School</strong>&nbsp;conjuration&nbsp;(healing)&nbsp;[poison, ruse];\n    <strong>Level</strong>&nbsp;cleric/oracle 4, druid 5, hunter 5, occultist 4, shaman 4, witch 5;\n    \n    \n    \n    \n  </p>\n  <p>\n    <strong>Casting Time</strong>&nbsp;1 standard<br>\n    <strong>Components</strong>&nbsp;V, S<br>\n  </p>\n  <p>\n    <strong>Range</strong>&nbsp;close (25 ft. + 5 ft./2 levels)<br>\n    \n    <strong>Targets</strong>&nbsp;one creature<br>\n    \n    <strong>Duration</strong>&nbsp;instantaneous, then 1 hour or until triggered plus 6 rounds; see text<br>\n      <strong>Saving Throw</strong>&nbsp;Will partial (harmless), then Fortitude negates (see text);&nbsp;\n      <strong>Spell Resistance</strong>&nbsp;yes<br>\n  </p>\n  <h2>Description</h2>\n  <p>You mend the target's injuries, curing 3d8 hit points + 1 point per caster level (maximum +15) as <i><i>cure serious</i> wounds</i>, but leaving its body laced with a subtle toxin that remains inert until you activate it. A target that decides to attempt the Will save and succeeds is healed for half (as <i><i>cure serious</i> wounds</i>) and negates the toxin. Otherwise, you can activate the toxin by concentrating on the spell as a standard action, at which point the victim takes 1d3 points of Strength damage per round for 6 rounds. Once the poison is active, the target can attempt a Fortitude save each round to negate that round's damage and end the affliction. If you don't trigger the poison for 1 hour, the spell ends and leaves the target unharmed.  <i>Detect poison</i> reveals an inert <i><i>poisonous</i> balm</i> only if the caster succeeds at a caster level check against a DC equal to 15 + your caster level. Attempts to identify <i><i>poisonous</i> balm</i> with a skill check incorrectly identify it as <i><i>cure serious</i> wounds</i> (see the ruse descriptor on page 192). A fooled viewer mistakes <i><i>poisonous</i> balm</i>'s aura as the lingering aura of an instantaneous effect.</p>\n</div>\n"
    },
    "tags": [],
    "activation": {
      "type": "standard"
    },
    "unchainedAction": {
      "activation": {
        "cost": 2,
        "type": "action"
      }
    },
    "target": {
      "value": "one creature"
    },
    "range": {
      "units": "close"
    },
    "uses": {
      "per": ""
    },
    "measureTemplate": {
      "size": "0"
    },
    "actionType": "heal",
    "damage": {
      "parts": [],
      "critParts": [],
      "nonCritParts": []
    },
    "attackParts": [],
    "ability": {
      "attack": "",
      "damage": ""
    },
    "save": {
      "dc": "0",
      "type": "fort",
      "description": "Will partial (harmless), then Fortitude negates (see text)"
    },
    "effectNotes": [],
    "attackNotes": [],
    "links": {
      "children": []
    },
    "flags": {
      "boolean": [],
      "dictionary": []
    },
    "scriptCalls": [],
    "learnedAt": {
      "class": [
        [
          "cleric/oracle",
          4
        ],
        [
          "druid",
          5
        ],
        [
          "witch",
          5
        ],
        [
          "shaman",
          4
        ],
        [
          "occultist",
          4
        ],
        [
          "hunter",
          5
        ]
      ],
      "domain": [],
      "subDomain": [],
      "elementalSchool": [],
      "bloodline": []
    },
    "level": 4,
    "school": "con",
    "subschool": "healing",
    "types": "poison, ruse",
    "conditionals": [],
    "components": {
      "verbal": true,
      "somatic": true
    },
    "shortDescription": "<p>You mend the target's injuries, curing 3d8 hit points + 1 point per caster level (maximum +15) as <i><i>cure serious</i> wounds</i>, but leaving its body laced with a subtle toxin that remains inert until you activate it. A target that decides to attempt the Will save and succeeds is healed for half (as <i><i>cure serious</i> wounds</i>) and negates the toxin. Otherwise, you can activate the toxin by concentrating on the spell as a standard action, at which point the victim takes 1d3 points of Strength damage per round for 6 rounds. Once the poison is active, the target can attempt a Fortitude save each round to negate that round's damage and end the affliction. If you don't trigger the poison for 1 hour, the spell ends and leaves the target unharmed.  <i>Detect poison</i> reveals an inert <i><i>poisonous</i> balm</i> only if the caster succeeds at a caster level check against a DC equal to 15 + your caster level. Attempts to identify <i><i>poisonous</i> balm</i> with a skill check incorrectly identify it as <i><i>cure serious</i> wounds</i> (see the ruse descriptor on page 192). A fooled viewer mistakes <i><i>poisonous</i> balm</i>'s aura as the lingering aura of an instantaneous effect.</p>",
    "spellDuration": "instantaneous, then 1 hour or until triggered plus 6 rounds; see text"
  },
  "effects": [],
  "folder": null,
  "sort": 0,
  "permission": {
    "default": 0
  },
  "flags": {}
}