{
  "_id": "21ksduh3fm41vmjk",
  "name": "Prying Eyes, Greater",
  "type": "spell",
  "img": "systems/pf1/icons/misc/magic-swirl.png",
  "data": {
    "description": {
      "value": "<div class=\"spell-description\">\n  <p>\n    <strong>School</strong>&nbsp;divination;\n    <strong>Level</strong>&nbsp;psychic 8, sorcerer/wizard 8, witch 8;\n    \n    \n    \n    <strong>Bloodline</strong>&nbsp;Starsoul 8;\n  </p>\n  <p>\n    <strong>Casting Time</strong>&nbsp;1 minute<br>\n    <strong>Components</strong>&nbsp;V, S, M (a handful of crystal marbles)<br>\n  </p>\n  <p>\n    <strong>Range</strong>&nbsp;1 miles<br>\n    \n    \n    <strong>Effect</strong>&nbsp;10 or more levitating eyes<br>\n    <strong>Duration</strong>&nbsp;1 hour/level; see text<br>\n      <strong>Saving Throw</strong>&nbsp;none;&nbsp;\n      <strong>Spell Resistance</strong>&nbsp;no<br>\n  </p>\n  <h2>Description</h2>\n  <p>This spell functions like <i>prying eyes,</i> except that the eyes can see all things as they actually are, just as if they had <i>true seeing</i> with a range of 120 feet. Thus, they can navigate darkened areas at normal speed. Also, a <i>greater prying eye</i>'s maximum Perception modifier is +25 instead of +15.</p>\n</div>\n"
    },
    "tags": [],
    "activation": {
      "type": "minute"
    },
    "unchainedAction": {
      "activation": {
        "type": "minute"
      }
    },
    "range": {
      "value": 1,
      "units": "mi"
    },
    "uses": {
      "per": ""
    },
    "measureTemplate": {
      "size": "0"
    },
    "actionType": "other",
    "damage": {
      "parts": [],
      "critParts": [],
      "nonCritParts": []
    },
    "attackParts": [],
    "ability": {
      "attack": "",
      "damage": ""
    },
    "save": {
      "dc": "0"
    },
    "effectNotes": [],
    "attackNotes": [],
    "links": {
      "children": []
    },
    "flags": {
      "boolean": [],
      "dictionary": []
    },
    "scriptCalls": [],
    "learnedAt": {
      "class": [
        [
          "sorcerer/wizard",
          8
        ],
        [
          "witch",
          8
        ],
        [
          "psychic",
          8
        ]
      ],
      "domain": [],
      "subDomain": [],
      "elementalSchool": [],
      "bloodline": [
        [
          "Starsoul",
          8
        ]
      ]
    },
    "level": 8,
    "school": "div",
    "conditionals": [],
    "components": {
      "verbal": true,
      "somatic": true,
      "material": true
    },
    "materials": {
      "value": "a handful of crystal marbles"
    },
    "sr": false,
    "shortDescription": "<p>This spell functions like <i>prying eyes,</i> except that the eyes can see all things as they actually are, just as if they had <i>true seeing</i> with a range of 120 feet. Thus, they can navigate darkened areas at normal speed. Also, a <i>greater prying eye</i>'s maximum Perception modifier is +25 instead of +15.</p>",
    "spellDuration": "1 hour/level; see text",
    "spellEffect": "10 or more levitating eyes"
  },
  "effects": [],
  "folder": null,
  "sort": 0,
  "permission": {
    "default": 0
  },
  "flags": {}
}