{
  "_id": "w1tgjxkeaumatp9c",
  "name": "Read Weather",
  "type": "spell",
  "img": "systems/pf1/icons/misc/magic-swirl.png",
  "data": {
    "description": {
      "value": "<div class=\"spell-description\">\n  <p>\n    <strong>School</strong>&nbsp;divination;\n    <strong>Level</strong>&nbsp;bard 1, cleric/oracle 1, druid 1, hunter 1, ranger 1, witch 1;\n    \n    \n    \n    \n  </p>\n  <p>\n    <strong>Casting Time</strong>&nbsp;1 minute<br>\n    <strong>Components</strong>&nbsp;V, S, F (a set of marked sticks or bones worth at least 25 gp)<br>\n  </p>\n  <p>\n    <strong>Range</strong>&nbsp;personal<br>\n    \n    <strong>Targets</strong>&nbsp;you<br>\n    \n    <strong>Duration</strong>&nbsp;instantaneous<br>\n  </p>\n  <h2>Description</h2>\n  <p>This spell allows you to forecast the weather at your location for the next 48 hours, providing you with advance warning of storms, tornadoes, and so on. This forecast reveals only the weather that would arise naturally, and does not take into account any magical occurrences that might change the weather.</p>\n</div>\n"
    },
    "tags": [],
    "activation": {
      "type": "minute"
    },
    "unchainedAction": {
      "activation": {
        "type": "minute"
      }
    },
    "target": {
      "value": "you"
    },
    "range": {
      "units": "personal"
    },
    "uses": {
      "per": ""
    },
    "measureTemplate": {
      "size": "0"
    },
    "actionType": "",
    "damage": {
      "parts": [],
      "critParts": [],
      "nonCritParts": []
    },
    "attackParts": [],
    "ability": {
      "attack": "",
      "damage": ""
    },
    "save": {
      "dc": "0"
    },
    "effectNotes": [],
    "attackNotes": [],
    "links": {
      "children": []
    },
    "flags": {
      "boolean": [],
      "dictionary": []
    },
    "scriptCalls": [],
    "learnedAt": {
      "class": [
        [
          "cleric/oracle",
          1
        ],
        [
          "druid",
          1
        ],
        [
          "ranger",
          1
        ],
        [
          "bard",
          1
        ],
        [
          "witch",
          1
        ],
        [
          "hunter",
          1
        ]
      ],
      "domain": [],
      "subDomain": [],
      "elementalSchool": [],
      "bloodline": []
    },
    "school": "div",
    "conditionals": [],
    "components": {
      "verbal": true,
      "somatic": true,
      "focus": true
    },
    "materials": {
      "focus": "a set of marked sticks or bones worth at least 25 gp"
    },
    "sr": false,
    "shortDescription": "<p>This spell allows you to forecast the weather at your location for the next 48 hours, providing you with advance warning of storms, tornadoes, and so on. This forecast reveals only the weather that would arise naturally, and does not take into account any magical occurrences that might change the weather.</p>",
    "spellDuration": "instantaneous"
  },
  "effects": [],
  "folder": null,
  "sort": 0,
  "permission": {
    "default": 0
  },
  "flags": {}
}