{
  "_id": "9p77cn0uzyru10m7",
  "name": "Retrieve Item",
  "type": "spell",
  "img": "systems/pf1/icons/misc/magic-swirl.png",
  "data": {
    "description": {
      "value": "<div class=\"spell-description\">\n  <p>\n    <strong>School</strong>&nbsp;conjuration&nbsp;(calling);\n    <strong>Level</strong>&nbsp;bard 2, sorcerer/wizard 2;\n    \n    \n    \n    \n  </p>\n  <p>\n    <strong>Casting Time</strong>&nbsp;1 full-round<br>\n    <strong>Components</strong>&nbsp;V, S<br>\n  </p>\n  <p>\n    <strong>Range</strong>&nbsp;long (400 ft. + 40 ft./level)<br>\n    \n    <strong>Targets</strong>&nbsp;an unattended object weighing 1 lb. or less whose longest dimension is 6 inches or less<br>\n    \n    <strong>Duration</strong>&nbsp;permanent until discharged<br>\n      <strong>Saving Throw</strong>&nbsp;none;&nbsp;\n      <strong>Spell Resistance</strong>&nbsp;no<br>\n  </p>\n  <h2>Description</h2>\n  <p>You call a specific nonliving item directly to your hand from a nearby location. First, you must cast the spell on the item while holding it. Thereafter, you can summon the item by speaking a special word (set by you when the spell is cast) and snapping your fingers. The item appears instantly in your hand.</p><p>If the item is in the possession of another creature, the spell fails.</p>\n</div>\n"
    },
    "tags": [],
    "activation": {
      "type": "full"
    },
    "unchainedAction": {
      "activation": {
        "cost": 3,
        "type": "action"
      }
    },
    "target": {
      "value": "an unattended object weighing 1 lb. or less whose longest dimension is 6 inches or less"
    },
    "range": {
      "units": "long"
    },
    "uses": {
      "per": ""
    },
    "measureTemplate": {
      "size": "0"
    },
    "actionType": "",
    "damage": {
      "parts": [],
      "critParts": [],
      "nonCritParts": []
    },
    "attackParts": [],
    "ability": {
      "attack": "",
      "damage": ""
    },
    "save": {
      "dc": "0"
    },
    "effectNotes": [],
    "attackNotes": [],
    "links": {
      "children": []
    },
    "flags": {
      "boolean": [],
      "dictionary": []
    },
    "scriptCalls": [],
    "learnedAt": {
      "class": [
        [
          "sorcerer/wizard",
          2
        ],
        [
          "bard",
          2
        ]
      ],
      "domain": [],
      "subDomain": [],
      "elementalSchool": [],
      "bloodline": []
    },
    "level": 2,
    "school": "con",
    "subschool": "calling",
    "conditionals": [],
    "components": {
      "verbal": true,
      "somatic": true
    },
    "sr": false,
    "shortDescription": "<p>You call a specific nonliving item directly to your hand from a nearby location. First, you must cast the spell on the item while holding it. Thereafter, you can summon the item by speaking a special word (set by you when the spell is cast) and snapping your fingers. The item appears instantly in your hand.</p><p>If the item is in the possession of another creature, the spell fails.</p>",
    "spellDuration": "permanent until discharged"
  },
  "effects": [],
  "folder": null,
  "sort": 0,
  "permission": {
    "default": 0
  },
  "flags": {}
}