{
  "_id": "5u2k3n531n9sx8ng",
  "name": "Revelation",
  "type": "spell",
  "img": "systems/pf1/icons/misc/magic-swirl.png",
  "data": {
    "description": {
      "value": "<div class=\"spell-description\">\n  <p>\n    <strong>School</strong>&nbsp;divination;\n    <strong>Level</strong>&nbsp;bard 2, cleric/oracle 3, sorcerer/wizard 3;\n    \n    \n    \n    \n  </p>\n  <p>\n    <strong>Casting Time</strong>&nbsp;1 round<br>\n    <strong>Components</strong>&nbsp;V, S<br>\n  </p>\n  <p>\n    <strong>Range</strong>&nbsp;personal<br>\n    \n    <strong>Targets</strong>&nbsp;you<br>\n    \n    <strong>Duration</strong>&nbsp;1 round/level; see text<br>\n  </p>\n  <h2>Description</h2>\n  <p>You gain a brief understanding of the workings of a single puzzle, device, or trap, gaining an insight bonus equal to your caster level (maximum +10) on checks to disable, manipulate or solve the object in question. Your insight is ineffable; you are unable to communicate your understanding to others.</p><p>At the GM's option, this spell may instead give you a clue or other piece of useful information. In this case you may communicate the clue to others and retain knowledge of it after the spell's duration has expired.</p>\n</div>\n"
    },
    "tags": [],
    "activation": {
      "type": "round"
    },
    "unchainedAction": {
      "activation": {
        "cost": 3,
        "type": "action"
      }
    },
    "target": {
      "value": "you"
    },
    "range": {
      "units": "personal"
    },
    "uses": {
      "per": ""
    },
    "measureTemplate": {
      "size": "0"
    },
    "actionType": "",
    "damage": {
      "parts": [],
      "critParts": [],
      "nonCritParts": []
    },
    "attackParts": [],
    "ability": {
      "attack": "",
      "damage": ""
    },
    "save": {
      "dc": "0"
    },
    "effectNotes": [],
    "attackNotes": [],
    "links": {
      "children": []
    },
    "flags": {
      "boolean": [],
      "dictionary": []
    },
    "scriptCalls": [],
    "learnedAt": {
      "class": [
        [
          "sorcerer/wizard",
          3
        ],
        [
          "cleric/oracle",
          3
        ],
        [
          "bard",
          2
        ]
      ],
      "domain": [],
      "subDomain": [],
      "elementalSchool": [],
      "bloodline": []
    },
    "level": 3,
    "school": "div",
    "conditionals": [],
    "components": {
      "verbal": true,
      "somatic": true
    },
    "sr": false,
    "shortDescription": "<p>You gain a brief understanding of the workings of a single puzzle, device, or trap, gaining an insight bonus equal to your caster level (maximum +10) on checks to disable, manipulate or solve the object in question. Your insight is ineffable; you are unable to communicate your understanding to others.</p><p>At the GM's option, this spell may instead give you a clue or other piece of useful information. In this case you may communicate the clue to others and retain knowledge of it after the spell's duration has expired.</p>",
    "spellDuration": "1 round/level; see text"
  },
  "effects": [],
  "folder": null,
  "sort": 0,
  "permission": {
    "default": 0
  },
  "flags": {}
}