{
  "_id": "vpqwav2vexafom8c",
  "name": "Riding Possession",
  "type": "spell",
  "img": "systems/pf1/icons/misc/magic-swirl.png",
  "data": {
    "description": {
      "value": "<div class=\"spell-description\">\n  <p>\n    <strong>School</strong>&nbsp;necromancy;\n    <strong>Level</strong>&nbsp;medium 2, mesmerist 4, occultist 3, psychic 4, sorcerer/wizard 4, spiritualist 3, summoner 4, unchained Summoner 4, witch 4;\n    \n    \n    \n    \n  </p>\n  <p>\n    <strong>Casting Time</strong>&nbsp;1 standard<br>\n    <strong>Components</strong>&nbsp;V, S<br>\n  </p>\n  <p>\n    <strong>Range</strong>&nbsp;medium (100 ft. + 10 ft./level)<br>\n    \n    <strong>Targets</strong>&nbsp;one creature<br>\n    \n    <strong>Duration</strong>&nbsp;1 hour/level (D); see text<br>\n      <strong>Saving Throw</strong>&nbsp;Will negates;&nbsp;\n      <strong>Spell Resistance</strong>&nbsp;yes<br>\n  </p>\n  <h2>Description</h2>\n  <p>You stealthily project your soul into the host's body as an observer, with limited ability to influence the target. This functions as <i>possession</i>, except the host is still in full control of its body and is unaware you are possessing it. You can't communicate with the host directly, but you can cast mind-affecting spells or riding <i>possession</i> on the host as long as you can cast these spells as purely mental actions. Even if the spell you cast would normally affect more than one target or an area, it can affect only the host. If the host succeeds at a saving throw against a spell that you cast in this way, it immediately becomes aware that it is possessed, and if it was already aware, it receives another saving throw against riding <i>possession</i>. <i>Protection from Evil</i> and similar effects don't expel you from the host, but they do prevent you from casting further spells from within your host until their durations expire.</p>\n</div>\n"
    },
    "tags": [],
    "activation": {
      "type": "standard"
    },
    "unchainedAction": {
      "activation": {
        "cost": 2,
        "type": "action"
      }
    },
    "target": {
      "value": "one creature"
    },
    "range": {
      "units": "medium"
    },
    "uses": {
      "per": ""
    },
    "measureTemplate": {
      "size": "0"
    },
    "actionType": "spellsave",
    "damage": {
      "parts": [],
      "critParts": [],
      "nonCritParts": []
    },
    "attackParts": [],
    "ability": {
      "attack": "",
      "damage": ""
    },
    "save": {
      "dc": "0",
      "type": "will",
      "description": "Will negates"
    },
    "effectNotes": [],
    "attackNotes": [],
    "links": {
      "children": []
    },
    "flags": {
      "boolean": [],
      "dictionary": []
    },
    "scriptCalls": [],
    "learnedAt": {
      "class": [
        [
          "sorcerer/wizard",
          4
        ],
        [
          "summoner",
          4
        ],
        [
          "witch",
          4
        ],
        [
          "psychic",
          4
        ],
        [
          "medium",
          2
        ],
        [
          "mesmerist",
          4
        ],
        [
          "occultist",
          3
        ],
        [
          "spiritualist",
          3
        ],
        [
          "unchained Summoner",
          4
        ]
      ],
      "domain": [],
      "subDomain": [],
      "elementalSchool": [],
      "bloodline": []
    },
    "level": 4,
    "school": "nec",
    "conditionals": [],
    "components": {
      "verbal": true,
      "somatic": true
    },
    "shortDescription": "<p>You stealthily project your soul into the host's body as an observer, with limited ability to influence the target. This functions as <i>possession</i>, except the host is still in full control of its body and is unaware you are possessing it. You can't communicate with the host directly, but you can cast mind-affecting spells or riding <i>possession</i> on the host as long as you can cast these spells as purely mental actions. Even if the spell you cast would normally affect more than one target or an area, it can affect only the host. If the host succeeds at a saving throw against a spell that you cast in this way, it immediately becomes aware that it is possessed, and if it was already aware, it receives another saving throw against riding <i>possession</i>. <i>Protection from Evil</i> and similar effects don't expel you from the host, but they do prevent you from casting further spells from within your host until their durations expire.</p>",
    "spellDuration": "1 hour/level (D); see text"
  },
  "effects": [],
  "folder": null,
  "sort": 0,
  "permission": {
    "default": 0
  },
  "flags": {}
}