{
  "_id": "1p5efnjtbuf2qzb0",
  "name": "Rite of Centered Mind",
  "type": "spell",
  "img": "systems/pf1/icons/misc/magic-swirl.png",
  "data": {
    "description": {
      "value": "<div class=\"spell-description\">\n  <p>\n    <strong>School</strong>&nbsp;abjuration&nbsp;[meditative];\n    <strong>Level</strong>&nbsp;cleric/oracle 1, druid 1, hunter 1, shaman 1;\n    \n    \n    \n    \n  </p>\n  <p>\n    <strong>Casting Time</strong>&nbsp;1 hour<br>\n    <strong>Components</strong>&nbsp;V, M (soothing incense worth 100 gp)<br>\n  </p>\n  <p>\n    <strong>Range</strong>&nbsp;personal<br>\n    \n    <strong>Targets</strong>&nbsp;you<br>\n    \n    <strong>Duration</strong>&nbsp;24 hours or until discharged<br>\n  </p>\n  <h2>Description</h2>\n  <p>You heighten your awareness of your own thoughts, allowing you to more easily resist outside influences. You gain a +1 resistance bonus on saving throws to resist mind-affecting effects. This resistance bonus is increased to +2 if the effect is an emotion or fear effect. Additionally, at any time during the spell's duration, whenever you fail a saving throw to resist a mind-affecting effect, you can expend the spell's remaining duration as an immediate action in order to reroll that saving throw. You must take the second result, even if it's worse. The +2 resistance bonus granted by the spell applies to the reroll, but after you make this reroll, the spell ends.</p>\n</div>\n"
    },
    "tags": [],
    "activation": {
      "type": "hour"
    },
    "unchainedAction": {
      "activation": {
        "type": "hour"
      }
    },
    "target": {
      "value": "you"
    },
    "range": {
      "units": "personal"
    },
    "uses": {
      "per": ""
    },
    "measureTemplate": {
      "size": "0"
    },
    "actionType": "",
    "damage": {
      "parts": [],
      "critParts": [],
      "nonCritParts": []
    },
    "attackParts": [],
    "ability": {
      "attack": "",
      "damage": ""
    },
    "save": {
      "dc": "0"
    },
    "effectNotes": [],
    "attackNotes": [],
    "links": {
      "children": []
    },
    "flags": {
      "boolean": [],
      "dictionary": []
    },
    "scriptCalls": [],
    "learnedAt": {
      "class": [
        [
          "cleric/oracle",
          1
        ],
        [
          "druid",
          1
        ],
        [
          "shaman",
          1
        ],
        [
          "hunter",
          1
        ]
      ],
      "domain": [],
      "subDomain": [],
      "elementalSchool": [],
      "bloodline": []
    },
    "school": "abj",
    "types": "meditative",
    "conditionals": [],
    "components": {
      "verbal": true,
      "material": true
    },
    "materials": {
      "value": "soothing incense worth 100 gp",
      "gpValue": 100
    },
    "spellbook": "",
    "preparation": {
      "autoDeductCharges": false,
      "spontaneousPrepared": false
    },
    "sr": false,
    "shortDescription": "<p>You heighten your awareness of your own thoughts, allowing you to more easily resist outside influences. You gain a +1 resistance bonus on saving throws to resist mind-affecting effects. This resistance bonus is increased to +2 if the effect is an emotion or fear effect. Additionally, at any time during the spell's duration, whenever you fail a saving throw to resist a mind-affecting effect, you can expend the spell's remaining duration as an immediate action in order to reroll that saving throw. You must take the second result, even if it's worse. The +2 resistance bonus granted by the spell applies to the reroll, but after you make this reroll, the spell ends.</p>",
    "spellDuration": "24 hours or until discharged",
    "spellPoints": {
      "cost": ""
    }
  },
  "effects": [],
  "folder": null,
  "sort": 0,
  "permission": {
    "default": 0
  },
  "flags": {}
}