{
  "_id": "4gxx3bodf76e63en",
  "name": "River of Wind",
  "type": "spell",
  "img": "systems/pf1/icons/misc/magic-swirl.png",
  "data": {
    "description": {
      "value": "<div class=\"spell-description\">\n  <p>\n    <strong>School</strong>&nbsp;evocation&nbsp;[air];\n    <strong>Level</strong>&nbsp;bloodrager 4, druid 4, hunter 4, magus 4, occultist 4, sorcerer/wizard 4;\n    \n    \n    \n    \n  </p>\n  <p>\n    <strong>Casting Time</strong>&nbsp;1 standard<br>\n    <strong>Components</strong>&nbsp;V, S<br>\n  </p>\n  <p>\n    <strong>Range</strong>&nbsp;120 feet<br>\n    <strong>Area</strong>&nbsp;120-ft. line<br>\n    \n    \n    <strong>Duration</strong>&nbsp;1 round/level<br>\n      <strong>Saving Throw</strong>&nbsp;Fortitude partial;&nbsp;\n      <strong>Spell Resistance</strong>&nbsp;yes<br>\n  </p>\n  <h2>Description</h2>\n  <p>Summoning up the power of the tempest, you direct a current of forceful winds where you please. This spell creates a 5-foot-diameter line of wind-the direction of the wind is away from your location when you cast the spell, and remains constant in that direction for the spell duration. Creatures caught in a <i>river of wind</i> take 4d6 nonlethal damage and are knocked prone. A successful Fortitude save halves the damage and prevents being knocked prone.</p><p>A creature that begins its turn wholly or partially within a <i>river of wind</i> must make a Fortitude save or be pushed 20 feet in the wind's direction of flow, take 2d6 nonlethal damage, and be knocked prone-a successful Fortitude save means the creature merely takes 1d6 nonlethal damage. Creatures under the effect of <i>freedom of movement</i> and creatures with the air subtype are unaffected by a <i>river of wind</i>.</p>\n</div>\n"
    },
    "tags": [],
    "activation": {
      "type": "standard"
    },
    "unchainedAction": {
      "activation": {
        "cost": 2,
        "type": "action"
      }
    },
    "range": {
      "value": 120,
      "units": "ft"
    },
    "uses": {
      "per": ""
    },
    "measureTemplate": {
      "size": "0"
    },
    "actionType": "spellsave",
    "damage": {
      "parts": [],
      "critParts": [],
      "nonCritParts": []
    },
    "attackParts": [],
    "ability": {
      "attack": "",
      "damage": ""
    },
    "save": {
      "dc": "0",
      "type": "fort",
      "description": "Fortitude partial"
    },
    "effectNotes": [],
    "attackNotes": [],
    "links": {
      "children": []
    },
    "flags": {
      "boolean": [],
      "dictionary": []
    },
    "scriptCalls": [],
    "learnedAt": {
      "class": [
        [
          "sorcerer/wizard",
          4
        ],
        [
          "druid",
          4
        ],
        [
          "magus",
          4
        ],
        [
          "bloodrager",
          4
        ],
        [
          "occultist",
          4
        ],
        [
          "hunter",
          4
        ]
      ],
      "domain": [],
      "subDomain": [],
      "elementalSchool": [],
      "bloodline": []
    },
    "level": 4,
    "school": "evo",
    "types": "air",
    "conditionals": [],
    "components": {
      "verbal": true,
      "somatic": true
    },
    "shortDescription": "<p>Summoning up the power of the tempest, you direct a current of forceful winds where you please. This spell creates a 5-foot-diameter line of wind-the direction of the wind is away from your location when you cast the spell, and remains constant in that direction for the spell duration. Creatures caught in a <i>river of wind</i> take 4d6 nonlethal damage and are knocked prone. A successful Fortitude save halves the damage and prevents being knocked prone.</p><p>A creature that begins its turn wholly or partially within a <i>river of wind</i> must make a Fortitude save or be pushed 20 feet in the wind's direction of flow, take 2d6 nonlethal damage, and be knocked prone-a successful Fortitude save means the creature merely takes 1d6 nonlethal damage. Creatures under the effect of <i>freedom of movement</i> and creatures with the air subtype are unaffected by a <i>river of wind</i>.</p>",
    "spellDuration": "1 round/level",
    "spellArea": "120-ft. line"
  },
  "effects": [],
  "folder": null,
  "sort": 0,
  "permission": {
    "default": 0
  },
  "flags": {}
}