{
  "_id": "cb2svqlo50o2gd6k",
  "name": "River Whip",
  "type": "spell",
  "img": "systems/pf1/icons/misc/magic-swirl.png",
  "data": {
    "description": {
      "value": "<div class=\"spell-description\">\n  <p>\n    <strong>School</strong>&nbsp;conjuration&nbsp;(creation)&nbsp;[water];\n    <strong>Level</strong>&nbsp;magus 2, sorcerer/wizard 2, witch 2;\n    \n    \n    \n    \n  </p>\n  <p>\n    <strong>Casting Time</strong>&nbsp;1 standard<br>\n    <strong>Components</strong>&nbsp;V, S<br>\n  </p>\n  <p>\n    \n    \n    \n    <strong>Effect</strong>&nbsp;whip of water<br>\n    <strong>Duration</strong>&nbsp;1 minute/level (D) or until discharged (see text)<br>\n      <strong>Saving Throw</strong>&nbsp;none;&nbsp;\n      <strong>Spell Resistance</strong>&nbsp;no<br>\n  </p>\n  <h2>Description</h2>\n  <p>You create a coil of flowing fresh water, functioning a whip appropriate for your size, except you make a melee touch attack instead of a regular attack. Anything you strike with the whip takes damage and is doused with 1 pint of water.</p><p>A creature with the fire subtype takes an additional 1d6 points of damage. If the target is on fire, it gains a +2 bonus on its next saving throw to extinguish the flames.</p><p>After you have successfully used the whip to hit a creature a number of times equal to your caster level, the water is expended and the spell is discharged. The water created by this spell is otherwise identical to that produced by <i>create water</i>.</p>\n</div>\n"
    },
    "tags": [],
    "activation": {
      "type": "standard"
    },
    "unchainedAction": {
      "activation": {
        "cost": 2,
        "type": "action"
      }
    },
    "range": {
      "value": 0,
      "units": "ft"
    },
    "uses": {
      "per": ""
    },
    "measureTemplate": {
      "size": "0"
    },
    "actionType": "other",
    "damage": {
      "parts": [],
      "critParts": [],
      "nonCritParts": []
    },
    "attackParts": [],
    "ability": {
      "attack": "",
      "damage": ""
    },
    "save": {
      "dc": "0"
    },
    "effectNotes": [],
    "attackNotes": [],
    "links": {
      "children": []
    },
    "flags": {
      "boolean": [],
      "dictionary": []
    },
    "scriptCalls": [],
    "learnedAt": {
      "class": [
        [
          "sorcerer/wizard",
          2
        ],
        [
          "witch",
          2
        ],
        [
          "magus",
          2
        ]
      ],
      "domain": [],
      "subDomain": [],
      "elementalSchool": [],
      "bloodline": []
    },
    "level": 2,
    "school": "con",
    "subschool": "creation",
    "types": "water",
    "conditionals": [],
    "components": {
      "verbal": true,
      "somatic": true
    },
    "sr": false,
    "shortDescription": "<p>You create a coil of flowing fresh water, functioning a whip appropriate for your size, except you make a melee touch attack instead of a regular attack. Anything you strike with the whip takes damage and is doused with 1 pint of water.</p><p>A creature with the fire subtype takes an additional 1d6 points of damage. If the target is on fire, it gains a +2 bonus on its next saving throw to extinguish the flames.</p><p>After you have successfully used the whip to hit a creature a number of times equal to your caster level, the water is expended and the spell is discharged. The water created by this spell is otherwise identical to that produced by <i>create water</i>.</p>",
    "spellDuration": "1 minute/level (D) or until discharged (see text)",
    "spellEffect": "whip of water"
  },
  "effects": [],
  "folder": null,
  "sort": 0,
  "permission": {
    "default": 0
  },
  "flags": {}
}