{
  "_id": "2f2oph4conz96aiq",
  "name": "Sense Madness",
  "type": "spell",
  "img": "systems/pf1/icons/misc/magic-swirl.png",
  "data": {
    "description": {
      "value": "<div class=\"spell-description\">\n  <p>\n    <strong>School</strong>&nbsp;divination;\n    <strong>Level</strong>&nbsp;cleric/oracle 2, inquisitor 2, medium 2, occultist 2, paladin 2, psychic 2;\n    \n    \n    \n    \n  </p>\n  <p>\n    <strong>Casting Time</strong>&nbsp;1 standard<br>\n    <strong>Components</strong>&nbsp;V, S<br>\n  </p>\n  <p>\n    <strong>Range</strong>&nbsp;close (25 ft. + 5 ft./2 levels)<br>\n    \n    <strong>Targets</strong>&nbsp;creatures in range (see text)<br>\n    \n    <strong>Duration</strong>&nbsp;concentration, up to 1 round/level (D)<br>\n      <strong>Saving Throw</strong>&nbsp;none;&nbsp;\n      <strong>Spell Resistance</strong>&nbsp;no<br>\n  </p>\n  <h2>Description</h2>\n  <p>You can sense the presence of mental disturbance in creatures within range, focusing your detection on one creature each round. If the target is currently suffering from any form of madness (see page 182) or addiction (<i>GameMastery Guide</i> 236), has total sanity damage greater than or equal to its sanity edge (see page 12), or is under a magical compulsion that could be detected by <i>detect magic</i>, you can detect the presence of such a disturbance on the first round of concentration.  If you concentrate on the same creature for an additional round, you learn if the creature's total sanity damage is greater than or equal to its sanity edge, and you can attempt a Sense Motive check against a DC equal to 10 + the save DC of the target's madness or addiction to determine the exact nature of a madness or addiction. Additionally, you can attempt a Spellcraft check with a DC equal to 11 + the caster level of the compulsion against each magical compulsion currently affecting the target that could be detected by <i>detect magic</i>. If successful, you can identify the specific spell affecting the target. You gain a +4 bonus on your Spellcraft check if the effect is <i>confusion</i>, <i>insanity</i>, or a similar effect that explicitly causes madness or <i>insanity</i>. If you successfully identify such an effect with <i>sense madness</i>, the insights provided  by this spell grant you a +1 circumstance bonus on your next caster level check in the following 1 minute made to counter, dispel, or remove that specific effect. After attempting a check to identify a madness, addiction, or compulsion, you can't attempt that check against the same creature again, even if you concentrate on the creature again.</p>\n</div>\n"
    },
    "tags": [],
    "activation": {
      "type": "standard"
    },
    "unchainedAction": {
      "activation": {
        "cost": 2,
        "type": "action"
      }
    },
    "target": {
      "value": "creatures in range (see text)"
    },
    "range": {
      "units": "close"
    },
    "uses": {
      "per": ""
    },
    "measureTemplate": {
      "size": "0"
    },
    "actionType": "",
    "damage": {
      "parts": [],
      "critParts": [],
      "nonCritParts": []
    },
    "attackParts": [],
    "ability": {
      "attack": "",
      "damage": ""
    },
    "save": {
      "dc": "0"
    },
    "effectNotes": [],
    "attackNotes": [],
    "links": {
      "children": []
    },
    "flags": {
      "boolean": [],
      "dictionary": []
    },
    "scriptCalls": [],
    "learnedAt": {
      "class": [
        [
          "cleric/oracle",
          2
        ],
        [
          "paladin",
          2
        ],
        [
          "inquisitor",
          2
        ],
        [
          "psychic",
          2
        ],
        [
          "medium",
          2
        ],
        [
          "occultist",
          2
        ]
      ],
      "domain": [],
      "subDomain": [],
      "elementalSchool": [],
      "bloodline": []
    },
    "level": 2,
    "school": "div",
    "conditionals": [],
    "components": {
      "verbal": true,
      "somatic": true
    },
    "sr": false,
    "shortDescription": "<p>You can sense the presence of mental disturbance in creatures within range, focusing your detection on one creature each round. If the target is currently suffering from any form of madness (see page 182) or addiction (<i>GameMastery Guide</i> 236), has total sanity damage greater than or equal to its sanity edge (see page 12), or is under a magical compulsion that could be detected by <i>detect magic</i>, you can detect the presence of such a disturbance on the first round of concentration.  If you concentrate on the same creature for an additional round, you learn if the creature's total sanity damage is greater than or equal to its sanity edge, and you can attempt a Sense Motive check against a DC equal to 10 + the save DC of the target's madness or addiction to determine the exact nature of a madness or addiction. Additionally, you can attempt a Spellcraft check with a DC equal to 11 + the caster level of the compulsion against each magical compulsion currently affecting the target that could be detected by <i>detect magic</i>. If successful, you can identify the specific spell affecting the target. You gain a +4 bonus on your Spellcraft check if the effect is <i>confusion</i>, <i>insanity</i>, or a similar effect that explicitly causes madness or <i>insanity</i>. If you successfully identify such an effect with <i>sense madness</i>, the insights provided  by this spell grant you a +1 circumstance bonus on your next caster level check in the following 1 minute made to counter, dispel, or remove that specific effect. After attempting a check to identify a madness, addiction, or compulsion, you can't attempt that check against the same creature again, even if you concentrate on the creature again.</p>",
    "spellDuration": "concentration, up to 1 round/level (D)"
  },
  "effects": [],
  "folder": null,
  "sort": 0,
  "permission": {
    "default": 0
  },
  "flags": {}
}