{
  "_id": "9u4mn2uxm862cpbb",
  "name": "Shadow Projection",
  "type": "spell",
  "img": "systems/pf1/icons/misc/magic-swirl.png",
  "data": {
    "description": {
      "value": "<div class=\"spell-description\">\n  <p>\n    <strong>School</strong>&nbsp;necromancy&nbsp;[evil];\n    <strong>Level</strong>&nbsp;sorcerer/wizard 4;\n    \n    \n    \n    \n  </p>\n  <p>\n    <strong>Casting Time</strong>&nbsp;1 minute<br>\n    <strong>Components</strong>&nbsp;S<br>\n  </p>\n  <p>\n    <strong>Range</strong>&nbsp;personal<br>\n    \n    <strong>Targets</strong>&nbsp;you<br>\n    \n    <strong>Duration</strong>&nbsp;1 hour/level (D)<br>\n  </p>\n  <h2>Description</h2>\n  <p>With this spell, you infuse your life force and psyche into your shadow, giving it independent life and movement as if it were an undead shadow (see <i>Pathfinder RPG Bestiary</i> 245). Your physical body lies comatose while you are projecting your shadow, and your body has no shadow or reflection while the spell is in effect.</p><p>While projecting your shadow, you gain a shadow's darkvision, defensive abilities, fly speed, racial stealth modifier, and strength damage attack. You do not gain the creature's <i>create spawn</i> ability, nor its skill ranks or Hit Dice.</p><p>Your shadow has Hit Dice and hit points equal to your own.</p><p>Your <i>shadow projection</i> has the undead type and may be turned or affected as undead.</p><p>If your <i>shadow projection</i> is slain, you return to your physical body and are immediately reduced to -1 hit points.</p><p>Your condition becomes dying, and you must begin making Constitution checks to stabilize.</p>\n</div>\n"
    },
    "tags": [],
    "activation": {
      "type": "minute"
    },
    "unchainedAction": {
      "activation": {
        "type": "minute"
      }
    },
    "target": {
      "value": "you"
    },
    "range": {
      "units": "personal"
    },
    "uses": {
      "per": ""
    },
    "measureTemplate": {
      "size": "0"
    },
    "actionType": "",
    "damage": {
      "parts": [],
      "critParts": [],
      "nonCritParts": []
    },
    "attackParts": [],
    "ability": {
      "attack": "",
      "damage": ""
    },
    "save": {
      "dc": "0"
    },
    "effectNotes": [],
    "attackNotes": [],
    "links": {
      "children": []
    },
    "flags": {
      "boolean": [],
      "dictionary": []
    },
    "scriptCalls": [],
    "learnedAt": {
      "class": [
        [
          "sorcerer/wizard",
          4
        ]
      ],
      "domain": [],
      "subDomain": [],
      "elementalSchool": [],
      "bloodline": []
    },
    "level": 4,
    "school": "nec",
    "types": "evil",
    "conditionals": [],
    "components": {
      "somatic": true
    },
    "sr": false,
    "shortDescription": "<p>With this spell, you infuse your life force and psyche into your shadow, giving it independent life and movement as if it were an undead shadow (see <i>Pathfinder RPG Bestiary</i> 245). Your physical body lies comatose while you are projecting your shadow, and your body has no shadow or reflection while the spell is in effect.</p><p>While projecting your shadow, you gain a shadow's darkvision, defensive abilities, fly speed, racial stealth modifier, and strength damage attack. You do not gain the creature's <i>create spawn</i> ability, nor its skill ranks or Hit Dice.</p><p>Your shadow has Hit Dice and hit points equal to your own.</p><p>Your <i>shadow projection</i> has the undead type and may be turned or affected as undead.</p><p>If your <i>shadow projection</i> is slain, you return to your physical body and are immediately reduced to -1 hit points.</p><p>Your condition becomes dying, and you must begin making Constitution checks to stabilize.</p>",
    "spellDuration": "1 hour/level (D)"
  },
  "effects": [],
  "folder": null,
  "sort": 0,
  "permission": {
    "default": 0
  },
  "flags": {}
}