{
  "_id": "34fcczk45r6w4fgb",
  "name": "Shadow Weapon",
  "type": "spell",
  "img": "systems/pf1/icons/misc/magic-swirl.png",
  "data": {
    "description": {
      "value": "<div class=\"spell-description\">\n  <p>\n    <strong>School</strong>&nbsp;illusion&nbsp;(shadow)&nbsp;[shadow];\n    <strong>Level</strong>&nbsp;bloodrager 1, occultist 1, psychic 1, sorcerer/wizard 1, witch 1;\n    \n    \n    \n    \n  </p>\n  <p>\n    <strong>Casting Time</strong>&nbsp;1 standard<br>\n    <strong>Components</strong>&nbsp;V, S<br>\n  </p>\n  <p>\n    \n    \n    \n    <strong>Effect</strong>&nbsp;one shadow weapon<br>\n    <strong>Duration</strong>&nbsp;1 minute/level<br>\n      <strong>Saving Throw</strong>&nbsp;Will disbelief (if interacted with);&nbsp;\n      <strong>Spell Resistance</strong>&nbsp;yes<br>\n  </p>\n  <h2>Description</h2>\n  <p>Drawing upon the Plane of Shadow, you shape a quasi-real masterwork melee weapon of a type you are proficient with. You may use this weapon to make attacks as if it were a real weapon, dealing normal damage for a weapon of its type. The first time you hit a creature with the weapon, it may make a Will save to disbelieve; failure means the weapon deals damage normally, success means it only takes 1 point of damage from the weapon's attacks. The weapon only deals 1 point of damage to objects.  If an attacked creature has spell resistance, you make a caster level check (1d20 + caster level) against that spell resistance the first time the <i>shadow weapon</i> strikes it. If the weapon is successfully resisted, the spell is dispelled. If not, the target may save to disbelieve as normal.  At 5th level, the weapon gains a +1 enhancement bonus. At 10th-level, you may increase the enhancement bonus to +2 or add the <i>frost</i> or <i>keen</i> weapon property. The <i>frost</i> and <i>keen</i> properties have no effect if the target makes its disbelief save.  The spell ends if the weapon leaves your possession.</p>\n</div>\n"
    },
    "tags": [],
    "activation": {
      "type": "standard"
    },
    "unchainedAction": {
      "activation": {
        "cost": 2,
        "type": "action"
      }
    },
    "range": {
      "value": 0,
      "units": "ft"
    },
    "uses": {
      "per": ""
    },
    "measureTemplate": {
      "size": "0"
    },
    "actionType": "spellsave",
    "damage": {
      "parts": [],
      "critParts": [],
      "nonCritParts": []
    },
    "attackParts": [],
    "ability": {
      "attack": "",
      "damage": ""
    },
    "save": {
      "dc": "0",
      "type": "will",
      "description": "Will disbelief (if interacted with)"
    },
    "effectNotes": [],
    "attackNotes": [],
    "links": {
      "children": []
    },
    "flags": {
      "boolean": [],
      "dictionary": []
    },
    "scriptCalls": [],
    "learnedAt": {
      "class": [
        [
          "sorcerer/wizard",
          1
        ],
        [
          "witch",
          1
        ],
        [
          "bloodrager",
          1
        ],
        [
          "psychic",
          1
        ],
        [
          "occultist",
          1
        ]
      ],
      "domain": [],
      "subDomain": [],
      "elementalSchool": [],
      "bloodline": []
    },
    "school": "ill",
    "subschool": "shadow",
    "types": "shadow",
    "conditionals": [],
    "components": {
      "verbal": true,
      "somatic": true
    },
    "shortDescription": "<p>Drawing upon the Plane of Shadow, you shape a quasi-real masterwork melee weapon of a type you are proficient with. You may use this weapon to make attacks as if it were a real weapon, dealing normal damage for a weapon of its type. The first time you hit a creature with the weapon, it may make a Will save to disbelieve; failure means the weapon deals damage normally, success means it only takes 1 point of damage from the weapon's attacks. The weapon only deals 1 point of damage to objects.  If an attacked creature has spell resistance, you make a caster level check (1d20 + caster level) against that spell resistance the first time the <i>shadow weapon</i> strikes it. If the weapon is successfully resisted, the spell is dispelled. If not, the target may save to disbelieve as normal.  At 5th level, the weapon gains a +1 enhancement bonus. At 10th-level, you may increase the enhancement bonus to +2 or add the <i>frost</i> or <i>keen</i> weapon property. The <i>frost</i> and <i>keen</i> properties have no effect if the target makes its disbelief save.  The spell ends if the weapon leaves your possession.</p>",
    "spellDuration": "1 minute/level",
    "spellEffect": "one shadow weapon"
  },
  "effects": [],
  "folder": null,
  "sort": 0,
  "permission": {
    "default": 0
  },
  "flags": {}
}