{
  "_id": "1mc2b6d2aw6kkna0",
  "name": "Shield Companion",
  "type": "spell",
  "img": "systems/pf1/icons/misc/magic-swirl.png",
  "data": {
    "description": {
      "value": "<div class=\"spell-description\">\n  <p>\n    <strong>School</strong>&nbsp;abjuration;\n    <strong>Level</strong>&nbsp;hunter 2, paladin 2, ranger 2, shaman 2, sorcerer/wizard 3, summoner 3, unchained Summoner 3;\n    \n    \n    \n    \n  </p>\n  <p>\n    <strong>Casting Time</strong>&nbsp;1 standard<br>\n    <strong>Components</strong>&nbsp;V, S<br>\n  </p>\n  <p>\n    <strong>Range</strong>&nbsp;close (25 ft. + 5 ft./2 levels)<br>\n    \n    <strong>Targets</strong>&nbsp;your companion creature<br>\n    \n    <strong>Duration</strong>&nbsp;1 hour/level (D)<br>\n      <strong>Saving Throw</strong>&nbsp;Will negates (harmless);&nbsp;\n      <strong>Spell Resistance</strong>&nbsp;yes<br>\n  </p>\n  <h2>Description</h2>\n  <p>This spell creates a special mystical connection between you and your companion creature-animal companion, bonded mount, eidolon, or familiar-which allows you to transfer its wounds to you. The creature gains a +1 deflection bonus to AC and a +1 resistance bonus on saves.</p><p>As an immediate action when your companion takes damage, you can take that damage yourself to prevent your companion from being harmed (similar to <i>shield other</i>, except the damage is not split between you and the target). Forms of harm that do not involve the loss of hit points, such as charm effects, temporary ability damage, level drain, and death effects, are not affected. If the creature suffers a reduction of hit points from a lowered Constitution score, you cannot take that damage on behalf of your companion creature because it is not hit point damage. When the spell ends, damage directed to you by the spell is not reassigned to the subject.</p><p>If you and your companion move out of range of each other, the spell ends.</p>\n</div>\n"
    },
    "tags": [],
    "activation": {
      "type": "standard"
    },
    "unchainedAction": {
      "activation": {
        "cost": 2,
        "type": "action"
      }
    },
    "target": {
      "value": "your companion creature"
    },
    "range": {
      "units": "close"
    },
    "uses": {
      "per": ""
    },
    "measureTemplate": {
      "size": "0"
    },
    "actionType": "spellsave",
    "damage": {
      "parts": [],
      "critParts": [],
      "nonCritParts": []
    },
    "attackParts": [],
    "ability": {
      "attack": "",
      "damage": ""
    },
    "save": {
      "dc": "0",
      "type": "will",
      "description": "Will negates (harmless)"
    },
    "effectNotes": [],
    "attackNotes": [],
    "links": {
      "children": []
    },
    "flags": {
      "boolean": [],
      "dictionary": []
    },
    "scriptCalls": [],
    "learnedAt": {
      "class": [
        [
          "sorcerer/wizard",
          3
        ],
        [
          "ranger",
          2
        ],
        [
          "paladin",
          2
        ],
        [
          "summoner",
          3
        ],
        [
          "shaman",
          2
        ],
        [
          "hunter",
          2
        ],
        [
          "unchained Summoner",
          3
        ]
      ],
      "domain": [],
      "subDomain": [],
      "elementalSchool": [],
      "bloodline": []
    },
    "level": 3,
    "school": "abj",
    "conditionals": [],
    "components": {
      "verbal": true,
      "somatic": true
    },
    "shortDescription": "<p>This spell creates a special mystical connection between you and your companion creature-animal companion, bonded mount, eidolon, or familiar-which allows you to transfer its wounds to you. The creature gains a +1 deflection bonus to AC and a +1 resistance bonus on saves.</p><p>As an immediate action when your companion takes damage, you can take that damage yourself to prevent your companion from being harmed (similar to <i>shield other</i>, except the damage is not split between you and the target). Forms of harm that do not involve the loss of hit points, such as charm effects, temporary ability damage, level drain, and death effects, are not affected. If the creature suffers a reduction of hit points from a lowered Constitution score, you cannot take that damage on behalf of your companion creature because it is not hit point damage. When the spell ends, damage directed to you by the spell is not reassigned to the subject.</p><p>If you and your companion move out of range of each other, the spell ends.</p>",
    "spellDuration": "1 hour/level (D)"
  },
  "effects": [],
  "folder": null,
  "sort": 0,
  "permission": {
    "default": 0
  },
  "flags": {}
}