{
  "_id": "qnp4eosajai8s3sf",
  "name": "Sleet Storm",
  "type": "spell",
  "img": "systems/pf1/icons/misc/magic-swirl.png",
  "data": {
    "description": {
      "value": "<div class=\"spell-description\">\n  <p>\n    <strong>School</strong>&nbsp;conjuration&nbsp;(creation)&nbsp;[cold];\n    <strong>Level</strong>&nbsp;bloodrager 3, druid 3, hunter 3, magus 3, shaman 3, sorcerer/wizard 3, witch 3;\n    <strong>Domain</strong>&nbsp;Weather 4;\n    \n    \n    \n  </p>\n  <p>\n    <strong>Casting Time</strong>&nbsp;1 standard<br>\n    <strong>Components</strong>&nbsp;V, S, M/DF (dust and water)<br>\n  </p>\n  <p>\n    <strong>Range</strong>&nbsp;long (400 ft. + 40 ft./level)<br>\n    <strong>Area</strong>&nbsp;cylinder (40-ft. radius, 20 ft. high)<br>\n    \n    \n    <strong>Duration</strong>&nbsp;1 round/level<br>\n      <strong>Saving Throw</strong>&nbsp;none;&nbsp;\n      <strong>Spell Resistance</strong>&nbsp;no<br>\n  </p>\n  <h2>Description</h2>\n  <p>Driving sleet blocks all sight (even darkvision) within it and causes the ground in the area to be icy. A creature can walk within or through the area of sleet at half normal speed with a DC 10 Acrobatics check. Failure means it can't move in that round, while failure by 5 or more means it falls (see the Acrobatics skill for details).</p><p>The sleet extinguishes torches and small fires.</p>\n</div>\n"
    },
    "tags": [],
    "activation": {
      "type": "standard"
    },
    "unchainedAction": {
      "activation": {
        "cost": 2,
        "type": "action"
      }
    },
    "range": {
      "units": "long"
    },
    "uses": {
      "per": ""
    },
    "measureTemplate": {
      "size": "0"
    },
    "actionType": "",
    "damage": {
      "parts": [],
      "critParts": [],
      "nonCritParts": []
    },
    "attackParts": [],
    "ability": {
      "attack": "",
      "damage": ""
    },
    "save": {
      "dc": "0"
    },
    "effectNotes": [],
    "attackNotes": [],
    "links": {
      "children": []
    },
    "flags": {
      "boolean": [],
      "dictionary": []
    },
    "scriptCalls": [],
    "learnedAt": {
      "class": [
        [
          "sorcerer/wizard",
          3
        ],
        [
          "druid",
          3
        ],
        [
          "witch",
          3
        ],
        [
          "magus",
          3
        ],
        [
          "bloodrager",
          3
        ],
        [
          "shaman",
          3
        ],
        [
          "hunter",
          3
        ]
      ],
      "domain": [
        [
          "Weather",
          4
        ]
      ],
      "subDomain": [],
      "elementalSchool": [],
      "bloodline": []
    },
    "level": 3,
    "school": "con",
    "subschool": "creation",
    "types": "cold",
    "conditionals": [],
    "components": {
      "verbal": true,
      "somatic": true,
      "material": true,
      "divineFocus": 2
    },
    "materials": {
      "value": "dust and water"
    },
    "sr": false,
    "shortDescription": "<p>Driving sleet blocks all sight (even darkvision) within it and causes the ground in the area to be icy. A creature can walk within or through the area of sleet at half normal speed with a DC 10 Acrobatics check. Failure means it can't move in that round, while failure by 5 or more means it falls (see the Acrobatics skill for details).</p><p>The sleet extinguishes torches and small fires.</p>",
    "spellDuration": "1 round/level",
    "spellArea": "cylinder (40-ft. radius, 20 ft. high)"
  },
  "effects": [],
  "folder": null,
  "sort": 0,
  "permission": {
    "default": 0
  },
  "flags": {}
}