{
  "_id": "9nrm3dcs8laoo0jf",
  "name": "Song of Kyonin",
  "type": "spell",
  "img": "systems/pf1/icons/misc/magic-swirl.png",
  "data": {
    "description": {
      "value": "<div class=\"spell-description\">\n  <p>\n    <strong>School</strong>&nbsp;conjuration&nbsp;(healing);\n    <strong>Level</strong>&nbsp;bard 4;\n    \n    \n    \n    \n  </p>\n  <p>\n    <strong>Casting Time</strong>&nbsp;1 standard<br>\n    <strong>Components</strong>&nbsp;V, S<br>\n  </p>\n  <p>\n    <strong>Range</strong>&nbsp;close (25 ft. + 5 ft./2 levels)<br>\n    \n    <strong>Targets</strong>&nbsp;up to 3 creatures, no two of which can be more than 30 ft. apart<br>\n    \n    <strong>Duration</strong>&nbsp;1 round/level or until performance ends or changes (see text)<br>\n      <strong>Saving Throw</strong>&nbsp;none;&nbsp;\n      <strong>Spell Resistance</strong>&nbsp;no<br>\n  </p>\n  <h2>Description</h2>\n  <p>Certain elven bards of Kyonin are known for the restorative power of their performances-mostly as a result of this spell. You must have a bardic performance in effect to cast this spell (although this spell is called <i>song of Kyonin</i>, the bardic performance need not be singing). As long as that performance continues, up to 3 creatures affected by the performance gain fast healing 2. When this bardic performance ends or you change to a different bardic performance, the fast healing granted by this spell ends as well, but all creatures affected by this spell heal 1d8 points of damage + 1 point per caster level (maximum +15) and are cured of any of the following conditions: exhausted, fatigued, nauseated, paralyzed, sickened, or stunned.</p>\n</div>\n"
    },
    "tags": [],
    "activation": {
      "type": "standard"
    },
    "unchainedAction": {
      "activation": {
        "cost": 2,
        "type": "action"
      }
    },
    "target": {
      "value": "up to 3 creatures, no two of which can be more than 30 ft. apart"
    },
    "range": {
      "units": "close"
    },
    "uses": {
      "per": ""
    },
    "measureTemplate": {
      "size": "0"
    },
    "actionType": "heal",
    "damage": {
      "parts": [],
      "critParts": [],
      "nonCritParts": []
    },
    "attackParts": [],
    "ability": {
      "attack": "",
      "damage": ""
    },
    "save": {
      "dc": "0"
    },
    "effectNotes": [],
    "attackNotes": [],
    "links": {
      "children": []
    },
    "flags": {
      "boolean": [],
      "dictionary": []
    },
    "scriptCalls": [],
    "learnedAt": {
      "class": [
        [
          "bard",
          4
        ]
      ],
      "domain": [],
      "subDomain": [],
      "elementalSchool": [],
      "bloodline": []
    },
    "level": 4,
    "school": "con",
    "subschool": "healing",
    "conditionals": [],
    "components": {
      "verbal": true,
      "somatic": true
    },
    "sr": false,
    "shortDescription": "<p>Certain elven bards of Kyonin are known for the restorative power of their performances-mostly as a result of this spell. You must have a bardic performance in effect to cast this spell (although this spell is called <i>song of Kyonin</i>, the bardic performance need not be singing). As long as that performance continues, up to 3 creatures affected by the performance gain fast healing 2. When this bardic performance ends or you change to a different bardic performance, the fast healing granted by this spell ends as well, but all creatures affected by this spell heal 1d8 points of damage + 1 point per caster level (maximum +15) and are cured of any of the following conditions: exhausted, fatigued, nauseated, paralyzed, sickened, or stunned.</p>",
    "spellDuration": "1 round/level or until performance ends or changes (see text)"
  },
  "effects": [],
  "folder": null,
  "sort": 0,
  "permission": {
    "default": 0
  },
  "flags": {}
}