{
  "_id": "54xmgohtp85buj04",
  "name": "Songbird",
  "type": "spell",
  "img": "systems/pf1/icons/misc/magic-swirl.png",
  "data": {
    "description": {
      "value": "<div class=\"spell-description\">\n  <p>\n    <strong>School</strong>&nbsp;conjuration&nbsp;[good];\n    <strong>Level</strong>&nbsp;bard 1, cleric/oracle 1, mesmerist 1, paladin 1, psychic 1, sorcerer/wizard 1;\n    \n    \n    \n    \n  </p>\n  <p>\n    <strong>Casting Time</strong>&nbsp;1 swift<br>\n    <strong>Components</strong>&nbsp;S<br>\n  </p>\n  <p>\n    <strong>Range</strong>&nbsp;personal<br>\n    \n    <strong>Targets</strong>&nbsp;you<br>\n    \n    <strong>Duration</strong>&nbsp;1 round<br>\n  </p>\n  <h2>Description</h2>\n  <p>You conjure uplifting music from the wilds of Elysium, Heaven, or Nirvana to bolster other musical activities.  If you cast <i>songbird</i> during the same round in which you attempt a Perform check, <i>songbird</i> acts as accompaniment and grants a +3 bonus on that Perform check.  If you cast <i>songbird</i> in the same round in which you activate a bardic performance, that round of bardic performance does not count against your total rounds of bardic performance available for the day.  If you cast <i>songbird</i> in the same round in which you cast a spell with the sonic descriptor, that spell's save DC increases by 1.</p>\n</div>\n"
    },
    "tags": [],
    "activation": {
      "type": "swift"
    },
    "unchainedAction": {
      "activation": {
        "type": "action"
      }
    },
    "target": {
      "value": "you"
    },
    "range": {
      "units": "personal"
    },
    "uses": {
      "per": ""
    },
    "measureTemplate": {
      "size": "0"
    },
    "actionType": "",
    "damage": {
      "parts": [],
      "critParts": [],
      "nonCritParts": []
    },
    "attackParts": [],
    "ability": {
      "attack": "",
      "damage": ""
    },
    "save": {
      "dc": "0"
    },
    "effectNotes": [],
    "attackNotes": [],
    "links": {
      "children": []
    },
    "flags": {
      "boolean": [],
      "dictionary": []
    },
    "scriptCalls": [],
    "learnedAt": {
      "class": [
        [
          "sorcerer/wizard",
          1
        ],
        [
          "cleric/oracle",
          1
        ],
        [
          "bard",
          1
        ],
        [
          "paladin",
          1
        ],
        [
          "psychic",
          1
        ],
        [
          "mesmerist",
          1
        ]
      ],
      "domain": [],
      "subDomain": [],
      "elementalSchool": [],
      "bloodline": []
    },
    "school": "con",
    "types": "good",
    "conditionals": [],
    "components": {
      "somatic": true
    },
    "sr": false,
    "shortDescription": "<p>You conjure uplifting music from the wilds of Elysium, Heaven, or Nirvana to bolster other musical activities.  If you cast <i>songbird</i> during the same round in which you attempt a Perform check, <i>songbird</i> acts as accompaniment and grants a +3 bonus on that Perform check.  If you cast <i>songbird</i> in the same round in which you activate a bardic performance, that round of bardic performance does not count against your total rounds of bardic performance available for the day.  If you cast <i>songbird</i> in the same round in which you cast a spell with the sonic descriptor, that spell's save DC increases by 1.</p>",
    "spellDuration": "1 round"
  },
  "effects": [],
  "folder": null,
  "sort": 0,
  "permission": {
    "default": 0
  },
  "flags": {}
}