{
  "_id": "4yfd85igzmvu154c",
  "name": "Sonic Scream",
  "type": "spell",
  "img": "systems/pf1/icons/misc/magic-swirl.png",
  "data": {
    "description": {
      "value": "<div class=\"spell-description\">\n  <p>\n    <strong>School</strong>&nbsp;evocation&nbsp;[sonic];\n    <strong>Level</strong>&nbsp;bard 2, bloodrager 2, magus 2, psychic 2, sorcerer/wizard 2;\n    \n    \n    \n    \n  </p>\n  <p>\n    <strong>Casting Time</strong>&nbsp;1 standard<br>\n    <strong>Components</strong>&nbsp;V, S<br>\n  </p>\n  <p>\n    <strong>Range</strong>&nbsp;15 feet<br>\n    <strong>Area</strong>&nbsp;cone-shaped burst<br>\n    \n    \n    <strong>Duration</strong>&nbsp;1 round/level or until discharged (see text)<br>\n      <strong>Saving Throw</strong>&nbsp;Reflex half (see text);&nbsp;\n      <strong>Spell Resistance</strong>&nbsp;yes<br>\n  </p>\n  <h2>Description</h2>\n  <p>Up to three times during this spell's duration, you can emit a cone of powerful sound as a standard action. The first cone deals 4d4 points of sonic damage to every creature in the area. The second deals 2d4 points of sonic damage to every creature in the area. The third deals 1d4 points of sonic damage to every creature in the area. A successful Reflex save against a cone halves that cone's damage. After the third cone of sound, the spell ends. Until you use all three cones, you cannot use your voice for any magic-related purpose (bardic performance, verbal spellcasting, and so on), and cannot speak at any volume lower than a shout.</p>\n</div>\n"
    },
    "tags": [],
    "activation": {
      "type": "standard"
    },
    "unchainedAction": {
      "activation": {
        "cost": 2,
        "type": "action"
      }
    },
    "range": {
      "value": 15,
      "units": "ft"
    },
    "uses": {
      "per": ""
    },
    "measureTemplate": {
      "size": "0"
    },
    "actionType": "spellsave",
    "damage": {
      "parts": [],
      "critParts": [],
      "nonCritParts": []
    },
    "attackParts": [],
    "ability": {
      "attack": "",
      "damage": ""
    },
    "save": {
      "dc": "0",
      "type": "ref",
      "description": "Reflex half (see text)"
    },
    "effectNotes": [],
    "attackNotes": [],
    "links": {
      "children": []
    },
    "flags": {
      "boolean": [],
      "dictionary": []
    },
    "scriptCalls": [],
    "learnedAt": {
      "class": [
        [
          "sorcerer/wizard",
          2
        ],
        [
          "bard",
          2
        ],
        [
          "magus",
          2
        ],
        [
          "bloodrager",
          2
        ],
        [
          "psychic",
          2
        ]
      ],
      "domain": [],
      "subDomain": [],
      "elementalSchool": [],
      "bloodline": []
    },
    "level": 2,
    "school": "evo",
    "types": "sonic",
    "conditionals": [],
    "components": {
      "verbal": true,
      "somatic": true
    },
    "shortDescription": "<p>Up to three times during this spell's duration, you can emit a cone of powerful sound as a standard action. The first cone deals 4d4 points of sonic damage to every creature in the area. The second deals 2d4 points of sonic damage to every creature in the area. The third deals 1d4 points of sonic damage to every creature in the area. A successful Reflex save against a cone halves that cone's damage. After the third cone of sound, the spell ends. Until you use all three cones, you cannot use your voice for any magic-related purpose (bardic performance, verbal spellcasting, and so on), and cannot speak at any volume lower than a shout.</p>",
    "spellDuration": "1 round/level or until discharged (see text)",
    "spellArea": "cone-shaped burst"
  },
  "effects": [],
  "folder": null,
  "sort": 0,
  "permission": {
    "default": 0
  },
  "flags": {}
}