{
  "_id": "5kkfeituhm3d8vps",
  "name": "Stumble Gap",
  "type": "spell",
  "img": "systems/pf1/icons/misc/magic-swirl.png",
  "data": {
    "description": {
      "value": "<div class=\"spell-description\">\n  <p>\n    <strong>School</strong>&nbsp;conjuration&nbsp;(creation);\n    <strong>Level</strong>&nbsp;sorcerer/wizard 1;\n    \n    \n    \n    \n  </p>\n  <p>\n    <strong>Casting Time</strong>&nbsp;1 standard<br>\n    <strong>Components</strong>&nbsp;V, S, F (miniature shovel costing 10 gp)<br>\n  </p>\n  <p>\n    <strong>Range</strong>&nbsp;close (25 ft. + 5 ft./2 levels)<br>\n    \n    \n    <strong>Effect</strong>&nbsp;see text<br>\n    <strong>Duration</strong>&nbsp;1 round + 1 round/level<br>\n      <strong>Saving Throw</strong>&nbsp;Reflex partial;&nbsp;\n      <strong>Spell Resistance</strong>&nbsp;no<br>\n  </p>\n  <h2>Description</h2>\n  <p>You create a shallow extradimensional hole perfectly sized to trip anyone who steps within it. This hole occupies a single 5-foot square with a depth of six inches. Any creature occupying the square when you first create the hole, or who later steps into the square containing the hole, must make a Reflex saving throw to avoid falling prone in an adjacent square and taking 1d6 points of damage. A creature that makes its saving throw still stumbles ever so slightly and takes a -1 penalty on all rolls and checks for 1 round. The spell has no effect on creatures adjacent to the square containing the hole.</p>\n</div>\n"
    },
    "tags": [],
    "activation": {
      "type": "standard"
    },
    "unchainedAction": {
      "activation": {
        "cost": 2,
        "type": "action"
      }
    },
    "range": {
      "units": "close"
    },
    "uses": {
      "per": ""
    },
    "measureTemplate": {
      "size": "0"
    },
    "actionType": "spellsave",
    "damage": {
      "parts": [],
      "critParts": [],
      "nonCritParts": []
    },
    "attackParts": [],
    "ability": {
      "attack": "",
      "damage": ""
    },
    "save": {
      "dc": "0",
      "type": "ref",
      "description": "Reflex partial"
    },
    "effectNotes": [],
    "attackNotes": [],
    "links": {
      "children": []
    },
    "flags": {
      "boolean": [],
      "dictionary": []
    },
    "scriptCalls": [],
    "learnedAt": {
      "class": [
        [
          "sorcerer/wizard",
          1
        ]
      ],
      "domain": [],
      "subDomain": [],
      "elementalSchool": [],
      "bloodline": []
    },
    "school": "con",
    "subschool": "creation",
    "conditionals": [],
    "components": {
      "verbal": true,
      "somatic": true,
      "focus": true
    },
    "materials": {
      "focus": "miniature shovel costing 10 gp"
    },
    "sr": false,
    "shortDescription": "<p>You create a shallow extradimensional hole perfectly sized to trip anyone who steps within it. This hole occupies a single 5-foot square with a depth of six inches. Any creature occupying the square when you first create the hole, or who later steps into the square containing the hole, must make a Reflex saving throw to avoid falling prone in an adjacent square and taking 1d6 points of damage. A creature that makes its saving throw still stumbles ever so slightly and takes a -1 penalty on all rolls and checks for 1 round. The spell has no effect on creatures adjacent to the square containing the hole.</p>",
    "spellDuration": "1 round + 1 round/level",
    "spellEffect": "see text"
  },
  "effects": [],
  "folder": null,
  "sort": 0,
  "permission": {
    "default": 0
  },
  "flags": {}
}