{
  "_id": "7j5nps3g5afiamvi",
  "name": "Summon Elemental Steed",
  "type": "spell",
  "img": "systems/pf1/icons/misc/magic-swirl.png",
  "data": {
    "description": {
      "value": "<div class=\"spell-description\">\n  <p>\n    <strong>School</strong>&nbsp;conjuration&nbsp;(summoning)&nbsp;[see text];\n    <strong>Level</strong>&nbsp;druid 9;\n    \n    \n    \n    \n  </p>\n  <p>\n    <strong>Casting Time</strong>&nbsp;10 minutes<br>\n    <strong>Components</strong>&nbsp;V, S, DF<br>\n  </p>\n  <p>\n    <strong>Range</strong>&nbsp;close (25 ft. + 5 ft./2 levels)<br>\n    \n    \n    <strong>Effect</strong>&nbsp;one chariot<br>\n    <strong>Duration</strong>&nbsp;10 minutes/level<br>\n      <strong>Saving Throw</strong>&nbsp;none;&nbsp;\n      <strong>Spell Resistance</strong>&nbsp;no<br>\n  </p>\n  <h2>Description</h2>\n  <p>You summon a greater elemental (air, earth, fire, or water) bound in the form of a mighty chariot that moves at your command and can carry up to nine Medium creatures.</p><p>Passengers inside are not harmed by the elemental, and can see, breathe, and act normally, suffering no environmental damage even when the elemental chariot is flying, underwater, burrowing, or using earth glide. Passengers are not otherwise protected, though the elemental chariot does provide cover like a normal chariot.</p><p>The elemental keeps all of its statistics and abilities, except it loses its slam attacks and gains a trample attack (<i>Pathfinder</i> <i>RPG Bestiary</i> 305).</p><p>When you use a summoning spell to summon an air, earth, fire, or water creature, it is a spell of that type.</p><p>This spell is almost exclusively used by the Green Faith.</p>\n</div>\n"
    },
    "tags": [],
    "activation": {
      "cost": 10,
      "type": "minute"
    },
    "unchainedAction": {
      "activation": {
        "cost": 10,
        "type": "minute"
      }
    },
    "range": {
      "units": "close"
    },
    "uses": {
      "per": ""
    },
    "measureTemplate": {
      "size": "0"
    },
    "actionType": "other",
    "damage": {
      "parts": [],
      "critParts": [],
      "nonCritParts": []
    },
    "attackParts": [],
    "ability": {
      "attack": "",
      "damage": ""
    },
    "save": {
      "dc": "0"
    },
    "effectNotes": [],
    "attackNotes": [],
    "links": {
      "children": []
    },
    "flags": {
      "boolean": [],
      "dictionary": []
    },
    "scriptCalls": [],
    "learnedAt": {
      "class": [
        [
          "druid",
          9
        ]
      ],
      "domain": [],
      "subDomain": [],
      "elementalSchool": [],
      "bloodline": []
    },
    "level": 9,
    "school": "con",
    "subschool": "summoning",
    "types": "see text",
    "conditionals": [],
    "components": {
      "verbal": true,
      "somatic": true,
      "divineFocus": 1
    },
    "sr": false,
    "shortDescription": "<p>You summon a greater elemental (air, earth, fire, or water) bound in the form of a mighty chariot that moves at your command and can carry up to nine Medium creatures.</p><p>Passengers inside are not harmed by the elemental, and can see, breathe, and act normally, suffering no environmental damage even when the elemental chariot is flying, underwater, burrowing, or using earth glide. Passengers are not otherwise protected, though the elemental chariot does provide cover like a normal chariot.</p><p>The elemental keeps all of its statistics and abilities, except it loses its slam attacks and gains a trample attack (<i>Pathfinder</i> <i>RPG Bestiary</i> 305).</p><p>When you use a summoning spell to summon an air, earth, fire, or water creature, it is a spell of that type.</p><p>This spell is almost exclusively used by the Green Faith.</p>",
    "spellDuration": "10 minutes/level",
    "spellEffect": "one chariot"
  },
  "effects": [],
  "folder": null,
  "sort": 0,
  "permission": {
    "default": 0
  },
  "flags": {}
}