{
  "_id": "t1wkaw7wfvboswcb",
  "name": "Tap Inner Beauty",
  "type": "spell",
  "img": "systems/pf1/icons/misc/magic-swirl.png",
  "data": {
    "description": {
      "value": "<div class=\"spell-description\">\n  <p>\n    <strong>School</strong>&nbsp;divination;\n    <strong>Level</strong>&nbsp;bard 1, cleric/oracle 1, witch 1;\n    \n    \n    \n    \n  </p>\n  <p>\n    <strong>Casting Time</strong>&nbsp;1 standard<br>\n    <strong>Components</strong>&nbsp;V, M (a tiny mirror)<br>\n  </p>\n  <p>\n    <strong>Range</strong>&nbsp;personal<br>\n    \n    <strong>Targets</strong>&nbsp;you<br>\n    \n    <strong>Duration</strong>&nbsp;1 minute/level<br>\n  </p>\n  <h2>Description</h2>\n  <p>This spell allows you to tap into the natural beauty of your soul and let it shine from your eyes and your speech. While the spell is active, you gain a +2 insight bonus on all Charisma ability checks and Charisma-based skill checks.</p>\n</div>\n"
    },
    "tags": [],
    "activation": {
      "type": "standard"
    },
    "unchainedAction": {
      "activation": {
        "cost": 2,
        "type": "action"
      }
    },
    "target": {
      "value": "you"
    },
    "range": {
      "units": "personal"
    },
    "uses": {
      "per": ""
    },
    "measureTemplate": {
      "size": "0"
    },
    "actionType": "",
    "damage": {
      "parts": [],
      "critParts": [],
      "nonCritParts": []
    },
    "attackParts": [],
    "ability": {
      "attack": "",
      "damage": ""
    },
    "save": {
      "dc": "0"
    },
    "effectNotes": [],
    "attackNotes": [],
    "links": {
      "children": []
    },
    "flags": {
      "boolean": [],
      "dictionary": []
    },
    "scriptCalls": [],
    "learnedAt": {
      "class": [
        [
          "cleric/oracle",
          1
        ],
        [
          "bard",
          1
        ],
        [
          "witch",
          1
        ]
      ],
      "domain": [],
      "subDomain": [],
      "elementalSchool": [],
      "bloodline": []
    },
    "school": "div",
    "conditionals": [],
    "components": {
      "verbal": true,
      "material": true
    },
    "materials": {
      "value": "a tiny mirror"
    },
    "sr": false,
    "shortDescription": "<p>This spell allows you to tap into the natural beauty of your soul and let it shine from your eyes and your speech. While the spell is active, you gain a +2 insight bonus on all Charisma ability checks and Charisma-based skill checks.</p>",
    "spellDuration": "1 minute/level"
  },
  "effects": [],
  "folder": null,
  "sort": 0,
  "permission": {
    "default": 0
  },
  "flags": {}
}