{
  "_id": "z7n412mo4qaxxb4h",
  "name": "Tectonic Communion",
  "type": "spell",
  "img": "systems/pf1/icons/misc/magic-swirl.png",
  "data": {
    "description": {
      "value": "<div class=\"spell-description\">\n  <p>\n    <strong>School</strong>&nbsp;divination;\n    <strong>Level</strong>&nbsp;druid 7;\n    \n    \n    \n    \n  </p>\n  <p>\n    <strong>Casting Time</strong>&nbsp;1 hour<br>\n    <strong>Components</strong>&nbsp;V, S, DF<br>\n  </p>\n  <p>\n    <strong>Range</strong>&nbsp;personal<br>\n    \n    <strong>Targets</strong>&nbsp;you<br>\n    \n    <strong>Duration</strong>&nbsp;instantaneous<br>\n  </p>\n  <h2>Description</h2>\n  <p><i>Tectonic communion</i> functions as <i>commune with nature</i> with an even greater range. In outdoor or natural underground settings, the spell operates on a radius of 100 miles per caster level, extending even underground without penalty.  For every 2 caster levels above 13th, you may glean an additional fact from the list presented in <i>commune with nature</i>. Communities, dungeons, and signs of civilization (such as roads, farms or other constructions and settlements) exist as dark and unknowable blots in your perception of the spell's area; you're aware of their location and existence, but can't discern any information regarding them.</p>\n</div>\n"
    },
    "tags": [],
    "activation": {
      "type": "hour"
    },
    "unchainedAction": {
      "activation": {
        "type": "hour"
      }
    },
    "target": {
      "value": "you"
    },
    "range": {
      "units": "personal"
    },
    "uses": {
      "per": ""
    },
    "measureTemplate": {
      "size": "0"
    },
    "actionType": "",
    "damage": {
      "parts": [],
      "critParts": [],
      "nonCritParts": []
    },
    "attackParts": [],
    "ability": {
      "attack": "",
      "damage": ""
    },
    "save": {
      "dc": "0"
    },
    "effectNotes": [],
    "attackNotes": [],
    "links": {
      "children": []
    },
    "flags": {
      "boolean": [],
      "dictionary": []
    },
    "scriptCalls": [],
    "learnedAt": {
      "class": [
        [
          "druid",
          7
        ]
      ],
      "domain": [],
      "subDomain": [],
      "elementalSchool": [],
      "bloodline": []
    },
    "level": 7,
    "school": "div",
    "conditionals": [],
    "components": {
      "verbal": true,
      "somatic": true,
      "divineFocus": 1
    },
    "sr": false,
    "shortDescription": "<p><i>Tectonic communion</i> functions as <i>commune with nature</i> with an even greater range. In outdoor or natural underground settings, the spell operates on a radius of 100 miles per caster level, extending even underground without penalty.  For every 2 caster levels above 13th, you may glean an additional fact from the list presented in <i>commune with nature</i>. Communities, dungeons, and signs of civilization (such as roads, farms or other constructions and settlements) exist as dark and unknowable blots in your perception of the spell's area; you're aware of their location and existence, but can't discern any information regarding them.</p>",
    "spellDuration": "instantaneous"
  },
  "effects": [],
  "folder": null,
  "sort": 0,
  "permission": {
    "default": 0
  },
  "flags": {}
}