{
  "_id": "0li6cdx4qgwihry7",
  "name": "Touch of Combustion",
  "type": "spell",
  "img": "systems/pf1/icons/misc/magic-swirl.png",
  "data": {
    "description": {
      "value": "<div class=\"spell-description\">\n  <p>\n    <strong>School</strong>&nbsp;evocation&nbsp;[fire];\n    <strong>Level</strong>&nbsp;bloodrager 1, druid 1, hunter 1, inquisitor 1, magus 1, psychic 1, sorcerer/wizard 1, witch 1;\n    \n    \n    \n    \n  </p>\n  <p>\n    <strong>Casting Time</strong>&nbsp;1 standard<br>\n    <strong>Components</strong>&nbsp;V, S<br>\n  </p>\n  <p>\n    <strong>Range</strong>&nbsp;touch<br>\n    \n    <strong>Targets</strong>&nbsp;creature or object touched<br>\n    \n    <strong>Duration</strong>&nbsp;instantaneous<br>\n      <strong>Saving Throw</strong>&nbsp;Reflex negates; see text;&nbsp;\n      <strong>Spell Resistance</strong>&nbsp;yes<br>\n  </p>\n  <h2>Description</h2>\n  <p>Your successful melee touch attack causes the target to ignite in a violent burst of flame, dealing 1d6 points of fire damage. If it fails its saving throw, the target also catches on fire (<i>Core Rulebook</i> 444). If the target catches fire, on the first round thereafter, creatures adjacent to it (including you) must each succeed at a Reflex save or take 1d4 points of fire damage.</p>\n</div>\n"
    },
    "tags": [],
    "activation": {
      "type": "standard"
    },
    "unchainedAction": {
      "activation": {
        "cost": 2,
        "type": "action"
      }
    },
    "target": {
      "value": "creature or object touched"
    },
    "range": {
      "units": "touch"
    },
    "uses": {
      "per": ""
    },
    "measureTemplate": {
      "size": "0"
    },
    "actionType": "spellsave",
    "damage": {
      "parts": [],
      "critParts": [],
      "nonCritParts": []
    },
    "attackParts": [],
    "ability": {
      "attack": "",
      "damage": ""
    },
    "save": {
      "dc": "0",
      "type": "ref",
      "description": "Reflex negates; see text"
    },
    "effectNotes": [],
    "attackNotes": [],
    "links": {
      "children": []
    },
    "flags": {
      "boolean": [],
      "dictionary": []
    },
    "scriptCalls": [],
    "learnedAt": {
      "class": [
        [
          "sorcerer/wizard",
          1
        ],
        [
          "druid",
          1
        ],
        [
          "witch",
          1
        ],
        [
          "inquisitor",
          1
        ],
        [
          "magus",
          1
        ],
        [
          "bloodrager",
          1
        ],
        [
          "psychic",
          1
        ],
        [
          "hunter",
          1
        ]
      ],
      "domain": [],
      "subDomain": [],
      "elementalSchool": [],
      "bloodline": []
    },
    "school": "evo",
    "types": "fire",
    "conditionals": [],
    "components": {
      "verbal": true,
      "somatic": true
    },
    "shortDescription": "<p>Your successful melee touch attack causes the target to ignite in a violent burst of flame, dealing 1d6 points of fire damage. If it fails its saving throw, the target also catches on fire (<i>Core Rulebook</i> 444). If the target catches fire, on the first round thereafter, creatures adjacent to it (including you) must each succeed at a Reflex save or take 1d4 points of fire damage.</p>",
    "spellDuration": "instantaneous"
  },
  "effects": [],
  "folder": null,
  "sort": 0,
  "permission": {
    "default": 0
  },
  "flags": {}
}