{
  "_id": "1f1a6vb40enjisnq",
  "name": "Tough Crowd",
  "type": "spell",
  "img": "systems/pf1/icons/misc/magic-swirl.png",
  "data": {
    "description": {
      "value": "<div class=\"spell-description\">\n  <p>\n    <strong>School</strong>&nbsp;abjuration;\n    <strong>Level</strong>&nbsp;bard 4, inquisitor 4, mesmerist 4, psychic 3, sorcerer/wizard 4, witch 3;\n    \n    \n    \n    \n  </p>\n  <p>\n    <strong>Casting Time</strong>&nbsp;1 standard<br>\n    <strong>Components</strong>&nbsp;V, S<br>\n  </p>\n  <p>\n    <strong>Range</strong>&nbsp;medium (100 ft. + 10 ft./level)<br>\n    \n    <strong>Targets</strong>&nbsp;1 creature/level<br>\n    \n    <strong>Duration</strong>&nbsp;10 minutes/level<br>\n      <strong>Saving Throw</strong>&nbsp;Will negates (harmless);&nbsp;\n      <strong>Spell Resistance</strong>&nbsp;yes<br>\n  </p>\n  <h2>Description</h2>\n  <p>You fortify your allies against attempts to control or mislead them. Each ally in the spell's range gains a +4 insight bonus on the saving throw to resist the next enchantment or illusion spell cast on it. In addition, the DC of any Bluff, Diplomacy, Disguise, or Intimidate check to influence an affected character increases by 4 for the duration of the spell.</p>\n</div>\n"
    },
    "tags": [],
    "activation": {
      "type": "standard"
    },
    "unchainedAction": {
      "activation": {
        "cost": 2,
        "type": "action"
      }
    },
    "target": {
      "value": "1 creature/level"
    },
    "range": {
      "units": "medium"
    },
    "uses": {
      "per": ""
    },
    "measureTemplate": {
      "size": "0"
    },
    "actionType": "spellsave",
    "damage": {
      "parts": [],
      "critParts": [],
      "nonCritParts": []
    },
    "attackParts": [],
    "ability": {
      "attack": "",
      "damage": ""
    },
    "save": {
      "dc": "0",
      "type": "will",
      "description": "Will negates (harmless)"
    },
    "effectNotes": [],
    "attackNotes": [],
    "links": {
      "children": []
    },
    "flags": {
      "boolean": [],
      "dictionary": []
    },
    "scriptCalls": [],
    "learnedAt": {
      "class": [
        [
          "sorcerer/wizard",
          4
        ],
        [
          "bard",
          4
        ],
        [
          "witch",
          3
        ],
        [
          "inquisitor",
          4
        ],
        [
          "psychic",
          3
        ],
        [
          "mesmerist",
          4
        ]
      ],
      "domain": [],
      "subDomain": [],
      "elementalSchool": [],
      "bloodline": []
    },
    "level": 4,
    "school": "abj",
    "conditionals": [],
    "components": {
      "verbal": true,
      "somatic": true
    },
    "shortDescription": "<p>You fortify your allies against attempts to control or mislead them. Each ally in the spell's range gains a +4 insight bonus on the saving throw to resist the next enchantment or illusion spell cast on it. In addition, the DC of any Bluff, Diplomacy, Disguise, or Intimidate check to influence an affected character increases by 4 for the duration of the spell.</p>",
    "spellDuration": "10 minutes/level"
  },
  "effects": [],
  "folder": null,
  "sort": 0,
  "permission": {
    "default": 0
  },
  "flags": {}
}