{
  "_id": "3fravqa4vrm4ygkr",
  "name": "Transmute Metal to Wood",
  "type": "spell",
  "img": "systems/pf1/icons/misc/magic-swirl.png",
  "data": {
    "description": {
      "value": "<div class=\"spell-description\">\n  <p>\n    <strong>School</strong>&nbsp;transmutation;\n    <strong>Level</strong>&nbsp;druid 7;\n    \n    \n    \n    \n  </p>\n  <p>\n    <strong>Casting Time</strong>&nbsp;1 standard<br>\n    <strong>Components</strong>&nbsp;V, S, DF<br>\n  </p>\n  <p>\n    <strong>Range</strong>&nbsp;long (400 ft. + 40 ft./level)<br>\n    <strong>Area</strong>&nbsp;all metal objects within a 40-ft.-radius burst<br>\n    \n    \n    <strong>Duration</strong>&nbsp;instantaneous<br>\n      <strong>Saving Throw</strong>&nbsp;none;&nbsp;\n      <strong>Spell Resistance</strong>&nbsp;yes<br>\n  </p>\n  <h2>Description</h2>\n  <p>This spell enables you to change all metal objects within its area to wood. Weapons, armor, and other metal objects carried by creatures are affected as well. A magic object made of metal effectively has spell resistance equal to 20 + its caster level against this spell. Artifacts cannot be transmuted. Weapons converted from metal to wood take a -2 penalty on attack and damage rolls.</p><p>The armor bonus of any armor converted from metal to wood is reduced by 2. Weapons changed by this spell splinter and break on any natural attack roll of 1 or 2, and armor changed by this spell loses an additional point of armor bonus every time it is struck with a natural attack roll of 19 or 20.</p><p>Only <i>limited wish, miracle, wish,</i> or similar magic can restore a transmuted object to its metallic state.</p>\n</div>\n"
    },
    "tags": [],
    "activation": {
      "type": "standard"
    },
    "unchainedAction": {
      "activation": {
        "cost": 2,
        "type": "action"
      }
    },
    "range": {
      "units": "long"
    },
    "uses": {
      "per": ""
    },
    "measureTemplate": {
      "size": "0"
    },
    "actionType": "",
    "damage": {
      "parts": [],
      "critParts": [],
      "nonCritParts": []
    },
    "attackParts": [],
    "ability": {
      "attack": "",
      "damage": ""
    },
    "save": {
      "dc": "0"
    },
    "effectNotes": [],
    "attackNotes": [],
    "links": {
      "children": []
    },
    "flags": {
      "boolean": [],
      "dictionary": []
    },
    "scriptCalls": [],
    "learnedAt": {
      "class": [
        [
          "druid",
          7
        ]
      ],
      "domain": [],
      "subDomain": [],
      "elementalSchool": [],
      "bloodline": []
    },
    "level": 7,
    "school": "trs",
    "conditionals": [],
    "components": {
      "verbal": true,
      "somatic": true,
      "divineFocus": 1
    },
    "shortDescription": "<p>This spell enables you to change all metal objects within its area to wood. Weapons, armor, and other metal objects carried by creatures are affected as well. A magic object made of metal effectively has spell resistance equal to 20 + its caster level against this spell. Artifacts cannot be transmuted. Weapons converted from metal to wood take a -2 penalty on attack and damage rolls.</p><p>The armor bonus of any armor converted from metal to wood is reduced by 2. Weapons changed by this spell splinter and break on any natural attack roll of 1 or 2, and armor changed by this spell loses an additional point of armor bonus every time it is struck with a natural attack roll of 19 or 20.</p><p>Only <i>limited wish, miracle, wish,</i> or similar magic can restore a transmuted object to its metallic state.</p>",
    "spellDuration": "instantaneous",
    "spellArea": "all metal objects within a 40-ft.-radius burst"
  },
  "effects": [],
  "folder": null,
  "sort": 0,
  "permission": {
    "default": 0
  },
  "flags": {}
}