{
  "_id": "xrh33cwr9hrvda6l",
  "name": "Transmute Potion to Poison",
  "type": "spell",
  "img": "systems/pf1/icons/misc/magic-swirl.png",
  "data": {
    "description": {
      "value": "<div class=\"spell-description\">\n  <p>\n    <strong>School</strong>&nbsp;transmutation&nbsp;[poison];\n    <strong>Level</strong>&nbsp;alchemist 2;\n    \n    \n    \n    \n  </p>\n  <p>\n    <strong>Casting Time</strong>&nbsp;1 standard<br>\n    <strong>Components</strong>&nbsp;S<br>\n  </p>\n  <p>\n    <strong>Range</strong>&nbsp;personal<br>\n    \n    <strong>Targets</strong>&nbsp;you<br>\n    \n    <strong>Duration</strong>&nbsp;1 round then 1 minute/level; see text<br>\n  </p>\n  <h2>Description</h2>\n  <p>This extract causes you to take on a pale, sickly pallor for 1 round. During this time, if you consume a potion, it has no effect. Instead, your mouth fills with a vile poison that you can spit onto a weapon as a free action. If you do not spit out the poison in 1 round, it affects you instead. The effect of the poison depends on the level of spell contained in the potion consumed (see sidebar). If the poison is not used within 1 minute per caster level it becomes inert. You can only create one dose of poison in this way per casting of this spell.</p>\n</div>\n"
    },
    "tags": [],
    "activation": {
      "type": "standard"
    },
    "unchainedAction": {
      "activation": {
        "cost": 2,
        "type": "action"
      }
    },
    "target": {
      "value": "you"
    },
    "range": {
      "units": "personal"
    },
    "uses": {
      "per": ""
    },
    "measureTemplate": {
      "size": "0"
    },
    "actionType": "",
    "damage": {
      "parts": [],
      "critParts": [],
      "nonCritParts": []
    },
    "attackParts": [],
    "ability": {
      "attack": "",
      "damage": ""
    },
    "save": {
      "dc": "0"
    },
    "effectNotes": [],
    "attackNotes": [],
    "links": {
      "children": []
    },
    "flags": {
      "boolean": [],
      "dictionary": []
    },
    "scriptCalls": [],
    "learnedAt": {
      "class": [
        [
          "alchemist",
          2
        ]
      ],
      "domain": [],
      "subDomain": [],
      "elementalSchool": [],
      "bloodline": []
    },
    "level": 2,
    "school": "trs",
    "types": "poison",
    "conditionals": [],
    "components": {
      "somatic": true
    },
    "sr": false,
    "shortDescription": "<p>This extract causes you to take on a pale, sickly pallor for 1 round. During this time, if you consume a potion, it has no effect. Instead, your mouth fills with a vile poison that you can spit onto a weapon as a free action. If you do not spit out the poison in 1 round, it affects you instead. The effect of the poison depends on the level of spell contained in the potion consumed (see sidebar). If the poison is not used within 1 minute per caster level it becomes inert. You can only create one dose of poison in this way per casting of this spell.</p>",
    "spellDuration": "1 round then 1 minute/level; see text"
  },
  "effects": [],
  "folder": null,
  "sort": 0,
  "permission": {
    "default": 0
  },
  "flags": {}
}