{
  "_id": "amds6sfc78likqrs",
  "name": "Umbral Weapon",
  "type": "spell",
  "img": "systems/pf1/icons/misc/magic-swirl.png",
  "data": {
    "description": {
      "value": "<div class=\"spell-description\">\n  <p>\n    <strong>School</strong>&nbsp;illusion&nbsp;[cold, shadow];\n    <strong>Level</strong>&nbsp;antipaladin 2, bard 2, magus 2, sorcerer/wizard 2, witch 2;\n    \n    \n    \n    \n  </p>\n  <p>\n    <strong>Casting Time</strong>&nbsp;1 standard<br>\n    <strong>Components</strong>&nbsp;V, S, M (a pair of miniature swords)<br>\n  </p>\n  <p>\n    <strong>Range</strong>&nbsp;touch<br>\n    \n    <strong>Targets</strong>&nbsp;melee weapon touched<br>\n    \n    <strong>Duration</strong>&nbsp;1 round/level<br>\n      <strong>Saving Throw</strong>&nbsp;none;&nbsp;\n      <strong>Spell Resistance</strong>&nbsp;yes<br>\n  </p>\n  <h2>Description</h2>\n  <p>A shadowy afterimage trails behind the targeted weapon, potentially damaging foes even when the weapon misses. Once per round, when the weapon's wielder misses a creature with the target weapon, the wielder can reroll the attack. If the reroll hits, the spell hits the targeted creature and deals 1d8 points of cold damage, plus 1 additional point per 2 caster levels (maximum +10). If an attacked creature has spell resistance, you must attempt a caster level check (1d20 + caster level) against that spell resistance the first time the spell damages the target. If the creature successfully resists <i>umbral weapon</i>, the spell is dispelled. If not, the creature takes damage as normal.</p>\n</div>\n"
    },
    "tags": [],
    "activation": {
      "type": "standard"
    },
    "unchainedAction": {
      "activation": {
        "cost": 2,
        "type": "action"
      }
    },
    "target": {
      "value": "melee weapon touched"
    },
    "range": {
      "units": "touch"
    },
    "uses": {
      "per": ""
    },
    "measureTemplate": {
      "size": "0"
    },
    "actionType": "",
    "damage": {
      "parts": [],
      "critParts": [],
      "nonCritParts": []
    },
    "attackParts": [],
    "ability": {
      "attack": "",
      "damage": ""
    },
    "save": {
      "dc": "0"
    },
    "effectNotes": [],
    "attackNotes": [],
    "links": {
      "children": []
    },
    "flags": {
      "boolean": [],
      "dictionary": []
    },
    "scriptCalls": [],
    "learnedAt": {
      "class": [
        [
          "sorcerer/wizard",
          2
        ],
        [
          "bard",
          2
        ],
        [
          "witch",
          2
        ],
        [
          "antipaladin",
          2
        ],
        [
          "magus",
          2
        ]
      ],
      "domain": [],
      "subDomain": [],
      "elementalSchool": [],
      "bloodline": []
    },
    "level": 2,
    "school": "ill",
    "types": "cold, shadow",
    "conditionals": [],
    "components": {
      "verbal": true,
      "somatic": true,
      "material": true
    },
    "materials": {
      "value": "a pair of miniature swords"
    },
    "shortDescription": "<p>A shadowy afterimage trails behind the targeted weapon, potentially damaging foes even when the weapon misses. Once per round, when the weapon's wielder misses a creature with the target weapon, the wielder can reroll the attack. If the reroll hits, the spell hits the targeted creature and deals 1d8 points of cold damage, plus 1 additional point per 2 caster levels (maximum +10). If an attacked creature has spell resistance, you must attempt a caster level check (1d20 + caster level) against that spell resistance the first time the spell damages the target. If the creature successfully resists <i>umbral weapon</i>, the spell is dispelled. If not, the creature takes damage as normal.</p>",
    "spellDuration": "1 round/level"
  },
  "effects": [],
  "folder": null,
  "sort": 0,
  "permission": {
    "default": 0
  },
  "flags": {}
}