{
  "_id": "8AMmUGAADKjE3lKU",
  "name": "Unflappable Mien",
  "type": "spell",
  "img": "systems/pf1/icons/misc/magic-swirl.png",
  "data": {
    "description": {
      "value": "<div class=\"spell-description\">\n  <p>\n    <strong>School</strong>&nbsp;evocation&nbsp;[force];\n    <strong>Level</strong>&nbsp;bard 3, mesmerist 3, occultist 3, psychic 3, sorcerer/wizard 3;\n    \n    \n    \n    \n  </p>\n  <p>\n    <strong>Casting Time</strong>&nbsp;1 standard<br>\n    <strong>Components</strong>&nbsp;V, S, F (a diamond clasp, brooch, or pin worth at least 100 gp)<br>\n  </p>\n  <p>\n    <strong>Range</strong>&nbsp;personal<br>\n    \n    <strong>Targets</strong>&nbsp;you<br>\n    \n    <strong>Duration</strong>&nbsp;10 minutes/level or until discharged; see text<br>\n  </p>\n  <h2>Description</h2>\n  <p>When a creature attempts to touch you with an attack (such as a&nbsp;<a href=\"https://www.d20pfsrd.com/gamemastering/combat#TOC-Touch-Attacks\">touch attack</a>, an&nbsp;<a href=\"https://www.d20pfsrd.com/equipment/weapons/weapon-descriptions/strike-unarmed\">unarmed strike</a>, an attack with a&nbsp;<a href=\"https://www.d20pfsrd.com/bestiary/rules-for-monsters/universal-monster-rules#TOC-Natural-Attacks\">natural weapon</a>, or a&nbsp;<a href=\"https://www.d20pfsrd.com/gamemastering/combat#TOC-Grapple\">grapple</a>), it feels a field of force blocking its way. It can choose to abandon the attempt, losing its action, or to push through the ward. If it pushes through, you can trigger a wave of force against that creature. This discharges the spell, deals 1d4 points of force damage per&nbsp;<a href=\"https://www.d20pfsrd.com/magic#TOC-Caster-Level\">caster level</a> (maximum 10d4), and pushes the creature back 5 feet. If the creature cannot be pushed back 5 feet (if a solid surface is directly behind it, for example), it takes 2d4 additional points of force damage. A successful <a href=\"https://www.d20pfsrd.com/gamemastering/combat#TOC-Fortitude\">Fortitude</a>&nbsp;saving throw halves the total amount of force damage the creature takes.</p>\n<p>Members of the&nbsp;<a href=\"https://www.d20pfsrd.com/classes/prestige-classes/other-paizo/s-z/sanctified-prophet\">Sanctified Prophet</a>&nbsp;prestige class can cast this spell, even though it is not a&nbsp;<a href=\"https://www.d20pfsrd.com/magic/all-spells/d/divination\">divination</a>&nbsp;or&nbsp;<a href=\"https://www.d20pfsrd.com/magic#TOC-Enchantment\">enchantment</a>.</p>\n</div>\n"
    },
    "tags": [],
    "activation": {
      "type": "standard"
    },
    "unchainedAction": {
      "activation": {
        "cost": 2,
        "type": "action"
      }
    },
    "target": {
      "value": "you"
    },
    "range": {
      "units": "personal"
    },
    "actionType": "",
    "damage": {
      "parts": [],
      "critParts": [],
      "nonCritParts": []
    },
    "attackParts": [],
    "effectNotes": [],
    "attackNotes": [],
    "links": {
      "children": []
    },
    "flags": {
      "boolean": [],
      "dictionary": []
    },
    "scriptCalls": [],
    "learnedAt": {
      "class": [
        [
          "bard",
          3
        ],
        [
          "mesmerist",
          3
        ],
        [
          "occultist",
          3
        ],
        [
          "psychic",
          3
        ],
        [
          "sorcerer/wizard",
          3
        ]
      ],
      "domain": [],
      "subDomain": [],
      "elementalSchool": [],
      "bloodline": []
    },
    "level": 3,
    "school": "evo",
    "types": "force",
    "conditionals": [],
    "components": {
      "verbal": true,
      "somatic": true,
      "focus": true
    },
    "materials": {
      "focus": "a diamond clasp, brooch, or pin worth at least 100 gp"
    },
    "spellbook": "",
    "shortDescription": "<p>When a creature attempts to touch you with an attack (such as a&nbsp;<a href=\"https://www.d20pfsrd.com/gamemastering/combat#TOC-Touch-Attacks\">touch attack</a>, an&nbsp;<a href=\"https://www.d20pfsrd.com/equipment/weapons/weapon-descriptions/strike-unarmed\">unarmed strike</a>, an attack with a&nbsp;<a href=\"https://www.d20pfsrd.com/bestiary/rules-for-monsters/universal-monster-rules#TOC-Natural-Attacks\">natural weapon</a>, or a&nbsp;<a href=\"https://www.d20pfsrd.com/gamemastering/combat#TOC-Grapple\">grapple</a>), it feels a field of force blocking its way. It can choose to abandon the attempt, losing its action, or to push through the ward. If it pushes through, you can trigger a wave of force against that creature. This discharges the spell, deals 1d4 points of force damage per&nbsp;<a href=\"https://www.d20pfsrd.com/magic#TOC-Caster-Level\">caster level</a> (maximum 10d4), and pushes the creature back 5 feet. If the creature cannot be pushed back 5 feet (if a solid surface is directly behind it, for example), it takes 2d4 additional points of force damage. A successful <a href=\"https://www.d20pfsrd.com/gamemastering/combat#TOC-Fortitude\">Fortitude</a>&nbsp;saving throw halves the total amount of force damage the creature takes.</p>\n<p>Members of the&nbsp;<a href=\"https://www.d20pfsrd.com/classes/prestige-classes/other-paizo/s-z/sanctified-prophet\">Sanctified Prophet</a>&nbsp;prestige class can cast this spell, even though it is not a&nbsp;<a href=\"https://www.d20pfsrd.com/magic/all-spells/d/divination\">divination</a>&nbsp;or&nbsp;<a href=\"https://www.d20pfsrd.com/magic#TOC-Enchantment\">enchantment</a>.</p>",
    "spellDuration": "10 minutes/level or until discharged; see text"
  },
  "effects": [],
  "folder": null,
  "sort": 0,
  "permission": {
    "default": 0
  },
  "flags": {}
}