{
  "_id": "okui7mft5bquqfrg",
  "name": "Unholy Blight",
  "type": "spell",
  "img": "systems/pf1/icons/misc/magic-swirl.png",
  "data": {
    "description": {
      "value": "<div class=\"spell-description\">\n  <p>\n    <strong>School</strong>&nbsp;evocation&nbsp;[evil];\n    <strong>Level</strong>&nbsp;cleric/oracle 4, inquisitor 4;\n    <strong>Domain</strong>&nbsp;Evil 4;\n    \n    \n    \n  </p>\n  <p>\n    <strong>Casting Time</strong>&nbsp;1 standard<br>\n    <strong>Components</strong>&nbsp;V, S<br>\n  </p>\n  <p>\n    <strong>Range</strong>&nbsp;medium (100 ft. + 10 ft./level)<br>\n    <strong>Area</strong>&nbsp;20-ft.-radius spread<br>\n    \n    \n    <strong>Duration</strong>&nbsp;instantaneous (1d4 rounds); see text<br>\n      <strong>Saving Throw</strong>&nbsp;Will partial;&nbsp;\n      <strong>Spell Resistance</strong>&nbsp;yes<br>\n  </p>\n  <h2>Description</h2>\n  <p>You call up unholy power to smite your enemies. The power takes the form of a cold, cloying miasma of greasy darkness. Only good and neutral (not evil) creatures are harmed by the spell.</p><p>The spell deals 1d8 points of damage per two caster levels (maximum 5d8) to a good creature (or 1d6 per caster level, maximum 10d6, to a good outsider) and causes it to be sickened for 1d4 rounds. A successful Will save reduces damage to half and negates the sickened effect. The effects cannot be negated by <i>remove disease</i> or <i>heal</i>, but <i>remove curse</i> is effective.</p><p>The spell deals only half damage to creatures who are neither evil nor good, and they are not sickened. Such a creature can reduce the damage by half again (down to one-quarter) with a successful Will save.</p>\n</div>\n"
    },
    "tags": [],
    "activation": {
      "type": "standard"
    },
    "unchainedAction": {
      "activation": {
        "cost": 2,
        "type": "action"
      }
    },
    "range": {
      "units": "medium"
    },
    "uses": {
      "per": ""
    },
    "measureTemplate": {
      "size": "0"
    },
    "actionType": "spellsave",
    "damage": {
      "parts": [],
      "critParts": [],
      "nonCritParts": []
    },
    "attackParts": [],
    "ability": {
      "attack": "",
      "damage": ""
    },
    "save": {
      "dc": "0",
      "type": "will",
      "description": "Will partial"
    },
    "effectNotes": [],
    "attackNotes": [],
    "links": {
      "children": []
    },
    "flags": {
      "boolean": [],
      "dictionary": []
    },
    "scriptCalls": [],
    "learnedAt": {
      "class": [
        [
          "cleric/oracle",
          4
        ],
        [
          "inquisitor",
          4
        ]
      ],
      "domain": [
        [
          "Evil",
          4
        ]
      ],
      "subDomain": [],
      "elementalSchool": [],
      "bloodline": []
    },
    "level": 4,
    "school": "evo",
    "types": "evil",
    "conditionals": [],
    "components": {
      "verbal": true,
      "somatic": true
    },
    "shortDescription": "<p>You call up unholy power to smite your enemies. The power takes the form of a cold, cloying miasma of greasy darkness. Only good and neutral (not evil) creatures are harmed by the spell.</p><p>The spell deals 1d8 points of damage per two caster levels (maximum 5d8) to a good creature (or 1d6 per caster level, maximum 10d6, to a good outsider) and causes it to be sickened for 1d4 rounds. A successful Will save reduces damage to half and negates the sickened effect. The effects cannot be negated by <i>remove disease</i> or <i>heal</i>, but <i>remove curse</i> is effective.</p><p>The spell deals only half damage to creatures who are neither evil nor good, and they are not sickened. Such a creature can reduce the damage by half again (down to one-quarter) with a successful Will save.</p>",
    "spellDuration": "instantaneous (1d4 rounds); see text",
    "spellArea": "20-ft.-radius spread"
  },
  "effects": [],
  "folder": null,
  "sort": 0,
  "permission": {
    "default": 0
  },
  "flags": {}
}