{
  "_id": "4x952ltk0uwp158t",
  "name": "Vengeful Comets",
  "type": "spell",
  "img": "systems/pf1/icons/misc/magic-swirl.png",
  "data": {
    "description": {
      "value": "<div class=\"spell-description\">\n  <p>\n    <strong>School</strong>&nbsp;evocation&nbsp;[cold];\n    <strong>Level</strong>&nbsp;druid 3, hunter 3, sorcerer/wizard 3;\n    \n    \n    \n    \n  </p>\n  <p>\n    <strong>Casting Time</strong>&nbsp;1 standard<br>\n    <strong>Components</strong>&nbsp;V, S<br>\n  </p>\n  <p>\n    <strong>Range</strong>&nbsp;long (400 ft. + 40 ft./level)<br>\n    \n    \n    <strong>Effect</strong>&nbsp;1 comet per 4 levels<br>\n    <strong>Duration</strong>&nbsp;1 round/level or until completely discharged (see below)<br>\n      <strong>Saving Throw</strong>&nbsp;none;&nbsp;\n      <strong>Spell Resistance</strong>&nbsp;yes<br>\n  </p>\n  <h2>Description</h2>\n  <p>This spell causes a number of miniature comets (up to one per four caster levels) to orbit in the air above your head. Bits of snow and cold wind drift down from the orbiting comets, granting you a circumstance bonus equal to the number of comets on all saving throws against fire effects.</p><p>The actual use for the comets, though, is to make vengeful strikes against foes who dare to target you with offensive spells. As an immediate action whenever you are affected by a spell cast by another creature, you can fire one of your <i><i>vengeful comet</i>s</i> as a bolt of icy retribution (provided the source of the offensive spell is within range of your <i>vengeful comet</i>, of course). The comet requires a ranged touch attack to hit. If it hits, a comet deals 1d6 points of bludgeoning damage and 3d6 points of cold damage to the target, plus an additional amount of cold damage equal to the level of the spell you are retaliating against. If the spell you're retaliating against had the fire descriptor, you may opt to fire two comets instead of one.</p>\n</div>\n"
    },
    "tags": [],
    "activation": {
      "type": "standard"
    },
    "unchainedAction": {
      "activation": {
        "cost": 2,
        "type": "action"
      }
    },
    "range": {
      "units": "long"
    },
    "uses": {
      "per": ""
    },
    "measureTemplate": {
      "size": "0"
    },
    "actionType": "other",
    "damage": {
      "parts": [],
      "critParts": [],
      "nonCritParts": []
    },
    "attackParts": [],
    "ability": {
      "attack": "",
      "damage": ""
    },
    "save": {
      "dc": "0"
    },
    "effectNotes": [],
    "attackNotes": [],
    "links": {
      "children": []
    },
    "flags": {
      "boolean": [],
      "dictionary": []
    },
    "scriptCalls": [],
    "learnedAt": {
      "class": [
        [
          "sorcerer/wizard",
          3
        ],
        [
          "druid",
          3
        ],
        [
          "hunter",
          3
        ]
      ],
      "domain": [],
      "subDomain": [],
      "elementalSchool": [],
      "bloodline": []
    },
    "level": 3,
    "school": "evo",
    "types": "cold",
    "conditionals": [],
    "components": {
      "verbal": true,
      "somatic": true
    },
    "shortDescription": "<p>This spell causes a number of miniature comets (up to one per four caster levels) to orbit in the air above your head. Bits of snow and cold wind drift down from the orbiting comets, granting you a circumstance bonus equal to the number of comets on all saving throws against fire effects.</p><p>The actual use for the comets, though, is to make vengeful strikes against foes who dare to target you with offensive spells. As an immediate action whenever you are affected by a spell cast by another creature, you can fire one of your <i><i>vengeful comet</i>s</i> as a bolt of icy retribution (provided the source of the offensive spell is within range of your <i>vengeful comet</i>, of course). The comet requires a ranged touch attack to hit. If it hits, a comet deals 1d6 points of bludgeoning damage and 3d6 points of cold damage to the target, plus an additional amount of cold damage equal to the level of the spell you are retaliating against. If the spell you're retaliating against had the fire descriptor, you may opt to fire two comets instead of one.</p>",
    "spellDuration": "1 round/level or until completely discharged (see below)",
    "spellEffect": "1 comet per 4 levels"
  },
  "effects": [],
  "folder": null,
  "sort": 0,
  "permission": {
    "default": 0
  },
  "flags": {}
}