{
  "_id": "b2yholbb5a0g8peg",
  "name": "Vicarious View",
  "type": "spell",
  "img": "systems/pf1/icons/misc/magic-swirl.png",
  "data": {
    "description": {
      "value": "<div class=\"spell-description\">\n  <p>\n    <strong>School</strong>&nbsp;divination&nbsp;(scrying);\n    <strong>Level</strong>&nbsp;bard 4, medium 3, mesmerist 4, occultist 4, psychic 4, shaman 4, sorcerer/wizard 4, spiritualist 4, witch 4;\n    \n    \n    \n    \n  </p>\n  <p>\n    <strong>Casting Time</strong>&nbsp;1 standard<br>\n    <strong>Components</strong>&nbsp;V, S<br>\n  </p>\n  <p>\n    <strong>Range</strong>&nbsp;touch<br>\n    \n    \n    <strong>Effect</strong>&nbsp;magical sensor<br>\n    <strong>Duration</strong>&nbsp;1 minute/level (D)<br>\n      <strong>Saving Throw</strong>&nbsp;Will negates (object);&nbsp;\n      <strong>Spell Resistance</strong>&nbsp;yes<br>\n  </p>\n  <h2>Description</h2>\n  <p>You plant a scrying sensor on a touched creature, object, or point in space, allowing you to see and hear the creature, object, or point and its surroundings (approximately 10 feet in all directions). If the creature or object on moves, the sensor moves with it. Unlike other scrying spells, <i>vicarious view</i> doesn't allow magically or supernaturally enhanced senses to work through it.</p>\n</div>\n"
    },
    "tags": [],
    "activation": {
      "type": "standard"
    },
    "unchainedAction": {
      "activation": {
        "cost": 2,
        "type": "action"
      }
    },
    "range": {
      "units": "touch"
    },
    "uses": {
      "per": ""
    },
    "measureTemplate": {
      "size": "0"
    },
    "actionType": "spellsave",
    "damage": {
      "parts": [],
      "critParts": [],
      "nonCritParts": []
    },
    "attackParts": [],
    "ability": {
      "attack": "",
      "damage": ""
    },
    "save": {
      "dc": "0",
      "type": "will",
      "description": "Will negates (object)"
    },
    "effectNotes": [],
    "attackNotes": [],
    "links": {
      "children": []
    },
    "flags": {
      "boolean": [],
      "dictionary": []
    },
    "scriptCalls": [],
    "learnedAt": {
      "class": [
        [
          "sorcerer/wizard",
          4
        ],
        [
          "bard",
          4
        ],
        [
          "witch",
          4
        ],
        [
          "shaman",
          4
        ],
        [
          "psychic",
          4
        ],
        [
          "medium",
          3
        ],
        [
          "mesmerist",
          4
        ],
        [
          "occultist",
          4
        ],
        [
          "spiritualist",
          4
        ]
      ],
      "domain": [],
      "subDomain": [],
      "elementalSchool": [],
      "bloodline": []
    },
    "level": 4,
    "school": "div",
    "subschool": "scrying",
    "conditionals": [],
    "components": {
      "verbal": true,
      "somatic": true
    },
    "shortDescription": "<p>You plant a scrying sensor on a touched creature, object, or point in space, allowing you to see and hear the creature, object, or point and its surroundings (approximately 10 feet in all directions). If the creature or object on moves, the sensor moves with it. Unlike other scrying spells, <i>vicarious view</i> doesn't allow magically or supernaturally enhanced senses to work through it.</p>",
    "spellDuration": "1 minute/level (D)",
    "spellEffect": "magical sensor"
  },
  "effects": [],
  "folder": null,
  "sort": 0,
  "permission": {
    "default": 0
  },
  "flags": {}
}