{
  "_id": "do6e31hgstlpbx8x",
  "name": "Vile Dog Transformation",
  "type": "spell",
  "img": "systems/pf1/icons/misc/magic-swirl.png",
  "data": {
    "description": {
      "value": "<div class=\"spell-description\">\n  <p>\n    <strong>School</strong>&nbsp;transmutation&nbsp;(polymorph)&nbsp;[evil];\n    <strong>Level</strong>&nbsp;antipaladin 3, cleric/oracle 5, druid 5, hunter 5, shaman 5, sorcerer/wizard 5, witch 5;\n    \n    \n    \n    \n  </p>\n  <p>\n    <strong>Casting Time</strong>&nbsp;10 minutes<br>\n    <strong>Components</strong>&nbsp;V, S, M (a strip of leather)<br>\n  </p>\n  <p>\n    <strong>Range</strong>&nbsp;touch<br>\n    \n    <strong>Targets</strong>&nbsp;one or more dogs touched<br>\n    \n    <strong>Duration</strong>&nbsp;1 hour/level<br>\n      <strong>Saving Throw</strong>&nbsp;Will negates (see text);&nbsp;\n      <strong>Spell Resistance</strong>&nbsp;no<br>\n  </p>\n  <h2>Description</h2>\n  <p>You transform one or more dogs into evil, monstrous creatures. Each dog can attempt a Will save to negate the transformation, but if the dog trusts you (it has been trained by you for a purpose, or has been in your care for at least 30 days and generally treated well), it takes a -4 penalty on this saving throw. Each transformed dog has the same stats as a hell hound (<i>Bestiary</i> 173) except that it doesn't have fire immunity and cold vulnerability and instead has acid, cold, and fire resistance 5. Additionally, each transformed dog deals an extra 1d6 points of acid damage with its bite attack (instead of fire damage), and its breath weapon is replaced with a vaporous cloud that spreads out in front of the creature in a 10-foot cone, dealing 2d4 points of acid damage. The creature can't understand Infernal but understands any languages you know. The dog is normally neutral evil, but is chaotic evil if you are chaotic or lawful evil if you are lawful.  For every 3 caster levels you have, you can transform one dog (to a maximum of five dogs at 15th level). At the end of the spell's duration, the dogs immediately dissolve into a stinking pile of gore and bones.  You can command the creature in the same way you would a creature you summoned via a <i>summon monster</i> spell. If you buy dogs to use with this spell, they cost 15 gp for a lap dog, 25 gp for a guard dog, or 150 gp for a riding dog (<i>Pathfinder RPG Ultimate Equipment</i> 82). Any kind of dog can be transformed by this spell and has the same statistics.</p>\n</div>\n"
    },
    "tags": [],
    "activation": {
      "cost": 10,
      "type": "minute"
    },
    "unchainedAction": {
      "activation": {
        "cost": 10,
        "type": "minute"
      }
    },
    "target": {
      "value": "one or more dogs touched"
    },
    "range": {
      "units": "touch"
    },
    "uses": {
      "per": ""
    },
    "measureTemplate": {
      "size": "0"
    },
    "actionType": "spellsave",
    "damage": {
      "parts": [],
      "critParts": [],
      "nonCritParts": []
    },
    "attackParts": [],
    "ability": {
      "attack": "",
      "damage": ""
    },
    "save": {
      "dc": "0",
      "type": "will",
      "description": "Will negates (see text)"
    },
    "effectNotes": [],
    "attackNotes": [],
    "links": {
      "children": []
    },
    "flags": {
      "boolean": [],
      "dictionary": []
    },
    "scriptCalls": [],
    "learnedAt": {
      "class": [
        [
          "sorcerer/wizard",
          5
        ],
        [
          "cleric/oracle",
          5
        ],
        [
          "druid",
          5
        ],
        [
          "witch",
          5
        ],
        [
          "antipaladin",
          3
        ],
        [
          "shaman",
          5
        ],
        [
          "hunter",
          5
        ]
      ],
      "domain": [],
      "subDomain": [],
      "elementalSchool": [],
      "bloodline": []
    },
    "level": 5,
    "school": "trs",
    "subschool": "polymorph",
    "types": "evil",
    "conditionals": [],
    "components": {
      "verbal": true,
      "somatic": true,
      "material": true
    },
    "materials": {
      "value": "a strip of leather"
    },
    "sr": false,
    "shortDescription": "<p>You transform one or more dogs into evil, monstrous creatures. Each dog can attempt a Will save to negate the transformation, but if the dog trusts you (it has been trained by you for a purpose, or has been in your care for at least 30 days and generally treated well), it takes a -4 penalty on this saving throw. Each transformed dog has the same stats as a hell hound (<i>Bestiary</i> 173) except that it doesn't have fire immunity and cold vulnerability and instead has acid, cold, and fire resistance 5. Additionally, each transformed dog deals an extra 1d6 points of acid damage with its bite attack (instead of fire damage), and its breath weapon is replaced with a vaporous cloud that spreads out in front of the creature in a 10-foot cone, dealing 2d4 points of acid damage. The creature can't understand Infernal but understands any languages you know. The dog is normally neutral evil, but is chaotic evil if you are chaotic or lawful evil if you are lawful.  For every 3 caster levels you have, you can transform one dog (to a maximum of five dogs at 15th level). At the end of the spell's duration, the dogs immediately dissolve into a stinking pile of gore and bones.  You can command the creature in the same way you would a creature you summoned via a <i>summon monster</i> spell. If you buy dogs to use with this spell, they cost 15 gp for a lap dog, 25 gp for a guard dog, or 150 gp for a riding dog (<i>Pathfinder RPG Ultimate Equipment</i> 82). Any kind of dog can be transformed by this spell and has the same statistics.</p>",
    "spellDuration": "1 hour/level"
  },
  "effects": [],
  "folder": null,
  "sort": 0,
  "permission": {
    "default": 0
  },
  "flags": {}
}