{
  "_id": "vyqvubccx5m8ie3r",
  "name": "Vision of Lamashtu",
  "type": "spell",
  "img": "systems/pf1/icons/misc/magic-swirl.png",
  "data": {
    "description": {
      "value": "<div class=\"spell-description\">\n  <p>\n    <strong>School</strong>&nbsp;illusion&nbsp;(phantasm)&nbsp;[mind-affecting, evil];\n    <strong>Level</strong>&nbsp;cleric/oracle 7, inquisitor 6, witch 7;\n    \n    \n    \n    \n  </p>\n  <p>\n    <strong>Casting Time</strong>&nbsp;10 minutes<br>\n    <strong>Components</strong>&nbsp;V, S<br>\n  </p>\n  <p>\n    \n    \n    <strong>Targets</strong>&nbsp;one living creature<br>\n    \n    <strong>Duration</strong>&nbsp;instantaneous<br>\n      <strong>Saving Throw</strong>&nbsp;Will negates (see text);&nbsp;\n      <strong>Spell Resistance</strong>&nbsp;yes<br>\n  </p>\n  <h2>Description</h2>\n  <p>This spell functions exactly as the spell <i>nightmare</i>. In addition to the effects of that spell, you can cause a second spell to be delivered when the target wakes at the <i>nightmare</i>'s conclusion.</p><p>You must have this second spell prepared, and it must be cast immediately after <i>vision of Lamashtu</i> (effectively adding the two spells' casting times). This second spell \"rides along\" with the <i>nightmare</i>, affecting the target as soon as it wakes from its fitful sleep. Any spell can be sent along with the <i>nightmare</i>, so long as it is of 6th level or lower, affects one target (which is always the <i>nightmare</i>'s recipient), and does not deal hit point damage. The second spell's range is irrelevant for the purposes of <i>vision of Lamashtu</i>, and even touch attacks can be delivered in this manner (you must still make a successful touch attack in order to affect the target, though, with the act of touching occurring within the context of the victim's <i>nightmare</i>). The target is allowed to save against the second spell if a save is allowed. For example, a cleric of Lamashtu could send <i>bestow curse</i> along as part of a <i>vision of Lamashtu</i>, but not <i>blade barrier</i> (affects an area), <i>destruction</i> (too high level), or <i>inflict moderate wounds</i> (deals hit point damage).</p>\n</div>\n"
    },
    "tags": [],
    "activation": {
      "cost": 10,
      "type": "minute"
    },
    "unchainedAction": {
      "activation": {
        "cost": 10,
        "type": "minute"
      }
    },
    "target": {
      "value": "one living creature"
    },
    "uses": {
      "per": ""
    },
    "measureTemplate": {
      "size": "0"
    },
    "actionType": "spellsave",
    "damage": {
      "parts": [],
      "critParts": [],
      "nonCritParts": []
    },
    "attackParts": [],
    "ability": {
      "attack": "",
      "damage": ""
    },
    "save": {
      "dc": "0",
      "type": "will",
      "description": "Will negates (see text)"
    },
    "effectNotes": [],
    "attackNotes": [],
    "links": {
      "children": []
    },
    "flags": {
      "boolean": [],
      "dictionary": []
    },
    "scriptCalls": [],
    "learnedAt": {
      "class": [
        [
          "cleric/oracle",
          7
        ],
        [
          "witch",
          7
        ],
        [
          "inquisitor",
          6
        ]
      ],
      "domain": [],
      "subDomain": [],
      "elementalSchool": [],
      "bloodline": []
    },
    "level": 7,
    "school": "ill",
    "subschool": "phantasm",
    "types": "mind-affecting, evil",
    "conditionals": [],
    "components": {
      "verbal": true,
      "somatic": true
    },
    "shortDescription": "<p>This spell functions exactly as the spell <i>nightmare</i>. In addition to the effects of that spell, you can cause a second spell to be delivered when the target wakes at the <i>nightmare</i>'s conclusion.</p><p>You must have this second spell prepared, and it must be cast immediately after <i>vision of Lamashtu</i> (effectively adding the two spells' casting times). This second spell \"rides along\" with the <i>nightmare</i>, affecting the target as soon as it wakes from its fitful sleep. Any spell can be sent along with the <i>nightmare</i>, so long as it is of 6th level or lower, affects one target (which is always the <i>nightmare</i>'s recipient), and does not deal hit point damage. The second spell's range is irrelevant for the purposes of <i>vision of Lamashtu</i>, and even touch attacks can be delivered in this manner (you must still make a successful touch attack in order to affect the target, though, with the act of touching occurring within the context of the victim's <i>nightmare</i>). The target is allowed to save against the second spell if a save is allowed. For example, a cleric of Lamashtu could send <i>bestow curse</i> along as part of a <i>vision of Lamashtu</i>, but not <i>blade barrier</i> (affects an area), <i>destruction</i> (too high level), or <i>inflict moderate wounds</i> (deals hit point damage).</p>",
    "spellDuration": "instantaneous"
  },
  "effects": [],
  "folder": null,
  "sort": 0,
  "permission": {
    "default": 0
  },
  "flags": {}
}