{
  "_id": "nqfoy30smshc3c6w",
  "name": "Wall of Thorns",
  "type": "spell",
  "img": "systems/pf1/icons/misc/magic-swirl.png",
  "data": {
    "description": {
      "value": "<div class=\"spell-description\">\n  <p>\n    <strong>School</strong>&nbsp;conjuration&nbsp;(creation);\n    <strong>Level</strong>&nbsp;druid 5, hunter 5, shaman 5;\n    <strong>Domain</strong>&nbsp;Plant 5;\n    <strong>Subdomain</strong>&nbsp;Blood 5;\n    \n    <strong>Bloodline</strong>&nbsp;Verdant 5;\n  </p>\n  <p>\n    <strong>Casting Time</strong>&nbsp;1 standard<br>\n    <strong>Components</strong>&nbsp;V, S<br>\n  </p>\n  <p>\n    <strong>Range</strong>&nbsp;medium (100 ft. + 10 ft./level)<br>\n    \n    \n    <strong>Effect</strong>&nbsp;wall of thorny brush, up to one 10-ft. cube/level (S)<br>\n    <strong>Duration</strong>&nbsp;10 min./level (D)<br>\n      <strong>Saving Throw</strong>&nbsp;none;&nbsp;\n      <strong>Spell Resistance</strong>&nbsp;no<br>\n  </p>\n  <h2>Description</h2>\n  <p>A <i>Wall of Thorns</i> spell creates a barrier of very tough, pliable, tangled brush bearing needle-sharp thorns as long as a human's finger. Any creature forced into or attempting to move through a <i>Wall of Thorns</i> takes piercing damage per round of movement equal to 25 minus the creature's AC. Dexterity and dodge bonuses to AC do not count for this calculation. (Creatures with an AC of 25 or higher, without considering Dexterity and dodge bonuses, take no damage from contact with the wall.) You can make the wall as thin as 5 feet thick, which allows you to shape the wall as a number of 10-by-10-by-5-foot blocks equal to twice your caster level. This has no effect on the damage dealt by the thorns, but any creature attempting to break through takes that much less time to force its way through the barrier.</p><p>Creatures can force their way slowly through the wall by making a Strength check as a full-round action. For every 5 points by which the check exceeds 20, a creature moves 5 feet (up to a maximum distance equal to its normal land speed). Of course, moving or attempting to move through the thorns incurs damage as described above. A creature trapped in the thorns can choose to remain motionless in order to avoid taking any more damage.</p><p>Any creature within the area of the spell when it is cast takes damage as if it had moved into the wall and is caught inside. In order to escape, it must attempt to push its way free, or it can wait until the spell ends. Creatures with the ability to pass through overgrown areas unhindered can pass through a <i>Wall of Thorns</i> at normal speed without taking damage.</p><p>A <i>Wall of Thorns</i> can be breached by slow work with edged weapons. Chopping away at the wall creates a safe passage 1 foot deep for every 10 minutes of work. Normal fire cannot harm the barrier, but magical fire burns it away in 10 minutes.</p>\n</div>\n"
    },
    "tags": [],
    "activation": {
      "type": "standard"
    },
    "unchainedAction": {
      "activation": {
        "cost": 2,
        "type": "action"
      }
    },
    "range": {
      "units": "medium"
    },
    "uses": {
      "per": ""
    },
    "measureTemplate": {
      "size": "0"
    },
    "actionType": "other",
    "damage": {
      "parts": [],
      "critParts": [],
      "nonCritParts": []
    },
    "attackParts": [],
    "ability": {
      "attack": "",
      "damage": ""
    },
    "save": {
      "dc": "0"
    },
    "effectNotes": [],
    "attackNotes": [],
    "links": {
      "children": []
    },
    "flags": {
      "boolean": [],
      "dictionary": []
    },
    "scriptCalls": [],
    "learnedAt": {
      "class": [
        [
          "druid",
          5
        ],
        [
          "shaman",
          5
        ],
        [
          "hunter",
          5
        ]
      ],
      "domain": [
        [
          "Plant",
          5
        ]
      ],
      "subDomain": [
        [
          "Blood",
          5
        ]
      ],
      "elementalSchool": [],
      "bloodline": [
        [
          "Verdant",
          5
        ]
      ]
    },
    "level": 5,
    "school": "con",
    "subschool": "creation",
    "conditionals": [],
    "components": {
      "verbal": true,
      "somatic": true
    },
    "sr": false,
    "shortDescription": "<p>A <i>Wall of Thorns</i> spell creates a barrier of very tough, pliable, tangled brush bearing needle-sharp thorns as long as a human's finger. Any creature forced into or attempting to move through a <i>Wall of Thorns</i> takes piercing damage per round of movement equal to 25 minus the creature's AC. Dexterity and dodge bonuses to AC do not count for this calculation. (Creatures with an AC of 25 or higher, without considering Dexterity and dodge bonuses, take no damage from contact with the wall.) You can make the wall as thin as 5 feet thick, which allows you to shape the wall as a number of 10-by-10-by-5-foot blocks equal to twice your caster level. This has no effect on the damage dealt by the thorns, but any creature attempting to break through takes that much less time to force its way through the barrier.</p><p>Creatures can force their way slowly through the wall by making a Strength check as a full-round action. For every 5 points by which the check exceeds 20, a creature moves 5 feet (up to a maximum distance equal to its normal land speed). Of course, moving or attempting to move through the thorns incurs damage as described above. A creature trapped in the thorns can choose to remain motionless in order to avoid taking any more damage.</p><p>Any creature within the area of the spell when it is cast takes damage as if it had moved into the wall and is caught inside. In order to escape, it must attempt to push its way free, or it can wait until the spell ends. Creatures with the ability to pass through overgrown areas unhindered can pass through a <i>Wall of Thorns</i> at normal speed without taking damage.</p><p>A <i>Wall of Thorns</i> can be breached by slow work with edged weapons. Chopping away at the wall creates a safe passage 1 foot deep for every 10 minutes of work. Normal fire cannot harm the barrier, but magical fire burns it away in 10 minutes.</p>",
    "spellDuration": "10 min./level (D)",
    "spellEffect": "wall of thorny brush, up to one 10-ft. cube/level (S)"
  },
  "effects": [],
  "folder": null,
  "sort": 0,
  "permission": {
    "default": 0
  },
  "flags": {}
}