{
  "_id": "nmn10phn471696dx",
  "name": "Wave Form",
  "type": "spell",
  "img": "systems/pf1/icons/misc/magic-swirl.png",
  "data": {
    "description": {
      "value": "<div class=\"spell-description\">\n  <p>\n    <strong>School</strong>&nbsp;transmutation&nbsp;[water];\n    <strong>Level</strong>&nbsp;bloodrager 4, cleric/oracle 4, druid 4, hunter 4, shaman 4, sorcerer/wizard 4;\n    \n    \n    \n    \n  </p>\n  <p>\n    <strong>Casting Time</strong>&nbsp;1 standard<br>\n    <strong>Components</strong>&nbsp;V, S<br>\n  </p>\n  <p>\n    <strong>Range</strong>&nbsp;personal<br>\n    \n    <strong>Targets</strong>&nbsp;you<br>\n    \n    <strong>Duration</strong>&nbsp;instantaneous<br>\n  </p>\n  <h2>Description</h2>\n  <p>You transform into a wave of frothing water up to 15 feet wide and 15 feet tall, as space permits, and then surge forth in a straight line in the direction of your choice, moving up to twice your base movement speed before immediately returning to your normal form. This movement does not provoke attacks of opportunity. While in wave form, you are immune to weapon attacks and attacks that target a specific number of creatures (since the spell is instantaneous, this is mainly relevant for readied actions and the like). All creatures and unattended objects in your path take 4d6 points of bludgeoning damage and are knocked prone. A successful Reflex save prevents a creature from being knocked prone.</p>\n</div>\n"
    },
    "tags": [],
    "activation": {
      "type": "standard"
    },
    "unchainedAction": {
      "activation": {
        "cost": 2,
        "type": "action"
      }
    },
    "target": {
      "value": "you"
    },
    "range": {
      "units": "personal"
    },
    "uses": {
      "per": ""
    },
    "measureTemplate": {
      "size": "0"
    },
    "actionType": "spellsave",
    "damage": {
      "parts": [],
      "critParts": [],
      "nonCritParts": []
    },
    "attackParts": [],
    "ability": {
      "attack": "",
      "damage": ""
    },
    "save": {
      "dc": "0",
      "description": "see text"
    },
    "effectNotes": [],
    "attackNotes": [],
    "links": {
      "children": []
    },
    "flags": {
      "boolean": [],
      "dictionary": []
    },
    "scriptCalls": [],
    "learnedAt": {
      "class": [
        [
          "sorcerer/wizard",
          4
        ],
        [
          "cleric/oracle",
          4
        ],
        [
          "druid",
          4
        ],
        [
          "bloodrager",
          4
        ],
        [
          "shaman",
          4
        ],
        [
          "hunter",
          4
        ]
      ],
      "domain": [],
      "subDomain": [],
      "elementalSchool": [],
      "bloodline": []
    },
    "level": 4,
    "school": "trs",
    "types": "water",
    "conditionals": [],
    "components": {
      "verbal": true,
      "somatic": true
    },
    "sr": false,
    "shortDescription": "<p>You transform into a wave of frothing water up to 15 feet wide and 15 feet tall, as space permits, and then surge forth in a straight line in the direction of your choice, moving up to twice your base movement speed before immediately returning to your normal form. This movement does not provoke attacks of opportunity. While in wave form, you are immune to weapon attacks and attacks that target a specific number of creatures (since the spell is instantaneous, this is mainly relevant for readied actions and the like). All creatures and unattended objects in your path take 4d6 points of bludgeoning damage and are knocked prone. A successful Reflex save prevents a creature from being knocked prone.</p>",
    "spellDuration": "instantaneous"
  },
  "effects": [],
  "folder": null,
  "sort": 0,
  "permission": {
    "default": 0
  },
  "flags": {}
}